pa2/CA2025_PA2/test_run_dir/Core_should_match_golden_memory/Core.vcd
$date
2025-12-03T07:30+0000
$end
$version
0.2
$end
$comment

$end
$timescale 1ns  $end
$scope module Core $end
 $var wire 1 # id_ex_in_ctrl_ctrlMemToReg $end
 $var wire 1 9 id_ex_in_ctrl_ctrlALUSrc $end
 $var wire 32 ? id_ex_in_rs1_data $end
 $var wire 1 D inst_mem $end
 $var wire 1 K alu $end
 $var wire 1 L clock $end
 $var wire 1 P ex_mem_in_ctrl_ctrlMemToReg $end
 $var wire 1 T io_peek_write $end
 $var wire 32 W id_ex_in_rs2_data $end
 $var wire 32 _ mem_wb_in_mem_data $end
 $var wire 32 k alu_src2 $end
 $var wire 32 l io_peek_data $end
 $var wire 5 m id_ex_in_regs_rd_addr $end
 $var wire 1 q mem_wb_in_ctrl_ctrlRegWrite $end
 $var wire 5 u mem_wb_in_regs_rd_addr $end
 $var wire 32 y wb_data $end
 $var wire 1 z reset $end
 $var wire 1 ~ ex_mem $end
 $var wire 32 "' ex_mem_in_alu_res $end
 $var wire 32 "6 if_id_in_inst $end
 $var wire 1 "8 reg_file $end
 $var wire 32 "= io_wb_result $end
 $var wire 1 "> id_ex_in_ctrl_ctrlMemWrite $end
 $var wire 1 "B ex_mem_in_ctrl_ctrlMemRead $end
 $var wire 1 "F mem_wb_in_ctrl_ctrlMemRead $end
 $var wire 32 "I id_ex_in_pc $end
 $var wire 32 "M io_inst $end
 $var wire 1 "P ex_mem_in_ctrl_ctrlMemWrite $end
 $var wire 5 "V ex_mem_in_regs_rd_addr $end
 $var wire 1 "] data_mem $end
 $var wire 1 "a id_ex_in_ctrl_ctrlRegWrite $end
 $var wire 1 "c mem_wb_in_ctrl_ctrlMemWrite $end
 $var wire 32 "l if_id_in_pc $end
 $var wire 5 "m id_ex_in_ctrl_ctrlALUOp $end
 $var wire 1 "s mem_wb_in_ctrl_ctrlMemToReg $end
 $var wire 1 "t delayedMemRead $end
 $var wire 32 #' io_pc $end
 $var wire 1 #4 if_id $end
 $var wire 32 #6 io_peek_addr $end
 $var wire 1 #E mem_wb $end
 $var wire 32 #K ex_mem_in_rs2_data $end
 $var wire 32 #O mem_wb_in_alu_res $end
 $var wire 32 #[ id_ex_in_imm $end
 $var wire 1 #` pc_handle $end
 $var wire 1 #b id_ex_in_ctrl_ctrlMemRead $end
 $var wire 1 #c ex_mem_in_ctrl_ctrlRegWrite $end
 $var wire 1 #e id_ex $end
 $var wire 1 #g decoder $end
  $scope module id_ex $end
   $var wire 1 % reg_ctrl_ctrlMemWrite $end
   $var wire 5 ' io_in_regs_rd_addr $end
   $var wire 1 1 io_in_ctrl_ctrlMemToReg $end
   $var wire 1 2 reg_ctrl_ctrlRegWrite $end
   $var wire 32 H io_out_imm $end
   $var wire 5 N io_out_regs_rd_addr $end
   $var wire 32 Y io_in_rs2_data $end
   $var wire 1 [ io_stall $end
   $var wire 1 \ io_out_ctrl_ctrlMemWrite $end
   $var wire 5 ] reg_ctrl_ctrlALUOp $end
   $var wire 1 ^ io_flush $end
   $var wire 1 b clock $end
   $var wire 1 f io_in_ctrl_ctrlRegWrite $end
   $var wire 32 g reg_rs1_data $end
   $var wire 1 n io_out_ctrl_ctrlRegWrite $end
   $var wire 32 v io_in_rs1_data $end
   $var wire 32 { reg_imm $end
   $var wire 1 "" reg_ctrl_ctrlALUSrc $end
   $var wire 32 ". io_out_rs2_data $end
   $var wire 5 "3 io_in_ctrl_ctrlALUOp $end
   $var wire 5 "C reg_regs_rd_addr $end
   $var wire 1 "D reg_ctrl_ctrlMemToReg $end
   $var wire 1 "R io_in_ctrl_ctrlMemWrite $end
   $var wire 32 "\ io_out_rs1_data $end
   $var wire 5 "d io_out_ctrl_ctrlALUOp $end
   $var wire 1 "j reg_ctrl_ctrlMemRead $end
   $var wire 1 "z io_out_ctrl_ctrlMemToReg $end
   $var wire 1 "| io_out_ctrl_ctrlALUSrc $end
   $var wire 32 "~ reg_pc $end
   $var wire 1 ## io_in_ctrl_ctrlMemRead $end
   $var wire 1 #) reset $end
   $var wire 1 #I io_out_ctrl_ctrlMemRead $end
   $var wire 32 #P io_in_pc $end
   $var wire 32 #V io_out_pc $end
   $var wire 32 #\ io_in_imm $end
   $var wire 1 #^ io_in_ctrl_ctrlALUSrc $end
   $var wire 32 #_ reg_rs2_data $end
  $upscope $end
  $scope module pc_handle $end
   $var wire 1 @ io_to_branch $end
   $var wire 1 R clock $end
   $var wire 32 S io_pc $end
   $var wire 32 ") io_jump_addr $end
   $var wire 32 "Q pc $end
   $var wire 32 #L next_pc $end
   $var wire 1 #d reset $end
  $upscope $end
  $scope module mem_wb $end
   $var wire 1 . reg_ctrl_ctrlMemRead $end
   $var wire 1 4 io_in_ctrl_ctrlMemWrite $end
   $var wire 1 8 io_out_ctrl_ctrlRegWrite $end
   $var wire 1 I io_stall $end
   $var wire 1 M reg_ctrl_ctrlMemWrite $end
   $var wire 32 U io_out_rs2_data $end
   $var wire 1 V io_in_ctrl_ctrlMemRead $end
   $var wire 1 a io_flush $end
   $var wire 32 c io_out_alu_res $end
   $var wire 1 i io_out_ctrl_ctrlMemToReg $end
   $var wire 32 p reg_alu_res $end
   $var wire 5 | io_out_regs_rd_addr $end
   $var wire 1 "- reg_ctrl_ctrlRegWrite $end
   $var wire 1 "1 reset $end
   $var wire 32 "; io_in_rs2_data $end
   $var wire 1 "< io_in_ctrl_ctrlMemToReg $end
   $var wire 1 "L io_out_ctrl_ctrlMemRead $end
   $var wire 1 "Z clock $end
   $var wire 1 "f reg_ctrl_ctrlMemToReg $end
   $var wire 5 "o reg_regs_rd_addr $end
   $var wire 32 #3 reg_rs2_data $end
   $var wire 1 #J io_out_ctrl_ctrlMemWrite $end
   $var wire 1 #T io_in_ctrl_ctrlRegWrite $end
   $var wire 5 #Z io_in_regs_rd_addr $end
   $var wire 32 #k io_in_alu_res $end
  $upscope $end
  $scope module data_mem $end
   $var wire 1 $ io_ctrlMemRead $end
   $var wire 1 X io_peek_write $end
   $var wire 32 "+ io_data_out $end
   $var wire 32 "9 io_data_in $end
   $var wire 32 "? io_addr $end
   $var wire 32 "O index $end
   $var wire 10 "n mem_io_data_out_MPORT_addr_pipe_0 $end
   $var wire 1 "p io_ctrlMemWrite $end
   $var wire 1 #2 peek_write $end
   $var wire 32 #R mem $end
   $var wire 1 #h clock $end
   $var wire 1 #m mem_io_data_out_MPORT_en_pipe_0 $end
    $scope module mem $end
     $var wire 32 ( MPORT $end
      $scope module MPORT $end
       $var wire 1 - clk $end
       $var wire 10 > addr $end
       $var wire 10 d pipeline_addr_0 $end
       $var wire 32 x pipeline_data_0 $end
       $var wire 1 "7 mask $end
       $var wire 1 "A en $end
       $var wire 32 "H data $end
       $var wire 1 "` valid $end
       $var wire 1 #l pipeline_valid_0 $end
      $upscope $end
      $scope module io_data_out_MPORT $end
       $var wire 1 / clk $end
       $var wire 10 B addr $end
       $var wire 32 "[ data $end
       $var wire 1 #S en $end
      $upscope $end
    $upscope $end
  $upscope $end
  $scope module ex_mem $end
   $var wire 5 * io_out_regs_rd_addr $end
   $var wire 5 A reg_regs_rd_addr $end
   $var wire 1 C reg_ctrl_ctrlMemToReg $end
   $var wire 1 E io_in_ctrl_ctrlMemToReg $end
   $var wire 32 F io_in_rs2_data $end
   $var wire 5 O io_in_regs_rd_addr $end
   $var wire 32 Q reg_rs2_data $end
   $var wire 1 e io_in_ctrl_ctrlRegWrite $end
   $var wire 1 w reg_ctrl_ctrlMemRead $end
   $var wire 32 "# io_out_alu_res $end
   $var wire 32 "( io_in_alu_res $end
   $var wire 1 "0 io_out_ctrl_ctrlMemWrite $end
   $var wire 32 ": io_out_rs2_data $end
   $var wire 1 "E clock $end
   $var wire 1 "J reg_ctrl_ctrlRegWrite $end
   $var wire 1 "K reset $end
   $var wire 1 "S io_in_ctrl_ctrlMemWrite $end
   $var wire 1 "T io_stall $end
   $var wire 1 "X reg_ctrl_ctrlMemWrite $end
   $var wire 1 "b io_in_ctrl_ctrlMemRead $end
   $var wire 1 "i io_out_ctrl_ctrlRegWrite $end
   $var wire 1 #D io_out_ctrl_ctrlMemRead $end
   $var wire 1 #U io_flush $end
   $var wire 32 #j reg_alu_res $end
   $var wire 1 #n io_out_ctrl_ctrlMemToReg $end
  $upscope $end
  $scope module inst_mem $end
   $var wire 1 : clock $end
   $var wire 32 ` mem $end
   $var wire 32 t io_inst $end
   $var wire 32 "* index $end
   $var wire 10 "h mem_io_inst_MPORT_addr_pipe_0 $end
   $var wire 1 #H mem_io_inst_MPORT_en_pipe_0 $end
   $var wire 32 #M io_addr $end
    $scope module mem $end
      $scope module io_inst_MPORT $end
       $var wire 32 G data $end
       $var wire 1 "$ clk $end
       $var wire 10 "e addr $end
       $var wire 1 #A en $end
      $upscope $end
    $upscope $end
  $upscope $end
  $scope module if_id $end
   $var wire 32 Z io_out_pc $end
   $var wire 32 o reg_pc $end
   $var wire 32 s io_out_inst $end
   $var wire 32 "! io_in_pc $end
   $var wire 1 "N io_flush $end
   $var wire 1 "Y reset $end
   $var wire 32 "x reg_inst $end
   $var wire 1 #W io_stall $end
   $var wire 32 #f io_in_inst $end
   $var wire 1 #i clock $end
  $upscope $end
  $scope module alu $end
   $var wire 32 + io_imm $end
   $var wire 32 7 io_pc $end
   $var wire 32 h src2_s $end
   $var wire 32 ", io_alu_result $end
   $var wire 5 "4 io_aluOp $end
   $var wire 5 "W shamt $end
   $var wire 32 #< io_src2 $end
   $var wire 32 #> io_src1 $end
   $var wire 32 #N alu_result $end
   $var wire 32 #Q src1_s $end
  $upscope $end
  $scope module decoder $end
   $var wire 9 ! immJ_hi_hi $end
   $var wire 5 " rd $end
   $var wire 7 & opcode $end
   $var wire 5 , immB_lo $end
   $var wire 1 0 io_ctrl_ctrlMemRead $end
   $var wire 12 3 immS $end
   $var wire 21 5 immJ $end
   $var wire 13 6 immB $end
   $var wire 1 J io_ctrl_ctrlRegWrite $end
   $var wire 8 r immB_hi $end
   $var wire 32 "% io_inst $end
   $var wire 1 "& io_ctrl_ctrlMemToReg $end
   $var wire 1 "/ io_ctrl_ctrlALUSrc $end
   $var wire 32 "2 io_imm $end
   $var wire 5 "5 io_regs_rs2_addr $end
   $var wire 5 "^ rs1 $end
   $var wire 5 "_ rs2 $end
   $var wire 7 "g funct7 $end
   $var wire 3 "k funct3 $end
   $var wire 5 "q io_ctrl_ctrlALUOp $end
   $var wire 10 "r immJ_hi $end
   $var wire 5 "u io_regs_rs1_addr $end
   $var wire 1 #X io_ctrl_ctrlMemWrite $end
   $var wire 5 #Y io_regs_rd_addr $end
   $var wire 2 #] immB_hi_hi $end
   $var wire 11 #a immJ_lo $end
  $upscope $end
  $scope module reg_file $end
   $var wire 5 ) io_rs1_addr $end
   $var wire 1 ; io_wen $end
   $var wire 5 < io_rs2_addr $end
   $var wire 1 = reset $end
   $var wire 1 j clock $end
   $var wire 5 } io_rd_addr $end
   $var wire 32 "@ io_rs1_data $end
   $var wire 32 "G io_wdata $end
   $var wire 32 "U io_rs2_data $end
   $var wire 32 "v regs_19 $end
   $var wire 32 "w regs_18 $end
   $var wire 32 "y regs_22 $end
   $var wire 32 "{ regs_21 $end
   $var wire 32 "} regs_24 $end
   $var wire 32 #! regs_23 $end
   $var wire 32 #" regs_26 $end
   $var wire 32 #$ regs_25 $end
   $var wire 32 #% regs_28 $end
   $var wire 32 #& regs_27 $end
   $var wire 32 #( regs_20 $end
   $var wire 32 #* regs_11 $end
   $var wire 32 #+ regs_10 $end
   $var wire 32 #, regs_13 $end
   $var wire 32 #- regs_12 $end
   $var wire 32 #. regs_15 $end
   $var wire 32 #/ regs_14 $end
   $var wire 32 #0 regs_17 $end
   $var wire 32 #1 regs_16 $end
   $var wire 32 #5 regs_9 $end
   $var wire 32 #7 regs_0 $end
   $var wire 32 #8 regs_5 $end
   $var wire 32 #9 regs_29 $end
   $var wire 32 #: regs_6 $end
   $var wire 32 #; regs_7 $end
   $var wire 32 #= regs_8 $end
   $var wire 32 #? regs_1 $end
   $var wire 32 #@ regs_2 $end
   $var wire 32 #B regs_3 $end
   $var wire 32 #C regs_4 $end
   $var wire 32 #F regs_31 $end
   $var wire 32 #G regs_30 $end
  $upscope $end
$upscope $end
$enddefinitions $end
$dumpvars
00
b00000000000000000000000000000000 +
01
02
b000000000000 3
04
b00000000000000000000000000000000 (
08
09
0:
0;
0=
0@
0C
0D
b00000000000000000000000000000000 7
0E
0I
b00000000 r
0J
0K
0L
0M
0P
0R
0T
0V
0X
0[
0\
0^
0a
0b
0e
0f
0i
0j
0n
0q
1"7
0w
0z
0~
b0000000000000 6
b00 #]
0""
0"$
0"&
b0000000 "g
0"-
0"/
0"0
0"1
0"8
0"<
b00000 "C
0">
0"A
0"B
0##
0"D
0"E
0"F
0#)
0"J
0"K
0"L
b00000 "3
0"N
b00000 "5
b00000 "4
0"P
0#2
0"R
0"S
0#4
0"T
0"X
0"Y
0"Z
0"]
0"`
0#A
0"a
0"b
0"c
0#D
0#E
0"f
0#H
0#I
0"i
0#J
0"j
0"p
b00000000000000000000000000000000 #P
0#S
b00000000000000000000000000000000 #O
0"s
0#T
b00000000000000000000000000000000 #N
0"t
0#U
b00000000000000000000000000000000 "l
b00000000000000000000000000000000 #M
0#W
0#X
b00000000000000000000000000000000 #R
b00000000000000000000000000000000 #Q
0"z
b00000000000000000000000000000000 #G
b00000000000000000000000000000000 #F
0"|
0#^
b00000000000000000000000000000000 #L
b00000000000000000000000000000000 #K
0#`
0#b
0#c
b00000 #Z
b00000000000000000000000000000000 "~
b00000000000000000000000000000000 #_
0#d
b00000 #Y
b00000000000000000000000000000000 "}
0#e
0#g
0#h
0#i
b00000000000000000000000000000000 "w
b00000 "q
b00000000000000000000000000000000 "v
0#l
b00000000000000000000000000000000 #V
0#m
0#n
b00000000000000000000000000000000 "{
b00000000000000000000000000000000 #\
b00000 "u
b00000000000000000000000000000000 #[
b00000000000000000000000000000000 "y
b00000000000000000000000000000000 "x
b00000 "m
b00000 "o
b00000000000000000000000000000000 #f
b00000000000000000000000000000000 #k
b0000000 &
b00000 "d
b00000000000000000000000000000000 #j
b00000 "_
b00000 "^
b00000 "W
b00000 "V
b00000000000000000000000000000000 ".
b00000000000000000000000000000000 ",
b00000000000000000000000000000000 "2
b00000000000000000000000000000000 "'
b00000000000000000000000000000000 "%
b00000000000000000000000000000000 "+
b000000000 !
b00000000000000000000000000000000 "*
b00000000000000000000000000000000 ")
b00000000000000000000000000000000 "(
b00000000000000000000000000000000 "?
b00000000000000000000000000000000 "=
b00000000000000000000000000000000 #$
b00000000000000000000000000000000 #"
b00000000000000000000000000000000 "@
b00000000000000000000000000000000 #!
b00000000000000000000000000000000 "6
b00000000000000000000000000000000 ";
b00000000000000000000000000000000 ":
b00000000000000000000000000000000 "9
b00000000000000000000000000000000 "O
b00000000000000000000000000000000 #0
b00000000000000000000000000000000 #/
b00000000000000000000000000000000 "M
b00000000000000000000000000000000 #.
b00000000000000000000000000000000 #-
b00000000000000000000000000000000 #3
b00000000000000000000000000000000 "Q
b00000000000000000000000000000000 #1
b00000000000000000000000000000000 "G
b00000000000000000000000000000000 #(
b00000000000000000000000000000000 #'
b00000000000000000000000000000000 #&
b00000000000000000000000000000000 #%
b00000000000000000000000000000000 #,
b00000000000000000000000000000000 #+
b00000000000000000000000000000000 "I
b00000000000000000000000000000000 #*
b00000000000000000000000000000000 "H
b00000000000000000000000000000000 #@
b00000000000000000000000000000000 #?
b00000000000000000000000000000000 #>
b00000000000000000000000000000000 "\
b00000000000000000000000000000000 #=
b00000000000000000000000000000000 #C
b00000000000000000000000000000000 #B
b00000000000000000000000000000000 #8
b000000000000000000000 5
b00000000000000000000000000000000 #7
b00000000000000000000000000000000 "U
b00000000000000000000000000000000 #6
b00000000000000000000000000000000 #5
b00000000000000000000000000000000 "[
b00000000000000000000000000000000 #<
b00000000000000000000000000000000 #;
b00000000000000000000000000000000 #:
b00000000000000000000000000000000 #9
b0000000000 d
b00000000000000000000000000000000 "#
b00000000000000000000000000000000 "!
b0000000000 >
b0000000000 B
b00000000000 #a
b00010000000000000000101000010011 `
b00000 "
b00000 '
b00000 )
b00000 *
b00000 ,
b000 "k
b00000 <
b00000 A
b00000 O
b00000 N
b00000000000000000000000000000000 k
b0000000000 "n
b00000000000000000000000000000000 l
b00000000000000000000000000000000 g
b0000000000 "r
b00000000000000000000000000000000 h
b0000000000 "e
b00000000000000000000000000000000 c
b00000 ]
b00000000000000000000000000000000 _
b0000000000 "h
b00000000000000000000000000000000 {
b00000000000000000000000000000000 v
b00000000000000000000000000000000 y
b00000000000000000000000000000000 x
b00000000000000000000000000000000 s
b00000 m
b00000000000000000000000000000000 t
b00000000000000000000000000000000 o
b00000000000000000000000000000000 p
b00000 u
b00000000000000000000000000000000 G
b00000000000000000000000000000000 F
b00000000000000000000000000000000 H
b00000 }
b00000 |
b00000000000000000000000000000000 ?
b00000000000000000000000000000000 Z
0#
0$
b00000000000000000000000000000000 W
0%
b00000000000000000000000000000000 Y
b00000000000000000000000000000000 S
b00000000000000000000000000000000 U
0-
0.
b00000000000000000000000000000000 Q
0/
$end
#0
1#d
b00010000000000000000101000010011 #f
1#)
b00010000000000000000101000010011 G
1"K
b00000000000000000000000000000100 #L
b00010000000000000000101000010011 "M
1"1
b00010000000000000000101000010011 t
b00010000000000000000101000010011 "6
1"Y
1z
1=
#1
1b
1"$
1"E
1#H
1#h
1#i
1j
1#m
1L
1-
1/
1#S
1R
1"Z
1:
1#A
#6
0#d
0b
0"$
0"E
0#h
0#)
0#i
0"K
0j
0L
0-
0/
0"1
0R
0"Y
0"Z
0:
0z
0=
#11
1"$
b00010000000000000000101000010011 "%
b0001000 "g
b00000000000000000000000000000001 "*
b00000000000000000000000000001000 #L
1J
b00000000000000000000000000000100 #M
b00000000000000000000000000000100 "l
b00001 "m
1L
1"/
b00001 "q
b00000000000000000000000100000000 "2
b00001 "3
1R
b00000000000000000000000000000100 S
b00010000000000000000101000010011 "x
b10100 #Y
b00000000000000000000000100000000 #[
b00000000000000000000000100000000 #\
1#^
b00100000000 #a
b10100 "
1b
1"E
b00000000000000000000000000000100 #'
1#h
b0010011 &
1f
1#i
b10100 '
1j
b10100 ,
1-
b10100 m
1/
b00000000000000000000000000000100 "Q
b00001000 r
b000100010100 3
b00010000000000000000101000010011 s
b000000000000100000000 5
b0000100010100 6
1"Z
19
1:
b00000000000000000000000000000100 "!
1"a
#16
0b
0"$
0"E
0#h
0#i
0j
0L
0-
0/
0R
0"Z
0:
#21
b00001 "d
b0000000001 "e
b0000000001 "h
b00000000000000000000000000001100 #L
b00000000000000000000000000001000 #M
b00000000000000000000000000001000 "l
b00000000000000000000000100000000 #N
b00000000000000000000000000000100 #P
1"|
1#c
b00010010110000000000101010010011 #f
1#h
1#i
b00000000000000000000000100000000 +
1-
1/
12
1:
b00000000000000000000000000001000 "!
1""
1"$
b00000000000000000000000100000000 "'
b00000000000000000000000100000000 "(
b00010010110000000000101010010011 G
b00000000000000000000000100000000 H
b00000000000000000000000000000010 "*
b00000000000000000000000100000000 ",
1L
b10100 N
b10100 O
1R
b00001 "4
b00000000000000000000000000001000 S
b00010010110000000000101010010011 "6
b00000000000000000000000000000100 Z
b00001 ]
b10100 "C
1b
1"E
b00000000000000000000000000001000 #'
1e
b00000000000000000000000000000100 "I
b00000000000000000000000100000000 h
1j
b00000000000000000000000100000000 k
b00010010110000000000101010010011 "M
1n
b00000000000000000000000000000100 o
b00000000000000000000000000001000 "Q
b00010010110000000000101010010011 t
b10100 "V
1"Z
b00000000000000000000000100000000 #<
b00000000000000000000000100000000 {
#26
0b
0"$
0"E
0#h
0#i
0j
0L
0-
0/
0R
0"Z
0:
#31
b0000000010 "e
b0001001 "g
b0000000010 "h
1"i
b00000000000000000000000000010000 #L
b00000000000000000000000000001100 #M
b00000000000000000000000000001100 "l
b00000000000000000000000100000000 #O
b00000000000000000000000000001000 #P
1#T
b00000000000000000000000000000100 #V
b00010010110000000000101010010011 "x
b10101 #Y
b10100 #Z
b00000000000000000000000100101100 #[
b00000000000000000000000100101100 #\
b01 #]
b00000000000000000000000000000100 "~
b00100101100 #a
b10101 "
b00000000101000000000000010010011 #f
1#h
1#i
b10101 '
b00000000000000000000000100000000 #j
b10100 *
1-
1/
b000100110101 3
b000000000000100101100 5
b0100100110100 6
b00000000000000000000000000000100 7
1:
b01100 <
b0001000000 >
b00000000000000000000000000001100 "!
b10100 A
b00000000000000000000000100000000 "#
1"$
b00010010110000000000101010010011 "%
b00000000101000000000000010010011 G
b00000000000000000000000000000011 "*
1L
b00000000000000000000000100101100 "2
1R
b00000000000000000000000000001100 S
b01100 "5
b00000000101000000000000010010011 "6
b00000000000000000000000100000000 ";
b00000000000000000000000000001000 Z
b00000000000000000000000100000000 "?
1b
1"E
b00000000000000000000000000001100 #'
b00000000000000000000000000001000 "I
1"J
1j
b00000000101000000000000010010011 "M
b10101 m
b00000000000000000000000001000000 "O
b00000000000000000000000000001000 o
b00000000000000000000000000001100 "Q
1q
b01001001 r
b00010010110000000000101010010011 s
b00000000000000000000000100000000 #6
b00000000101000000000000010010011 t
b10100 u
1"Z
b01100 "_
#36
0b
0"$
0"E
0#h
0#i
0j
0L
0-
0/
0R
0"Z
0:
#41
b0000000011 "e
b0000000 "g
b0000000011 "h
b00000000000000000000000000010100 #L
b00000000000000000000000000010000 #M
b00000000000000000000000000010000 "l
b00000000000000000000000100101100 #N
b0001000000 "n
b10100 "o
b00000000000000000000000000001100 #P
b00000000000000000000000000001000 #V
b00000000101000000000000010010011 "x
b00001 #Y
b00000000000000000000000000001010 #[
b00000000000000000000000000001010 #\
b00000000000000000000000000001000 "~
b00000001010 #a
b00001 "
b00000001010000000000000100010011 #f
1#h
1#i
b00001 '
b00000000000000000000000100101100 +
b00000 ,
1-
1/
b000000000001 3
b000000000000000001010 5
b0100000000000 6
b00000000000000000000000000001000 7
18
1:
1;
b01010 <
b00000000000000000000000000010000 "!
b0001000000 B
1"$
b00000000101000000000000010010011 "%
b00000000000000000000000100101100 "'
b00000000000000000000000100101100 "(
b00000001010000000000000100010011 G
b00000000000000000000000100101100 H
b00000000000000000000000000000100 "*
b00000000000000000000000100101100 ",
1"-
1L
b10101 N
b10101 O
b00000000000000000000000000001010 "2
1R
b00000000000000000000000000010000 S
b01010 "5
b00000001010000000000000100010011 "6
b00000000000000000000000100000000 U
b00000000000000000000000000001100 Z
b00000000000000000000000100000000 "=
b10101 "C
1b
1"E
b0001000000 d
b00000000000000000000000000010000 #'
b00000000000000000000000100000000 "G
b00000000000000000000000000001100 "I
b00000000000000000000000100101100 h
1j
b00000000000000000000000100101100 k
b00000001010000000000000100010011 "M
b00001 m
b00000000000000000000000000001100 o
b00000000000000000000000000010000 "Q
b00000000000000000000000100000000 #3
b01000000 r
b00000000101000000000000010010011 s
b00000001010000000000000100010011 t
b10101 "V
b01100 "W
1"Z
b00000000000000000000000100000000 y
b00000000000000000000000100101100 #<
b00000000000000000000000100101100 {
b10100 |
b10100 }
b01010 "_
#46
0b
0"$
0"E
0#h
0#i
0j
0L
0-
0/
0R
0"Z
0:
#51
b0000000100 "e
b0000000100 "h
b00000000000000000000000000011000 #L
b00000000000000000000000000010100 #M
b00000000000000000000000000010100 "l
b00000000000000000000000000001010 #N
b00000000000000000000000100101100 #O
b00000000000000000000000000010000 #P
b00000000000000000000000000001100 #V
b00000001010000000000000100010011 "x
b00010 #Y
b10101 #Z
b00000000000000000000000000010100 #[
b00000000000000000000000000010100 #\
b00 #]
b00000000000000000000000000001100 "~
b00000010100 #a
b00010 "
b00000001111000000000000110010011 #f
1#h
1#i
b00010 '
b00000000000000000000000100101100 #j
b10101 *
b00000000000000000000000000001010 +
b00010 ,
1-
1/
b000000000010 3
b000000000000000010100 5
b0000000000010 6
b00000000000000000000000000001100 7
1:
b10100 <
b0001001011 >
b00000000000000000000000000010100 "!
b10101 A
b00000000000000000000000100101100 "#
1"$
b00000001010000000000000100010011 "%
b00000000000000000000000000001010 "'
b00000000000000000000000000001010 "(
b00000001111000000000000110010011 G
b00000000000000000000000000001010 H
b00000000000000000000000000000101 "*
b00000000000000000000000000001010 ",
1L
b00001 N
b00001 O
b00000000000000000000000000010100 "2
1R
b00000000000000000000000000010100 S
b10100 "5
b00000001111000000000000110010011 "6
b00000000000000000000000100000000 W
b00000000000000000000000100000000 Y
b00000000000000000000000100101100 ";
b00000000000000000000000000010000 Z
b00000000000000000000000100101100 "?
b00001 "C
1b
1"E
b00000000000000000000000000010100 #'
b00000000000000000000000100000000 #(
b00000000000000000000000000010000 "I
b00000000000000000000000000001010 h
1j
b00000000000000000000000000001010 k
b00000001111000000000000110010011 "M
b00010 m
b00000000000000000000000001001011 "O
b00000000000000000000000000010000 o
b00000000000000000000000000010100 "Q
b00000000 r
b00000001010000000000000100010011 s
b00000000000000000000000100101100 #6
b00000000000000000000000100000000 "U
b00000001111000000000000110010011 t
b00001 "V
b10101 u
b01010 "W
1"Z
b00000000000000000000000000001010 #<
b00000000000000000000000000001010 {
b10100 "_
#56
0b
0"$
0"E
0#h
0#i
0j
0L
0-
0/
0R
0"Z
0:
#61
b00011 "
b00011 '
b00001 *
b00000000000000000000000000010100 +
1-
1/
b000000000011 3
b000000000000000011110 5
b0100000000010 6
b00000000000000000000000000010000 7
1:
b11110 <
b0000000010 >
b00000000000000000000000000011000 "!
b00001 A
b00000000000000000000000000001010 "#
b0001001011 B
1"$
b00000001111000000000000110010011 "%
b00000000000000000000000000010100 "'
b00000000000000000000000100000000 F
b00000000000000000000000000010100 "(
b00000010100000000000001000010011 G
b00000000000000000000000000010100 H
b00000000000000000000000000000110 "*
b00000000000000000000000000010100 ",
1L
b00000000000000000000000100000000 ".
b00010 N
b00010 O
b00000000000000000000000000011110 "2
1R
b00000000000000000000000000011000 S
b11110 "5
b00000010100000000000001000010011 "6
b00000000000000000000000100101100 U
b00000000000000000000000000000000 W
b00000000000000000000000000000000 Y
b00000000000000000000000000001010 ";
b00000000000000000000000000010100 Z
b00000000000000000000000100101100 "=
b00000000000000000000000000001010 "?
b00010 "C
1b
1"E
b0001001011 d
b00000000000000000000000000011000 #'
b00000000000000000000000100101100 "G
b00000000000000000000000000010100 "I
b00000000000000000000000000010100 h
1j
b00000000000000000000000000010100 k
b00000010100000000000001000010011 "M
b00011 m
b00000000000000000000000000000010 "O
b00000000000000000000000000010100 o
b00000000000000000000000000011000 "Q
b00000000000000000000000100101100 #3
b01000000 r
b00000001111000000000000110010011 s
b00000000000000000000000000001010 #6
b00000000000000000000000000000000 "U
b00000010100000000000001000010011 t
b00010 "V
b00001 u
b10100 "W
1"Z
b00000000000000000000000100101100 y
b00000000000000000000000000010100 #<
b00000000000000000000000000010100 {
b10101 |
b10101 }
b11110 "_
b0000000101 "e
b0000000101 "h
b00000000000000000000000100000000 #K
b00000000000000000000000000011100 #L
b00000000000000000000000000011000 #M
b00000000000000000000000000011000 "l
b00000000000000000000000000010100 #N
b00000000000000000000000000001010 #O
b0001001011 "n
b10101 "o
b00000000000000000000000000010100 #P
b00000000000000000000000000010000 #V
b00000001111000000000000110010011 "x
b00011 #Y
b00001 #Z
b00000000000000000000000000011110 #[
b00000000000000000000000000011110 #\
b01 #]
b00000000000000000000000100000000 #_
b00000000000000000000000000010000 "~
b00000011110 #a
b00000010100000000000001000010011 #f
1#h
1#i
b00000000000000000000000000001010 #j
#66
0b
0"$
0"E
0#h
0#i
0j
0L
0-
0/
0R
0"Z
0:
