pa2/pa2/test_run_dir/Core_should_match_golden_memory/Core.vcd
$date
2025-12-05T16:40+0000
$end
$version
0.2
$end
$comment

$end
$timescale 1ns  $end
$scope module Core $end
 $var wire 1 # reg_file $end
 $var wire 32 ) io_wb_result $end
 $var wire 32 G io_inst $end
 $var wire 1 X inst_mem $end
 $var wire 1 ^ data_mem $end
 $var wire 1 k alu $end
 $var wire 1 l clock $end
 $var wire 1 x io_peek_write $end
 $var wire 32 "# actual_src2 $end
 $var wire 32 "4 io_pc $end
 $var wire 1 "D if_id $end
 $var wire 32 "I io_peek_addr $end
 $var wire 1 "Z mem_wb $end
 $var wire 32 "` io_peek_data $end
 $var wire 1 "{ reset $end
 $var wire 1 #% ex_mem $end
 $var wire 1 #* pc_handle $end
 $var wire 1 #1 id_ex $end
 $var wire 1 #4 decoder $end
  $scope module id_ex $end
   $var wire 1 7 io_in_ctrl_ctrlMemToReg $end
   $var wire 32 B rs1_data_id $end
   $var wire 32 E pc_id $end
   $var wire 1 L io_in_ctrl_ctrlMemWrite $end
   $var wire 32 V rs2_data_id $end
   $var wire 5 Z io_in_rd_addr $end
   $var wire 32 \ io_out_rs1_data $end
   $var wire 32 c io_out_imm $end
   $var wire 1 d ctrl_id_ctrlRegWrite $end
   $var wire 5 i io_out_ctrl_ctrlALUOp $end
   $var wire 32 ~ io_in_rs2_data $end
   $var wire 1 "" io_stall $end
   $var wire 1 "$ io_out_ctrl_ctrlMemWrite $end
   $var wire 1 "% io_flush $end
   $var wire 1 "* io_out_ctrl_ctrlMemToReg $end
   $var wire 1 ", io_out_ctrl_ctrlALUSrc $end
   $var wire 1 "0 io_in_ctrl_ctrlMemRead $end
   $var wire 1 "6 reset $end
   $var wire 5 "8 rd_addr_id $end
   $var wire 1 "B clock $end
   $var wire 1 "H io_in_ctrl_ctrlRegWrite $end
   $var wire 1 "^ ctrl_id_ctrlMemRead $end
   $var wire 1 "a io_out_ctrl_ctrlMemRead $end
   $var wire 1 "c io_out_ctrl_ctrlRegWrite $end
   $var wire 32 "f io_in_pc $end
   $var wire 1 "n ctrl_id_ctrlMemWrite $end
   $var wire 32 "q io_out_pc $end
   $var wire 32 "s io_in_rs1_data $end
   $var wire 1 "} ctrl_id_ctrlALUSrc $end
   $var wire 32 #! io_in_imm $end
   $var wire 1 ## io_in_ctrl_ctrlALUSrc $end
   $var wire 32 #' imm_id $end
   $var wire 5 #2 ctrl_id_ctrlALUOp $end
   $var wire 5 #: io_out_rd_addr $end
   $var wire 1 #; ctrl_id_ctrlMemToReg $end
   $var wire 32 #= io_out_rs2_data $end
   $var wire 5 #E io_in_ctrl_ctrlALUOp $end
  $upscope $end
  $scope module pc_handle $end
   $var wire 32 K pc $end
   $var wire 1 M io_to_branch $end
   $var wire 1 u clock $end
   $var wire 32 v io_pc $end
   $var wire 32 "b next_pc $end
   $var wire 1 #. reset $end
   $var wire 32 #/ io_jump_addr $end
  $upscope $end
  $scope module mem_wb $end
   $var wire 1 ( io_in_ctrl_ctrlMemToReg $end
   $var wire 1 : ctrl_mem_ctrlMemToReg $end
   $var wire 1 @ io_out_ctrl_ctrlRegWrite $end
   $var wire 1 U clock $end
   $var wire 1 e ctrl_mem_ctrlRegWrite $end
   $var wire 1 g io_stall $end
   $var wire 5 w io_in_rd_addr $end
   $var wire 1 "< io_flush $end
   $var wire 1 "Y io_out_ctrl_ctrlMemToReg $end
   $var wire 5 "g rd_addr_mem $end
   $var wire 1 "k io_in_ctrl_ctrlRegWrite $end
   $var wire 32 "v alu_result_mem $end
   $var wire 32 "~ io_out_alu_result $end
   $var wire 5 #- io_out_rd_addr $end
   $var wire 32 #0 io_in_alu_result $end
   $var wire 1 #B reset $end
  $upscope $end
  $scope module data_mem $end
   $var wire 32 $ io_data_in $end
   $var wire 1 * io_ctrlMemRead $end
   $var wire 32 + io_addr $end
   $var wire 32 J index $end
   $var wire 10 t mem_io_data_out_MPORT_addr_pipe_0 $end
   $var wire 1 y io_ctrlMemWrite $end
   $var wire 1 } io_peek_write $end
   $var wire 1 "C peek_write $end
   $var wire 32 "i mem $end
   $var wire 32 #7 io_data_out $end
   $var wire 1 #8 clock $end
   $var wire 1 #A mem_io_data_out_MPORT_en_pipe_0 $end
    $scope module mem $end
     $var wire 32 / MPORT $end
      $scope module MPORT $end
       $var wire 1 " mask $end
       $var wire 1 - en $end
       $var wire 1 3 clk $end
       $var wire 32 = data $end
       $var wire 10 I addr $end
       $var wire 1 b valid $end
       $var wire 10 "F pipeline_addr_0 $end
       $var wire 32 "u pipeline_data_0 $end
       $var wire 1 #@ pipeline_valid_0 $end
      $upscope $end
      $scope module io_data_out_MPORT $end
       $var wire 1 4 clk $end
       $var wire 10 T addr $end
       $var wire 32 Y data $end
       $var wire 1 "j en $end
      $upscope $end
    $upscope $end
  $upscope $end
  $scope module ex_mem $end
   $var wire 32 & io_out_rs2_data $end
   $var wire 5 ' io_out_rd_addr $end
   $var wire 1 5 clock $end
   $var wire 32 9 rs2_data_ex $end
   $var wire 1 ? ctrl_ex_ctrlMemWrite $end
   $var wire 1 A ctrl_ex_ctrlMemToReg $end
   $var wire 1 D reset $end
   $var wire 1 N io_in_ctrl_ctrlMemWrite $end
   $var wire 1 O io_stall $end
   $var wire 5 W rd_addr_ex $end
   $var wire 1 [ io_in_ctrl_ctrlMemToReg $end
   $var wire 32 ] io_in_rs2_data $end
   $var wire 1 f io_in_ctrl_ctrlMemRead $end
   $var wire 1 m ctrl_ex_ctrlMemRead $end
   $var wire 5 p io_in_rd_addr $end
   $var wire 1 q io_out_ctrl_ctrlRegWrite $end
   $var wire 32 s io_out_alu_result $end
   $var wire 32 | io_in_alu_result $end
   $var wire 1 "G io_in_ctrl_ctrlRegWrite $end
   $var wire 1 "X io_out_ctrl_ctrlMemRead $end
   $var wire 1 "l io_flush $end
   $var wire 32 "w alu_result_ex $end
   $var wire 1 "x ctrl_ex_ctrlRegWrite $end
   $var wire 1 #? io_out_ctrl_ctrlMemWrite $end
   $var wire 1 #D io_out_ctrl_ctrlMemToReg $end
  $upscope $end
  $scope module inst_mem $end
   $var wire 1 C clock $end
   $var wire 10 o mem_io_inst_MPORT_addr_pipe_0 $end
   $var wire 32 "7 mem $end
   $var wire 1 "_ mem_io_inst_MPORT_en_pipe_0 $end
   $var wire 32 "d io_addr $end
   $var wire 32 "p io_inst $end
   $var wire 32 #5 index $end
    $scope module mem $end
      $scope module io_inst_MPORT $end
       $var wire 32 a data $end
       $var wire 10 j addr $end
       $var wire 1 "U en $end
       $var wire 1 #( clk $end
      $upscope $end
    $upscope $end
  $upscope $end
  $scope module if_id $end
   $var wire 1 H io_flush $end
   $var wire 32 R inst_if $end
   $var wire 1 S reset $end
   $var wire 32 "! io_out_pc $end
   $var wire 32 "o io_out_inst $end
   $var wire 1 "r io_stall $end
   $var wire 32 #& io_in_pc $end
   $var wire 32 #3 io_in_inst $end
   $var wire 32 #6 pc_if $end
   $var wire 1 #9 clock $end
  $upscope $end
  $scope module alu $end
   $var wire 32 1 io_imm $end
   $var wire 32 > io_pc $end
   $var wire 5 Q shamt $end
   $var wire 32 "N src2_s $end
   $var wire 32 "P io_src2 $end
   $var wire 32 "R io_src1 $end
   $var wire 32 "e alu_result $end
   $var wire 32 "h src1_s $end
   $var wire 32 #< io_alu_result $end
   $var wire 5 #F io_aluOp $end
  $upscope $end
  $scope module decoder $end
   $var wire 9 ! immJ_hi_hi $end
   $var wire 5 % rd $end
   $var wire 7 . opcode $end
   $var wire 5 2 immB_lo $end
   $var wire 1 6 io_ctrl_ctrlMemRead $end
   $var wire 12 8 immS $end
   $var wire 21 ; immJ $end
   $var wire 13 < immB $end
   $var wire 5 _ rs1 $end
   $var wire 5 ` rs2 $end
   $var wire 1 h io_ctrl_ctrlRegWrite $end
   $var wire 7 n funct7 $end
   $var wire 3 r funct3 $end
   $var wire 5 z io_ctrl_ctrlALUOp $end
   $var wire 10 { immJ_hi $end
   $var wire 5 "& io_regs_rs1_addr $end
   $var wire 8 "m immB_hi $end
   $var wire 1 "t io_ctrl_ctrlMemWrite $end
   $var wire 5 "y io_regs_rd_addr $end
   $var wire 2 #" immB_hi_hi $end
   $var wire 32 #) io_inst $end
   $var wire 1 #+ io_ctrl_ctrlMemToReg $end
   $var wire 11 #, immJ_lo $end
   $var wire 1 #> io_ctrl_ctrlALUSrc $end
   $var wire 32 #C io_imm $end
   $var wire 5 #G io_regs_rs2_addr $end
  $upscope $end
  $scope module reg_file $end
   $var wire 32 , io_rs1_data $end
   $var wire 5 0 io_rs1_addr $end
   $var wire 5 F io_rs2_addr $end
   $var wire 32 P io_rs2_data $end
   $var wire 32 "' regs_19 $end
   $var wire 32 "( regs_18 $end
   $var wire 32 ") regs_22 $end
   $var wire 32 "+ regs_21 $end
   $var wire 32 "- regs_24 $end
   $var wire 32 ". regs_23 $end
   $var wire 32 "/ regs_26 $end
   $var wire 32 "1 regs_25 $end
   $var wire 32 "2 regs_28 $end
   $var wire 32 "3 regs_27 $end
   $var wire 32 "5 regs_20 $end
   $var wire 32 "9 regs_11 $end
   $var wire 32 ": regs_10 $end
   $var wire 32 "; regs_13 $end
   $var wire 32 "= regs_12 $end
   $var wire 32 "> regs_15 $end
   $var wire 32 "? regs_14 $end
   $var wire 32 "@ regs_17 $end
   $var wire 32 "A regs_16 $end
   $var wire 32 "E regs_9 $end
   $var wire 32 "J regs_0 $end
   $var wire 32 "K regs_5 $end
   $var wire 32 "L regs_29 $end
   $var wire 32 "M regs_6 $end
   $var wire 32 "O regs_7 $end
   $var wire 32 "Q regs_8 $end
   $var wire 32 "S regs_1 $end
   $var wire 32 "T regs_2 $end
   $var wire 32 "V regs_3 $end
   $var wire 32 "W regs_4 $end
   $var wire 1 "[ clock $end
   $var wire 32 "\ regs_31 $end
   $var wire 32 "] regs_30 $end
   $var wire 32 "z io_rd_data $end
   $var wire 1 "| io_reg_write $end
   $var wire 5 #$ io_rd_addr $end
  $upscope $end
$upscope $end
$enddefinitions $end
$dumpvars
b00000000000000000000000000000000 +
03
b00000000000000000000000000000000 ,
04
05
b00000000000000000000000000000000 &
06
b00000000000000000000000000000000 )
07
0:
b00000000000000000000000000000000 $
b000000000000 8
0?
0@
1"
0A
b00000000000000000000000000000000 =
0C
0D
b00000000000000000000000000000000 9
0H
0L
b00000000000000000000000000000000 /
0M
0N
b00000000000000000000000000000000 1
0O
0S
0U
0X
0[
0^
0b
0d
0e
0f
0g
0h
0k
0l
0m
0q
0u
0x
0y
0}
b0000000000000 <
0""
0"$
0"%
0"*
b00010000000000000000101000010011 "7
0",
0"0
0"6
b00000 #-
0"<
b00000000 "m
b00000 #$
0"B
0##
0"C
b00000 "8
0"D
0#%
b000 r
0"G
0#(
0"H
0#*
0#+
0#.
0#1
0#4
0"U
0#8
b0000000 n
0"X
0#9
0"Y
b00 #"
0"Z
0#;
0"[
0#>
0"^
0#?
0"_
0#@
0#A
0"a
0#B
b00000 "&
0"c
0#D
0"j
0"k
0"l
0"n
b00000000000000000000000000000000 "o
0"r
0"t
b00000000000000000000000000000000 "s
b00000000000000000000000000000000 "q
0"x
b00000000000000000000000000000000 "p
b00000000000000000000000000000000 "f
0"{
b00000000000000000000000000000000 "e
0"|
b00000000000000000000000000000000 "d
0"}
b00000000000000000000000000000000 "i
b00000000000000000000000000000000 "h
b00000 "y
b00000000000000000000000000000000 "~
b00000000000000000000000000000000 "w
b00000000000000000000000000000000 "v
b00000000000000000000000000000000 "u
b00000000000000000000000000000000 "z
b0000000 .
b00000 #F
b00000 #E
b00000 "g
b00000 #G
b00000 #:
b00000 #2
b00000000000000000000000000000000 "/
b00000000000000000000000000000000 ".
b00000000000000000000000000000000 "-
b00000000000000000000000000000000 "3
b00000000000000000000000000000000 "2
b00000000000000000000000000000000 "1
b00000000000000000000000000000000 "'
b00000000000000000000000000000000 "+
b000000000 !
b00000000000000000000000000000000 ")
b00000000000000000000000000000000 "(
b00000000000000000000000000000000 "?
b00000000000000000000000000000000 ">
b00000000000000000000000000000000 "=
b00000000000000000000000000000000 "A
b00000000000000000000000000000000 "@
b00000000000000000000000000000000 #!
b00000000000000000000000000000000 "5
b00000000000000000000000000000000 "4
b00000000000000000000000000000000 ";
b00000000000000000000000000000000 ":
b00000000000000000000000000000000 "9
b00000000000000000000000000000000 "O
b00000000000000000000000000000000 #0
b00000000000000000000000000000000 "N
b00000000000000000000000000000000 #/
b00000000000000000000000000000000 "M
b00000000000000000000000000000000 "L
b00000000000000000000000000000000 "S
b00000000000000000000000000000000 "R
b00000000000000000000000000000000 #3
b00000000000000000000000000000000 "Q
b00000000000000000000000000000000 "P
b00000000000000000000000000000000 #'
b00000000000000000000000000000000 "E
b00000000000000000000000000000000 #&
b0000000000 "F
b00000000000000000000000000000000 "K
b00000000000000000000000000000000 "J
b00000000000000000000000000000000 "I
b00000000000000000000000000000000 #)
b00000000000000000000000000000000 "]
b000000000000000000000 ;
b00000000000000000000000000000000 "\
b00000000000000000000000000000000 #=
b00000000000000000000000000000000 "b
b00000000000000000000000000000000 #C
b00000000000000000000000000000000 "`
b00000000000000000000000000000000 "W
b00000000000000000000000000000000 "V
b00000000000000000000000000000000 #7
b00000000000000000000000000000000 #6
b00000000000000000000000000000000 "T
b00000000000000000000000000000000 #5
b00000000000000000000000000000000 #<
b0000000000 {
b0000000000 o
b0000000000 t
b0000000000 j
b0000000000 T
b0000000000 I
b00000000000000000000000000000000 "#
b00000000000000000000000000000000 "!
b00000 %
b00000 '
b00000 0
b00000 2
b00000000000000000000000000000000 ~
b00000 F
b00000 Q
b00000 W
b00000000000000000000000000000000 c
b00000 Z
b00000 _
b00000000000 #,
b00000000000000000000000000000000 a
b00000 `
b00000000000000000000000000000000 |
b00000000000000000000000000000000 v
b00000 i
b00000000000000000000000000000000 s
b00000 p
b00000000000000000000000000000000 K
b00000000000000000000000000000000 J
b00000 w
b00000000000000000000000000000000 G
b00000 z
b00000000000000000000000000000000 B
b00000000000000000000000000000000 E
b00000000000000000000000000000000 >
b00000000000000000000000000000000 ]
0#
b00000000000000000000000000000000 \
b00000000000000000000000000000000 V
b00000000000000000000000000000000 Y
0(
b00000000000000000000000000000000 R
0*
0-
b00000000000000000000000000000000 P
$end
#0
b00010000000000000000101000010011 #3
b00000000000000000000000000000100 "b
b00010000000000000000101000010011 a
1S
1D
1"6
b00010000000000000000101000010011 G
1"{
1#.
b00010000000000000000101000010011 "p
1#B
#1
1"B
1C
1#(
1"j
1l
13
1"U
14
15
1U
1u
1#8
1#9
1"[
1"_
1#A
#6
0"B
0C
0D
0#(
0#.
0l
03
0S
04
0"6
05
0U
0u
0#8
0#9
0"[
0"{
0#B
#11
b00000000000000000000000100000000 #C
b00000000000000000000000000001000 "b
b00001 #E
b00000000000000000000000000000100 "d
1C
b00000000000000000000000000000100 K
b00001000 "m
b00010000000000000000101000010011 "o
b00010000000000000000101000010011 R
b00000000000000000000000000000100 "4
1U
b10100 "y
b10100 Z
b00000000000000000000000100000000 #!
1"B
1##
b00000000000000000000000000000100 #&
b10100 %
1#(
b00010000000000000000101000010011 #)
1"H
1h
b00100000000 #,
1l
b0010011 .
b0001000 n
b10100 2
b00000000000000000000000000000001 #5
13
14
15
1u
1#8
b00000000000000000000000000000100 v
1#9
b000100010100 8
1"[
b00001 z
b000000000000100000000 ;
1#>
b0000100010100 <
#16
0"B
0C
0#(
0l
03
04
05
0U
0u
0#8
0#9
0"[
#21
b00000000000000000000000000001100 "b
1"c
b00000000000000000000000000001000 "d
b00001 #F
b00000000000000000000000100000000 "e
b00000000000000000000000000000100 "f
b00010010110000000000101010010011 "p
1"}
b00000000000000000000000100000000 1
13
14
15
b00000000000000000000000000000100 "!
b00000000000000000000000100000000 "#
1C
b00010010110000000000101010010011 G
1",
b00000000000000000000000000001000 K
b00000000000000000000000000001000 "4
1U
b10100 "8
1"B
b00010010110000000000101010010011 a
b00000000000000000000000100000000 c
b00000000000000000000000000001000 #&
1d
b00000000000000000000000100000000 #'
1"G
1#(
b00001 i
b0000000001 j
1l
b00000000000000000000000100000000 "N
b00000000000000000000000100000000 "P
b0000000001 o
b00001 #2
b10100 p
b00010010110000000000101010010011 #3
b00000000000000000000000000000010 #5
b00000000000000000000000000000100 #6
1u
1#8
b00000000000000000000000000001000 v
1#9
b10100 #:
b00000000000000000000000100000000 #<
1"[
b00000000000000000000000100000000 |
#26
0"B
0C
0#(
0l
03
04
05
0U
0u
0#8
0#9
0"[
#31
b00000000000000000000000100101100 #C
b00000000000000000000000000010000 "b
b00000000000000000000000000001100 "d
b00000000000000000000000000001000 "f
b01100 #G
1"k
b01001001 "m
b00010010110000000000101010010011 "o
b00000000101000000000000010010011 "p
b00000000000000000000000000000100 "q
b00000000000000000000000100000000 "w
1"x
b10101 "y
b10101 %
b10100 '
b00000000000000000000000100000000 +
13
14
15
b000100110101 8
b000000000000100101100 ;
b0100100110100 <
b00000000000000000000000000000100 >
b00000000000000000000000000001000 "!
1C
b00000000000000000000000000000100 E
b01100 F
b00000000101000000000000010010011 G
b0001000000 I
b00000000000000000000000001000000 J
b00000000000000000000000000001100 K
b00010010110000000000101010010011 R
b00000000000000000000000000001100 "4
1U
b10100 W
b10101 Z
b00000000000000000000000100101100 #!
b01 #"
b01100 `
1"B
b00000000101000000000000010010011 a
b00000000000000000000000000001100 #&
1#(
b00010010110000000000101010010011 #)
b00000000000000000000000100000000 "I
b00100101100 #,
b0000000010 j
1l
b00000000000000000000000100000000 #0
b0001001 n
b0000000010 o
b00000000101000000000000010010011 #3
1q
b00000000000000000000000000000011 #5
b00000000000000000000000100000000 s
b00000000000000000000000000001000 #6
1u
1#8
b00000000000000000000000000001100 v
1#9
b10100 w
1"[
#36
0"B
0C
0#(
0l
03
04
05
0U
0u
0#8
0#9
0"[
#41
b00000000000000000000000000001010 #C
b00000000000000000000000000010100 "b
b00000000000000000000000000010000 "d
b00000000000000000000000100101100 "e
b00000000000000000000000000001100 "f
b01010 #G
b10100 "g
b01000000 "m
b00000000101000000000000010010011 "o
b00000001010000000000000100010011 "p
b00000000000000000000000000001000 "q
b00000000000000000000000100000000 "v
b00001 "y
b00000000000000000000000100000000 "z
1"|
b00000000000000000000000100000000 "~
b00001 %
b00000000000000000000000100000000 )
b00000000000000000000000100101100 1
b00000 2
13
14
15
b000000000001 8
b000000000000000001010 ;
b0100000000000 <
b00000000000000000000000000001000 >
b00000000000000000000000000001100 "!
1@
b00000000000000000000000100101100 "#
1C
b00000000000000000000000000001000 E
b01010 F
b00000001010000000000000100010011 G
b00000000000000000000000000010000 K
b01100 Q
b00000000101000000000000010010011 R
b00000000000000000000000000010000 "4
b0001000000 T
1U
b10101 "8
b00001 Z
b00000000000000000000000000001010 #!
b01010 `
1"B
b00000001010000000000000100010011 a
b10100 #$
b00000000000000000000000100101100 c
b00000000000000000000000000010000 #&
b00000000000000000000000100101100 #'
b0001000000 "F
1e
1#(
b00000000101000000000000010010011 #)
b00000001010 #,
b0000000011 j
b10100 #-
1l
b00000000000000000000000100101100 "N
b0000000 n
b00000000000000000000000100101100 "P
b0000000011 o
b10101 p
b00000001010000000000000100010011 #3
b00000000000000000000000000000100 #5
b00000000000000000000000000001100 #6
b0001000000 t
1u
1#8
b00000000000000000000000000010000 v
1#9
b10101 #:
b00000000000000000000000100101100 #<
1"[
b00000000000000000000000100101100 |
#46
0"B
0C
0#(
0l
03
04
05
0U
0u
0#8
0#9
0"[
#51
b00000000000000000000000000010100 #C
b00000000000000000000000000011000 "b
b00000000000000000000000000010100 "d
b00000000000000000000000000001010 "e
b00000000000000000000000000010000 "f
b10100 #G
b00000000 "m
b00000001010000000000000100010011 "o
b00000001111000000000000110010011 "p
b00000000000000000000000000001100 "q
b00000000000000000000000100101100 "w
b00010 "y
b00010 %
b10101 '
b00000000000000000000000100101100 +
b00000000000000000000000000001010 1
b00010 2
13
14
15
b000000000010 8
b000000000000000010100 ;
b0000000000010 <
b00000000000000000000000000001100 >
b00000000000000000000000000010000 "!
b00000000000000000000000000001010 "#
1C
b00000000000000000000000000001100 E
b10100 F
b00000001111000000000000110010011 G
b0001001011 I
b00000000000000000000000001001011 J
b00000000000000000000000000010100 K
b00000000000000000000000100000000 P
b01010 Q
b00000001010000000000000100010011 R
b00000000000000000000000000010100 "4
b00000000000000000000000100000000 "5
1U
b00001 "8
b10101 W
b00010 Z
b00000000000000000000000000010100 #!
b00 #"
b10100 `
1"B
b00000001111000000000000110010011 a
b00000000000000000000000000001010 c
b00000000000000000000000000010100 #&
b00000000000000000000000000001010 #'
1#(
b00000001010000000000000100010011 #)
b00000000000000000000000100101100 "I
b00000010100 #,
b0000000100 j
1l
b00000000000000000000000000001010 "N
b00000000000000000000000100101100 #0
b00000000000000000000000000001010 "P
b0000000100 o
b00001 p
b00000001111000000000000110010011 #3
b00000000000000000000000000000101 #5
b00000000000000000000000100101100 s
b00000000000000000000000000010000 #6
1u
1#8
b00000000000000000000000000010100 v
1#9
b10101 w
b00001 #:
b00000000000000000000000000001010 #<
1"[
b00000000000000000000000000001010 |
b00000000000000000000000100000000 ~
#56
0"B
0C
0#(
0l
03
04
05
0U
0u
0#8
0#9
0"[
#61
b00000000000000000000000000011110 #C
b00000000000000000000000000011100 "b
b00000000000000000000000000011000 "d
b00000000000000000000000000010100 "e
b00000000000000000000000000010100 "f
b11110 #G
b10101 "g
b01000000 "m
b00000001111000000000000110010011 "o
b00000010100000000000001000010011 "p
b00000000000000000000000000010000 "q
b00000000000000000000000100101100 "v
b00000000000000000000000000001010 "w
b00011 "y
b00000000000000000000000100101100 "z
b00000000000000000000000100101100 "~
b00011 %
b00001 '
b00000000000000000000000100101100 )
b00000000000000000000000000001010 +
b00000000000000000000000000010100 1
13
14
15
b000000000011 8
b000000000000000011110 ;
b0100000000010 <
b00000000000000000000000000010000 >
b00000000000000000000000000010100 "!
b00000000000000000000000000010100 "#
1C
b00000000000000000000000000010000 E
b11110 F
b00000010100000000000001000010011 G
b0000000010 I
b00000000000000000000000000000010 J
b00000000000000000000000000011000 K
b00000000000000000000000000000000 P
b10100 Q
b00000001111000000000000110010011 R
b00000000000000000000000000011000 "4
b0001001011 T
1U
b00000000000000000000000100000000 V
b00010 "8
b00001 W
b00011 Z
b00000000000000000000000100000000 ]
b00000000000000000000000000011110 #!
b01 #"
b11110 `
1"B
b00000010100000000000001000010011 a
b10101 #$
b00000000000000000000000000010100 c
b00000000000000000000000000011000 #&
b00000000000000000000000000010100 #'
b0001001011 "F
1#(
b00000001111000000000000110010011 #)
b00000000000000000000000000001010 "I
b00000011110 #,
b0000000101 j
b10101 #-
1l
b00000000000000000000000000010100 "N
b00000000000000000000000000001010 #0
b00000000000000000000000000010100 "P
b0000000101 o
b00010 p
b00000010100000000000001000010011 #3
b00000000000000000000000000000110 #5
b00000000000000000000000000001010 s
b00000000000000000000000000010100 #6
b0001001011 t
1u
1#8
b00000000000000000000000000011000 v
1#9
b00001 w
b00010 #:
b00000000000000000000000000010100 #<
1"[
b00000000000000000000000100000000 #=
b00000000000000000000000000010100 |
b00000000000000000000000000000000 ~
#66
0"B
0C
0#(
0l
03
04
05
0U
0u
0#8
0#9
0"[
#71
b00000000000000000000000000101000 #C
b00000000000000000000000000100000 "b
b00000000000000000000000000011100 "d
b00000000000000000000000000011110 "e
b00000000000000000000000000011000 "f
b01000 #G
b00001 "g
b00000001 "m
b00000010100000000000001000010011 "o
b00000011001000000000001010010011 "p
b00000000000000000000000000010100 "q
b00000000000000000000000000001010 "v
b00000000000000000000000000010100 "w
b00100 "y
b00000000000000000000000000001010 "z
b00000000000000000000000000001010 "~
b00000000000000000000000100000000 $
b00100 %
b00000000000000000000000100000000 &
b00010 '
b00000000000000000000000000001010 )
b00000000000000000000000000010100 +
b00000000000000000000000000011110 1
b00100 2
13
14
15
b000000100100 8
b00000000000000000000000100000000 9
b000000000000000101000 ;
b0000000100100 <
b00000000000000000000000100000000 =
b00000000000000000000000000010100 >
b00000000000000000000000000011000 "!
b00000000000000000000000000011110 "#
1C
b00000000000000000000000000010100 E
b01000 F
b00000011001000000000001010010011 G
b0000000101 I
b00000000000000000000000100101100 "+
b00000000000000000000000000000101 J
b00000000000000000000000000011100 K
b11110 Q
b00000010100000000000001000010011 R
b00000000000000000000000000011100 "4
b0000000010 T
1U
b00000000000000000000000000000000 V
b00011 "8
b00010 W
b00100 Z
b00000000000000000000000000000000 ]
b00000000000000000000000000101000 #!
b00 #"
b01000 `
1"B
b00000011001000000000001010010011 a
b00001 #$
b00000000000000000000000000011110 c
b00000000000000000000000000011100 #&
b00000000000000000000000000011110 #'
b0000000010 "F
1#(
b00000010100000000000001000010011 #)
b00000000000000000000000000010100 "I
b00000101000 #,
b0000000110 j
b00001 #-
1l
b00000000000000000000000000011110 "N
b00000000000000000000000000010100 #0
b0000001 n
b00000000000000000000000000011110 "P
b0000000110 o
b00011 p
b00000011001000000000001010010011 #3
b00000000000000000000000000000111 #5
b00000000000000000000000000010100 s
b00000000000000000000000000011000 #6
b0000000010 t
1u
1#8
b00000000000000000000000000011100 v
1#9
b00010 w
b00011 #:
b00000000000000000000000000011110 #<
1"[
b00000000000000000000000000000000 #=
b00000000000000000000000000011110 |
b00000000000000000000000100000000 "`
#76
0"B
0C
0#(
0l
03
04
05
0U
0u
0#8
0#9
0"[
#81
b00000000000000000000000000110010 #C
b00000000000000000000000000100100 "b
b00000000000000000000000000100000 "d
b00000000000000000000000000101000 "e
b00000000000000000000000000011100 "f
b10010 #G
b00010 "g
b01000001 "m
b00000011001000000000001010010011 "o
b00000011110000000000001100010011 "p
b00000000000000000000000000011000 "q
b00000000000000000000000100000000 "u
b00000000000000000000000000010100 "v
b00000000000000000000000000011110 "w
b00101 "y
b00000000000000000000000000010100 "z
b00000000000000000000000000010100 "~
b00000000000000000000000000000000 $
b00101 %
b00000000000000000000000000000000 &
b00011 '
b00000000000000000000000000010100 )
b00000000000000000000000000011110 +
b00000000000000000000000000101000 1
13
14
15
b000000100101 8
b00000000000000000000000000000000 9
b000000000000000110010 ;
b0100000100100 <
b00000000000000000000000000000000 =
b00000000000000000000000000011000 >
b00000000000000000000000000011100 "!
b00000000000000000000000000101000 "#
1C
b00000000000000000000000000011000 E
b10010 F
b00000011110000000000001100010011 G
b0000000111 I
b00000000000000000000000000000111 J
b00000000000000000000000000100000 K
b01000 Q
b00000011001000000000001010010011 R
b00000000000000000000000000100000 "4
b0000000101 T
1U
b00100 "8
b00011 W
b00101 Z
b00000000000000000000000000110010 #!
b01 #"
b10010 `
1"B
b00000011110000000000001100010011 a
b00010 #$
b00000000000000000000000000101000 c
b00000000000000000000000000100000 #&
b00000000000000000000000000101000 #'
b0000000101 "F
1#(
b00000011001000000000001010010011 #)
b00000000000000000000000000011110 "I
b00000110010 #,
b0000000111 j
b00010 #-
1l
b00000000000000000000000000101000 "N
b00000000000000000000000000011110 #0
b00000000000000000000000000101000 "P
b0000000111 o
b00100 p
b00000011110000000000001100010011 #3
b00000000000000000000000000001010 "S
b00000000000000000000000000001000 #5
b00000000000000000000000000011110 s
b00000000000000000000000000011100 #6
b0000000101 t
1u
1#8
b00000000000000000000000000100000 v
1#9
b00011 w
b00100 #:
b00000000000000000000000000101000 #<
1"[
b00000000000000000000000000101000 |
b00000000000000000000000000000000 "`
#86
0"B
0C
0#(
0l
03
04
05
0U
0u
0#8
0#9
0"[
#91
b00000000000000000000000000111100 #C
b00000000000000000000000000101000 "b
b00000000000000000000000000100100 "d
b00000000000000000000000000110010 "e
b00000000000000000000000000100000 "f
b11100 #G
b00011 "g
b00000001 "m
b00000011110000000000001100010011 "o
b00000100011000000000001110010011 "p
b00000000000000000000000000011100 "q
b00000000000000000000000000000000 "u
b00000000000000000000000000011110 "v
b00000000000000000000000000101000 "w
b00110 "y
b00000000000000000000000000011110 "z
b00000000000000000000000000011110 "~
b00110 %
b00100 '
b00000000000000000000000000011110 )
b00000000000000000000000000101000 +
b00000000000000000000000000110010 1
b00110 2
13
14
15
b000000100110 8
b000000000000000111100 ;
b0000000100110 <
b00000000000000000000000000011100 >
b00000000000000000000000000100000 "!
b00000000000000000000000000110010 "#
1C
b00000000000000000000000000011100 E
b11100 F
b00000100011000000000001110010011 G
b0000001010 I
b00000000000000000000000000001010 J
b00000000000000000000000000100100 K
b10010 Q
b00000011110000000000001100010011 R
b00000000000000000000000000100100 "4
b0000000111 T
1U
b00101 "8
b00100 W
b00110 Z
b00000000000000000000000000111100 #!
b00 #"
b11100 `
1"B
b00000100011000000000001110010011 a
b00011 #$
b00000000000000000000000000110010 c
b00000000000000000000000000100100 #&
b00000000000000000000000000110010 #'
b0000000111 "F
1#(
b00000011110000000000001100010011 #)
b00000000000000000000000000101000 "I
b00000111100 #,
b0000001000 j
b00011 #-
1l
b00000000000000000000000000110010 "N
b00000000000000000000000000101000 #0
b00000000000000000000000000110010 "P
b0000001000 o
b00101 p
b00000100011000000000001110010011 #3
b00000000000000000000000000010100 "T
b00000000000000000000000000001001 #5
b00000000000000000000000000101000 s
b00000000000000000000000000100000 #6
b0000000111 t
1u
1#8
b00000000000000000000000000100100 v
1#9
b00100 w
b00101 #:
b00000000000000000000000000110010 #<
1"[
b00000000000000000000000000110010 |
#96
0"B
0C
0#(
0l
03
04
05
0U
0u
0#8
0#9
0"[
