pa2/pa2/test_run_dir/Core_should_match_golden_memory/Core.vcd
$date
2025-12-05T17:19+0000
$end
$version
0.2
$end
$comment

$end
$timescale 1ns  $end
$scope module Core $end
 $var wire 1 @ inst_mem $end
 $var wire 1 H alu $end
 $var wire 1 I clock $end
 $var wire 32 K forwarded_src1 $end
 $var wire 32 L forwarded_src2 $end
 $var wire 1 P io_peek_write $end
 $var wire 32 b io_peek_data $end
 $var wire 1 m reset $end
 $var wire 1 q ex_mem $end
 $var wire 1 "' reg_file $end
 $var wire 32 "+ io_wb_result $end
 $var wire 32 "9 io_inst $end
 $var wire 1 "H data_mem $end
 $var wire 1 "P forwarding_unit $end
 $var wire 32 "l io_pc $end
 $var wire 1 "y if_id $end
 $var wire 32 "{ io_peek_addr $end
 $var wire 1 #, mem_wb $end
 $var wire 1 #I pc_handle $end
 $var wire 1 #M id_ex $end
 $var wire 1 #P decoder $end
  $scope module id_ex $end
   $var wire 5 " io_out_rs2_addr $end
   $var wire 1 / io_in_ctrl_ctrlMemToReg $end
   $var wire 5 8 rs1_addr_id $end
   $var wire 32 > rs2_data_id $end
   $var wire 5 ? io_out_rs1_addr $end
   $var wire 5 A io_in_rd_addr $end
   $var wire 32 E io_out_imm $end
   $var wire 32 S io_in_rs2_data $end
   $var wire 1 U io_stall $end
   $var wire 1 V io_out_ctrl_ctrlMemWrite $end
   $var wire 1 W io_flush $end
   $var wire 1 [ clock $end
   $var wire 1 ^ io_in_ctrl_ctrlRegWrite $end
   $var wire 1 c io_out_ctrl_ctrlRegWrite $end
   $var wire 1 f ctrl_id_ctrlMemWrite $end
   $var wire 32 i io_in_rs1_data $end
   $var wire 5 z io_out_rd_addr $end
   $var wire 32 | io_out_rs2_data $end
   $var wire 5 "# io_in_ctrl_ctrlALUOp $end
   $var wire 32 "3 rs1_data_id $end
   $var wire 32 "5 pc_id $end
   $var wire 1 "= io_in_ctrl_ctrlMemWrite $end
   $var wire 32 "G io_out_rs1_data $end
   $var wire 1 "L ctrl_id_ctrlRegWrite $end
   $var wire 5 "O io_out_ctrl_ctrlALUOp $end
   $var wire 5 "Q rs2_addr_id $end
   $var wire 1 "b io_out_ctrl_ctrlMemToReg $end
   $var wire 1 "d io_out_ctrl_ctrlALUSrc $end
   $var wire 1 "h io_in_ctrl_ctrlMemRead $end
   $var wire 1 "n reset $end
   $var wire 5 "o rd_addr_id $end
   $var wire 1 #0 ctrl_id_ctrlMemRead $end
   $var wire 1 #3 io_out_ctrl_ctrlMemRead $end
   $var wire 32 #7 io_in_pc $end
   $var wire 32 #= io_out_pc $end
   $var wire 1 #D ctrl_id_ctrlALUSrc $end
   $var wire 32 #E io_in_imm $end
   $var wire 1 #G io_in_ctrl_ctrlALUSrc $end
   $var wire 32 #H imm_id $end
   $var wire 5 #N ctrl_id_ctrlALUOp $end
   $var wire 1 #T ctrl_id_ctrlMemToReg $end
  $upscope $end
  $scope module pc_handle $end
   $var wire 1 < io_to_branch $end
   $var wire 1 N clock $end
   $var wire 32 O io_pc $end
   $var wire 32 v io_jump_addr $end
   $var wire 32 "< pc $end
   $var wire 32 #4 next_pc $end
   $var wire 1 #L reset $end
  $upscope $end
  $scope module mem_wb $end
   $var wire 1 2 ctrl_mem_ctrlMemToReg $end
   $var wire 1 7 io_out_ctrl_ctrlRegWrite $end
   $var wire 1 F io_stall $end
   $var wire 1 Y io_flush $end
   $var wire 1 ` io_out_ctrl_ctrlMemToReg $end
   $var wire 5 d rd_addr_mem $end
   $var wire 32 k alu_result_mem $end
   $var wire 32 o io_out_alu_result $end
   $var wire 32 w io_in_alu_result $end
   $var wire 1 "! reset $end
   $var wire 1 "* io_in_ctrl_ctrlMemToReg $end
   $var wire 1 "D clock $end
   $var wire 1 "M ctrl_mem_ctrlRegWrite $end
   $var wire 5 "Y io_in_rd_addr $end
   $var wire 1 #; io_in_ctrl_ctrlRegWrite $end
   $var wire 5 #K io_out_rd_addr $end
  $upscope $end
  $scope module data_mem $end
   $var wire 1 & io_ctrlMemRead $end
   $var wire 1 R io_peek_write $end
   $var wire 32 y io_data_out $end
   $var wire 32 "( io_data_in $end
   $var wire 32 "- io_addr $end
   $var wire 32 "; index $end
   $var wire 10 "X mem_io_data_out_MPORT_addr_pipe_0 $end
   $var wire 1 "Z io_ctrlMemWrite $end
   $var wire 1 "x peek_write $end
   $var wire 32 #9 mem $end
   $var wire 1 #R clock $end
   $var wire 1 #V mem_io_data_out_MPORT_en_pipe_0 $end
    $scope module mem $end
     $var wire 32 ( MPORT $end
      $scope module MPORT $end
       $var wire 1 , clk $end
       $var wire 10 ; addr $end
       $var wire 10 \ pipeline_addr_0 $end
       $var wire 32 j pipeline_data_0 $end
       $var wire 1 "& mask $end
       $var wire 1 "/ en $end
       $var wire 32 "1 data $end
       $var wire 1 "K valid $end
       $var wire 1 #U pipeline_valid_0 $end
      $upscope $end
      $scope module io_data_out_MPORT $end
       $var wire 1 - clk $end
       $var wire 10 = addr $end
       $var wire 32 "F data $end
       $var wire 1 #: en $end
      $upscope $end
    $upscope $end
  $upscope $end
  $scope module ex_mem $end
   $var wire 5 % io_out_rd_addr $end
   $var wire 32 1 rs2_data_ex $end
   $var wire 1 6 ctrl_ex_ctrlMemWrite $end
   $var wire 1 B io_in_ctrl_ctrlMemToReg $end
   $var wire 32 C io_in_rs2_data $end
   $var wire 1 J ctrl_ex_ctrlMemRead $end
   $var wire 5 M io_in_rd_addr $end
   $var wire 1 ] io_in_ctrl_ctrlRegWrite $end
   $var wire 1 l ctrl_ex_ctrlRegWrite $end
   $var wire 1 ~ io_out_ctrl_ctrlMemWrite $end
   $var wire 32 ") io_out_rs2_data $end
   $var wire 1 "0 clock $end
   $var wire 1 "2 ctrl_ex_ctrlMemToReg $end
   $var wire 1 "4 reset $end
   $var wire 1 "> io_in_ctrl_ctrlMemWrite $end
   $var wire 1 "? io_stall $end
   $var wire 5 "E rd_addr_ex $end
   $var wire 1 "N io_in_ctrl_ctrlMemRead $end
   $var wire 1 "U io_out_ctrl_ctrlRegWrite $end
   $var wire 32 "W io_out_alu_result $end
   $var wire 32 "] io_in_alu_result $end
   $var wire 1 #+ io_out_ctrl_ctrlMemRead $end
   $var wire 1 #< io_flush $end
   $var wire 32 #@ alu_result_ex $end
   $var wire 1 #W io_out_ctrl_ctrlMemToReg $end
  $upscope $end
  $scope module inst_mem $end
   $var wire 1 9 clock $end
   $var wire 32 X mem $end
   $var wire 32 h io_inst $end
   $var wire 32 x index $end
   $var wire 10 "T mem_io_inst_MPORT_addr_pipe_0 $end
   $var wire 1 #2 mem_io_inst_MPORT_en_pipe_0 $end
   $var wire 32 #5 io_addr $end
    $scope module mem $end
      $scope module io_inst_MPORT $end
       $var wire 32 D data $end
       $var wire 1 s clk $end
       $var wire 10 "R addr $end
       $var wire 1 #( en $end
      $upscope $end
    $upscope $end
  $upscope $end
  $scope module if_id $end
   $var wire 32 T io_out_pc $end
   $var wire 32 g io_out_inst $end
   $var wire 32 r io_in_pc $end
   $var wire 1 ": io_flush $end
   $var wire 32 "B inst_if $end
   $var wire 1 "C reset $end
   $var wire 1 #> io_stall $end
   $var wire 32 #O io_in_inst $end
   $var wire 32 #Q pc_if $end
   $var wire 1 #S clock $end
  $upscope $end
  $scope module alu $end
   $var wire 32 * io_imm $end
   $var wire 32 5 io_pc $end
   $var wire 32 _ src2_s $end
   $var wire 32 { io_alu_result $end
   $var wire 5 "$ io_aluOp $end
   $var wire 5 "A shamt $end
   $var wire 32 ## io_src2 $end
   $var wire 32 #% io_src1 $end
   $var wire 32 #6 alu_result $end
   $var wire 32 #8 src1_s $end
  $upscope $end
  $scope module decoder $end
   $var wire 9 ! immJ_hi_hi $end
   $var wire 5 # rd $end
   $var wire 7 ' opcode $end
   $var wire 5 + immB_lo $end
   $var wire 1 . io_ctrl_ctrlMemRead $end
   $var wire 12 0 immS $end
   $var wire 21 3 immJ $end
   $var wire 13 4 immB $end
   $var wire 1 G io_ctrl_ctrlRegWrite $end
   $var wire 8 e immB_hi $end
   $var wire 32 t io_inst $end
   $var wire 1 u io_ctrl_ctrlMemToReg $end
   $var wire 1 } io_ctrl_ctrlALUSrc $end
   $var wire 32 "" io_imm $end
   $var wire 5 "% io_regs_rs2_addr $end
   $var wire 5 "I rs1 $end
   $var wire 5 "J rs2 $end
   $var wire 7 "S funct7 $end
   $var wire 3 "V funct3 $end
   $var wire 5 "[ io_ctrl_ctrlALUOp $end
   $var wire 10 "\ immJ_hi $end
   $var wire 5 "^ io_regs_rs1_addr $end
   $var wire 1 #? io_ctrl_ctrlMemWrite $end
   $var wire 5 #A io_regs_rd_addr $end
   $var wire 2 #F immB_hi_hi $end
   $var wire 11 #J immJ_lo $end
  $upscope $end
  $scope module forwarding_unit $end
   $var wire 5 $ io_rs1_ex $end
   $var wire 1 Q io_reg_write_mem $end
   $var wire 5 Z io_rd_mem $end
   $var wire 5 ", io_rs2_ex $end
   $var wire 1 "8 io_reg_write_wb $end
   $var wire 2 #/ io_forward_b $end
   $var wire 2 #1 io_forward_a $end
   $var wire 5 #C io_rd_wb $end
  $upscope $end
  $scope module reg_file $end
   $var wire 5 ) io_rs1_addr $end
   $var wire 5 : io_rs2_addr $end
   $var wire 1 a clock $end
   $var wire 1 n io_reg_write $end
   $var wire 5 p io_rd_addr $end
   $var wire 32 ". io_rs1_data $end
   $var wire 1 "6 bypass_rs2 $end
   $var wire 1 "7 bypass_rs1 $end
   $var wire 32 "@ io_rs2_data $end
   $var wire 32 "_ regs_19 $end
   $var wire 32 "` regs_18 $end
   $var wire 32 "a regs_22 $end
   $var wire 32 "c regs_21 $end
   $var wire 32 "e regs_24 $end
   $var wire 32 "f regs_23 $end
   $var wire 32 "g regs_26 $end
   $var wire 32 "i regs_25 $end
   $var wire 32 "j regs_28 $end
   $var wire 32 "k regs_27 $end
   $var wire 32 "m regs_20 $end
   $var wire 32 "p regs_11 $end
   $var wire 32 "q regs_10 $end
   $var wire 32 "r regs_13 $end
   $var wire 32 "s regs_12 $end
   $var wire 32 "t regs_15 $end
   $var wire 32 "u regs_14 $end
   $var wire 32 "v regs_17 $end
   $var wire 32 "w regs_16 $end
   $var wire 32 "z regs_9 $end
   $var wire 32 "| regs_0 $end
   $var wire 32 "} regs_5 $end
   $var wire 32 "~ regs_29 $end
   $var wire 32 #! regs_6 $end
   $var wire 32 #" regs_7 $end
   $var wire 32 #$ regs_8 $end
   $var wire 32 #& regs_1 $end
   $var wire 32 #' regs_2 $end
   $var wire 32 #) regs_3 $end
   $var wire 32 #* regs_4 $end
   $var wire 32 #- regs_31 $end
   $var wire 32 #. regs_30 $end
   $var wire 32 #B io_rd_data $end
  $upscope $end
$upscope $end
$enddefinitions $end
$dumpvars
b00000000000000000000000000000000 *
02
b000000000000 0
06
07
b00000000000000000000000000000000 (
09
b00000000 e
0<
0@
0B
0F
0G
0H
0I
0J
b00000000000000000000000000000000 5
0N
b00000000000000000000000000000000 1
0P
0Q
0R
0U
0V
0W
0Y
0[
0]
0^
0`
0a
0c
1"&
0f
0l
0m
0n
0q
0s
0u
0}
0~
b0000000000000 4
b0000000 "S
0"!
b00 #F
0"'
0"*
0"/
0"0
0"2
b00000 "I
0"4
b00000 "J
0"6
0"7
0"8
b00000 "O
0":
b00000 "A
0"=
0">
b00000 "E
0"?
0"C
0"D
0#(
0"H
0#+
b00 #1
0"K
0#,
0"L
0"M
0"N
0#0
0"P
b00 #/
0#2
0#3
0"U
b00000 ",
0#:
0"Z
0#;
0#<
b00000 "#
0#>
0#?
b00000 "%
b00000 "$
0"b
0#D
0"d
0#G
0"h
0#I
0#L
0#M
0"n
0#P
0#R
0#S
b00000000000000000000000000000000 #O
0#T
b00000000000000000000000000000000 "m
0#U
b00000000000000000000000000000000 "l
0#V
b00000000000000000000000000000000 "s
0#W
b00000000000000000000000000000000 "r
b00000000000000000000000000000000 "q
0"x
b00000000000000000000000000000000 "p
b00000000000000000000000000000000 #Q
0"y
b00000000000000000000000000000000 "g
b00000000000000000000000000000000 #H
b00000000000000000000000000000000 "f
b00000000000000000000000000000000 "e
b00000000000000000000000000000000 #E
b00000000000000000000000000000000 "k
b00000000000000000000000000000000 "j
b00000000000000000000000000000000 "i
b00000000000000000000000000000000 "~
b00000000000000000000000000000000 "}
b00000000000000000000000000000000 "|
b00000000000000000000000000000000 "w
b00000000000000000000000000000000 "v
b00000000000000000000000000000000 "u
b00000000000000000000000000000000 "t
b00000000000000000000000000000000 "{
b00000000000000000000000000000000 "z
b00000 #K
b00000 #N
b00000 "o
b00000 #A
b00000 #C
b0000000 '
b00000 "Y
b00000 "[
b00000 "^
b00000 "Q
b00000000000000000000000000000000 ".
b00000000000000000000000000000000 "-
b00000000000000000000000000000000 "3
b00000000000000000000000000000000 "1
b00000000000000000000000000000000 "+
b000000000 !
b00000000000000000000000000000000 ")
b00000000000000000000000000000000 "(
b00000000000000000000000000000000 "<
b00000000000000000000000000000000 #$
b00000000000000000000000000000000 "B
b00000000000000000000000000000000 ##
b00000000000000000000000000000000 #"
b00000000000000000000000000000000 "@
b00000000000000000000000000000000 #!
b00000000000000000000000000000000 "5
b00000000000000000000000000000000 ";
b00000000000000000000000000000000 "9
b00000000000000000000000000000000 #.
b00000000000000000000000000000000 #-
b00000000000000000000000000000000 #4
b0000000000 "R
b00000000000000000000000000000000 "G
b00000000000000000000000000000000 "F
b00000000000000000000000000000000 #'
b00000000000000000000000000000000 #&
b00000000000000000000000000000000 #%
b00000000000000000000000000000000 #*
b00000000000000000000000000000000 #)
b00000000000000000000000000000000 "_
b00000000000000000000000000000000 #@
b0000000000 "\
b00000000000000000000000000000000 "]
b00000000000000000000000000000000 #=
b00000000000000000000000000000000 "c
b00000000000000000000000000000000 "a
b00000000000000000000000000000000 #B
b00000000000000000000000000000000 "`
b00000000000000000000000000000000 "W
b00000000000000000000000000000000 #8
b00000000000000000000000000000000 #7
b0000000000 "T
b00000000000000000000000000000000 #6
b000000000000000000000 3
b00000000000000000000000000000000 #5
b0000000000 "X
b00000000000000000000000000000000 #9
b0000000000 \
b00000000000000000000000000000000 ""
b000 "V
b0000000000 =
b0000000000 ;
b00000 #
b00000 "
b00000 %
b00000 $
b00000 )
b00000 +
b00000000010100000000000010010011 X
b00000 8
b00000 :
b00000 ?
b00000 A
b00000000000 #J
b00000 M
b00000000000000000000000000000000 k
b00000000000000000000000000000000 j
b00000000000000000000000000000000 g
b00000000000000000000000000000000 i
b00000000000000000000000000000000 h
b00000 Z
b00000000000000000000000000000000 b
b00000000000000000000000000000000 _
b00000000000000000000000000000000 {
b00000 d
b00000000000000000000000000000000 |
b00000000000000000000000000000000 w
b00000000000000000000000000000000 v
b00000000000000000000000000000000 y
b00000000000000000000000000000000 x
b00000000000000000000000000000000 r
b00000000000000000000000000000000 t
b00000000000000000000000000000000 o
b00000 p
b00000000000000000000000000000000 K
b00000000000000000000000000000000 L
b00000000000000000000000000000000 C
b00000 z
b00000000000000000000000000000000 E
b00000000000000000000000000000000 D
b00000000000000000000000000000000 >
0&
b00000000000000000000000000000000 S
b00000000000000000000000000000000 T
0,
b00000000000000000000000000000000 O
0-
0.
0/
$end
#0
1"C
b00000000000000000000000000000100 #4
1"4
b00000000010100000000000010010011 D
b00000000010100000000000010010011 "9
b00000000010100000000000010010011 h
1#L
1"n
b00000000010100000000000010010011 #O
1m
1"!
#1
1a
1"D
1#(
1I
1,
1-
1N
1"0
1#2
1#R
1#S
1s
1#V
1#:
19
1[
#6
0a
0"C
0"D
0I
0#L
0,
0"n
0-
0m
0N
0"0
0#R
0#S
0"4
0s
09
0[
0"!
#11
b00000000000000000000000000000101 ""
b00001 A
b00001 "#
b00000000000000000000000000000101 #E
b00101 "%
b01 #F
1#G
1G
b00000000100 #J
1I
b00000000000000000000000000000100 "l
1N
1"0
b00000000000000000000000000000100 O
1#R
1#S
b00000000000000000000000000000100 "<
1[
1^
b00000000010100000000000010010011 "B
1a
1"D
b00001 #
b01000000 e
b0010011 '
b00000000010100000000000010010011 g
b00101 "J
1,
1-
b000000000001 0
b00000000000000000000000000001000 #4
b00000000000000000000000000000100 r
b00000000000000000000000000000100 #5
b000000000100000000100 3
1s
b0100000000000 4
b00000000010100000000000010010011 t
b00000000000000000000000000000001 x
19
b00001 "[
b00101 :
b0000000001 "\
1}
b00001 #A
#16
0a
0"D
0I
0,
0-
0N
0"0
0#R
0#S
0s
09
0[
#21
1#D
1"d
b00000000000000000000000000000101 #H
b00000000000000000000000000001000 "l
b00001 #N
b00000000011000000000000100010011 #O
b00001 "o
b00000000000000000000000000000100 #Q
1#R
1#S
b00000000000000000000000000000101 *
1,
1-
19
b00001 "$
b00000000011000000000000100010011 D
b00000000000000000000000000000101 E
1I
b00001 M
1N
1"0
b00000000000000000000000000001000 O
b00000000000000000000000000000100 T
b00000000011000000000000100010011 "9
b00000000000000000000000000001000 "<
1[
1]
b00000000000000000000000000000101 _
b00101 "A
b00000000000000000000000000000101 ##
1a
1"D
1c
b00000000011000000000000100010011 h
1"L
b00001 "O
b0000000001 "R
b00000000000000000000000000001100 #4
b00000000000000000000000000001000 r
b0000000001 "T
b00000000000000000000000000001000 #5
1s
b00000000000000000000000000000101 #6
b00000000000000000000000000000100 #7
b00000000000000000000000000000010 x
b00001 z
b00000000000000000000000000000101 {
b00000000000000000000000000000101 "]
#26
0a
0"D
0I
0,
0-
0N
0"0
0#R
0#S
0s
09
0[
#31
b00000000000000000000000000000110 #E
b00 #F
b00000000110 #J
b00000000000000000000000000001100 "l
b00010000000000000000101000010011 #O
b00000000000000000000000000001000 #Q
1#R
1#S
b00000000000000000000000000000101 "{
b00010 #
b00001 %
b00010 +
1,
1-
b000000000010 0
b000000000000000000110 3
b0000000000010 4
b00000000000000000000000000000100 5
19
b00110 :
b0000000001 ;
b00000000000000000000000000000110 ""
b00010 A
b00110 "%
b00010000000000000000101000010011 D
1I
b00000000000000000000000000000101 "-
1N
1"0
b00000000000000000000000000001100 O
1Q
b00000000000000000000000000000100 "5
b00000000000000000000000000001000 T
b00010000000000000000101000010011 "9
b00000000000000000000000000000001 ";
b00001 Z
b00000000000000000000000000001100 "<
1[
b00000000011000000000000100010011 "B
1a
1"D
b00001 "E
b00000000 e
b00000000011000000000000100010011 g
b00010000000000000000101000010011 h
b00110 "J
1l
b0000000010 "R
b00000000000000000000000000010000 #4
b00000000000000000000000000001100 r
b0000000010 "T
b00000000000000000000000000001100 #5
1s
1"U
b00000000011000000000000100010011 t
b00000000000000000000000000001000 #7
b00000000000000000000000000000101 "W
b00000000000000000000000000000101 w
b00001 "Y
b00000000000000000000000000000011 x
1#;
b00000000000000000000000000000100 #=
b0000000000 "\
b00000000000000000000000000000101 #@
b00010 #A
#36
0a
0"D
0I
0,
0-
0N
0"0
0#R
0#S
0s
09
0[
#41
b00001 #C
b00000000000000000000000100000000 #E
b00000000000000000000000000000110 #H
b00100000000 #J
b00001 #K
b00000000000000000000000000010000 "l
b00000000001000001000000110110011 #O
b00010 "o
b00000000000000000000000000001100 #Q
1#R
1#S
b10100 #
b00000000000000000000000000000110 *
b10100 +
1,
1-
b000100010100 0
b000000000000100000000 3
b0000100010100 4
b00000000000000000000000000001000 5
17
19
b00000 :
b0000000001 =
b00000000000000000000000100000000 ""
b10100 A
b00000 "%
b00000000001000001000000110110011 D
b00000000000000000000000000000110 E
1I
b00000000000000000000000000000101 "+
b00010 M
1N
1"0
b00000000000000000000000000010000 O
b00000000000000000000000000001000 "5
b00000000000000000000000000001100 T
1"8
b00000000001000001000000110110011 "9
b00000000000000000000000000010000 "<
1[
b0000000001 \
b00000000000000000000000000000110 _
b00110 "A
b00010000000000000000101000010011 "B
b00000000000000000000000000000110 ##
1a
1"D
b00001 d
b00001000 e
b00010000000000000000101000010011 g
b00000000001000001000000110110011 h
b00000 "J
b00000000000000000000000000000101 k
1"M
1n
b00000000000000000000000000000101 o
b00001 p
b0000000011 "R
b0001000 "S
b00000000000000000000000000010100 #4
b00000000000000000000000000010000 r
b0000000011 "T
b00000000000000000000000000010000 #5
1s
b00000000000000000000000000000110 #6
b00010000000000000000101000010011 t
b00000000000000000000000000001100 #7
b0000000001 "X
b00000000000000000000000000000100 x
b00010 z
b00000000000000000000000000001000 #=
b00000000000000000000000000000110 {
b00000000000000000000000000000110 "]
b10100 #A
b00000000000000000000000000000101 #B
#46
0a
0"D
0I
0,
0-
0N
0"0
0#R
0#S
0s
09
0[
#51
b00000000000000000000000000000000 #E
b01 #F
0#G
b00000000000000000000000100000000 #H
b00000000010 #J
b00000000000000000000000000010100 "l
b01000000001000011000001000110011 #O
b10100 "o
b00000000000000000000000000010000 #Q
1#R
1#S
b00000000000000000000000000000110 "{
b000001000 !
b00011 #
b00010 %
b0110011 '
b00001 )
b00000000000000000000000100000000 *
b00010 +
1,
1-
b000000000011 0
b000001000000000000010 3
b0100000000010 4
b00000000000000000000000000001100 5
19
b00010 :
b00000000000000000000000000000000 ""
b00011 A
b00010 "%
b01000000001000011000001000110011 D
b00000000000000000000000100000000 E
1I
b00000000000000000000000000000110 "-
b00000000000000000000000000000101 ".
b10100 M
1N
1"0
b00000000000000000000000000010100 O
b00000000000000000000000000001100 "5
b00000000000000000000000000010000 T
1"7
b01000000001000011000001000110011 "9
b00010 Z
b00000000000000000000000000010100 "<
1[
b00000000000000000000000100000000 _
b00000 "A
b00000000001000001000000110110011 "B
b00000000000000000000000100000000 ##
1a
1"D
b00010 "E
b00000000000000000000000000000101 #&
b01000000 e
b00000000001000001000000110110011 g
b00001 "I
b01000000001000011000001000110011 h
b00010 "J
b00000000000000000000000000000101 i
b0000000100 "R
b0000000 "S
b00000000000000000000000000011000 #4
b00000000000000000000000000010100 r
b0000000100 "T
b00000000000000000000000000010100 #5
1s
b00000000000000000000000100000000 #6
b00000000001000001000000110110011 t
b00000000000000000000000000010000 #7
b00000000000000000000000000000110 "W
b00000000000000000000000000000110 w
b00010 "Y
b00000000000000000000000000000101 x
b10100 z
b00000000000000000000000000001100 #=
b0000010000 "\
b00000000000000000000000100000000 {
b00000000000000000000000100000000 "]
b00001 "^
0}
b00000000000000000000000000000110 #@
b00011 #A
#56
0a
0"D
0I
0,
0-
0N
0"0
0#R
0#S
0s
09
0[
#61
b00010 #C
0#D
0"d
b00 #F
b00000000000000000000000000000000 #H
b10000000010 #J
b00010 #K
b00000000000000000000000000011000 "l
b00000000001100100111001010110011 #O
b00011 "o
b00000000000000000000000000010100 #Q
1#R
1#S
b00000000000000000000000100000000 "{
b000011000 !
b00100 #
b10100 %
b00011 )
b00000000000000000000000000000000 *
b00100 +
1,
1-
b010000000100 0
b000011000010000000010 3
b0010000000100 4
b00000000000000000000000000010000 5
19
b0001000000 ;
b00100 A
b00010 "#
b00000000001100100111001010110011 D
b00000000000000000000000000000000 E
1I
b00000000000000000000000000000110 "+
b00000000000000000000000000000101 K
b00000000000000000000000100000000 "-
b00000000000000000000000000000000 ".
b00011 M
1N
1"0
b00000000000000000000000000011000 O
b00000000000000000000000000000101 "3
b00000000000000000000000000000110 S
b00000000000000000000000000010000 "5
b00000000000000000000000000010100 T
1"6
0"7
b00000000001100100111001010110011 "9
b00000000000000000000000001000000 ";
b10100 Z
b00000000000000000000000000011000 "<
1[
b00000000000000000000000000000110 "@
b00000000000000000000000000000000 _
b01000000001000011000001000110011 "B
b00000000000000000000000000000000 ##
1a
1"D
b00000000000000000000000000000101 #%
b10100 "E
b00010 d
b00100000 e
b00000000000000000000000000000101 "G
b01000000001000011000001000110011 g
b00011 "I
b00000000001100100111001010110011 h
b00000000000000000000000000000000 i
b00000000000000000000000000000110 k
b00000000000000000000000000000110 o
b00010 p
b0000000101 "R
b0100000 "S
b00000000000000000000000000011100 #4
b00000000000000000000000000011000 r
b0000000101 "T
b00000000000000000000000000011000 #5
1s
b00000000000000000000000000000101 #6
b01000000001000011000001000110011 t
b00000000000000000000000000010100 #7
b00000000000000000000000100000000 "W
b00000000000000000000000000000101 #8
b00000000000000000000000100000000 w
b10100 "Y
b00000000000000000000000000000110 x
b00010 "[
b00011 z
b00000000000000000000000000010000 #=
b0000110000 "\
b00000000000000000000000000000101 {
b00000000000000000000000000000101 "]
b00011 "^
b00000000000000000000000100000000 #@
b00100 #A
b00000000000000000000000000000110 #B
#66
0a
0"D
0I
0,
0-
0N
0"0
0#R
0#S
0s
09
0[
#71
b000100111 !
b00101 #
b00011 %
b00100 )
1,
1-
b000000000101 0
b000100111100000000010 3
b0100000000100 4
b00000000000000000000000000010100 5
19
b00011 :
b0000000001 ;
b0001000000 =
b00000000000000000000000000000110 >
b00101 A
b00011 "#
b00010 "$
b00000000000000000000000000000110 C
b00011 "%
b00000000010000101110001100110011 D
1I
b00000000000000000000000100000000 "+
b00000000000000000000000000000000 K
b00000000000000000000000000000101 "-
b00000000000000000000000000000110 L
b00100 M
1N
1"0
b00000000000000000000000000011100 O
b00000000000000000000000000000000 "3
b00000000000000000000000000000000 S
b00000000000000000000000000010100 "5
b00000000000000000000000000011000 T
0"6
b00000000010000101110001100110011 "9
b00000000000000000000000000000001 ";
b00011 Z
b00000000000000000000000000011100 "<
1[
b0001000000 \
b00000000000000000000000000000000 "@
b00000000000000000000000000000110 _
b00110 "A
b00000000001100100111001010110011 "B
b00000000000000000000000000000110 ##
1a
1"D
b00000000000000000000000000000000 #%
b00011 "E
b10100 d
b00000000000000000000000000000110 #'
b01000000 e
b00000000000000000000000000000000 "G
b00000000001100100111001010110011 g
b00100 "I
b00000000010000101110001100110011 h
b00011 "J
b00000000000000000000000100000000 k
b00010 "O
b00000000000000000000000100000000 o
b10100 p
b0000000110 "R
b0000000 "S
b00000000000000000000000000100000 #4
b00000000000000000000000000011100 r
b0000000110 "T
b00000000000000000000000000011100 #5
1s
b11111111111111111111111111111010 #6
b00000000001100100111001010110011 t
b00000000000000000000000000011000 #7
b111 "V
b00000000000000000000000000000101 "W
b00000000000000000000000000000000 #8
b0001000000 "X
b00000000000000000000000000000101 w
b00011 "Y
b00000000000000000000000000000111 x
b00011 "[
b00100 z
b00000000000000000000000000010100 #=
b0001001111 "\
b11111111111111111111111111111010 {
b11111111111111111111111111111010 "]
b00000000000000000000000000000110 |
b00100 "^
b00000000000000000000000000000101 #@
b00101 #A
b00000000000000000000000100000000 #B
b10100 #C
b01 #F
b00000000010 #J
b10100 #K
b00000000000000000000000000011100 "l
b00010 #N
b00000000010000101110001100110011 #O
b00100 "o
b00000000000000000000000000011000 #Q
1#R
1#S
b00000000000000000000000000000101 "{
#76
0a
0"D
0I
0,
0-
0N
0"0
0#R
0#S
0s
09
0[
#81
b000101110 !
b00110 #
b00100 %
b00101 )
b00110 +
1,
1-
b000000000110 0
b00000000000000000000000000000110 1
b000101110000000000100 3
b0000000000110 4
b00000000000000000000000000011000 5
19
b00100 :
b1111111110 ;
b0000000001 =
b00000000000000000000000000000000 >
b00110 A
b00100 "#
b00011 "$
b00000000000000000000000000000000 C
b00100 "%
b00000000010100110100001110110011 D
b00000000000000000000000000000110 "(
b00000000000000000000000000000110 ")
1I
b00000000000000000000000000000101 "+
b11111111111111111111111111111010 "-
b00000000000000000000000000000000 L
b00101 M
1N
1"0
b00000000000000000000000000100000 O
b00000000000000000000000000000110 "1
b00000000000000000000000000011000 "5
b00000000000000000000000000011100 T
b00000000010100110100001110110011 "9
b00111111111111111111111111111110 ";
b00100 Z
b00000000000000000000000000100000 "<
1[
b0000000001 \
b00000000000000000000000000000000 _
b00000 "A
b00000000010000101110001100110011 "B
b00000000000000000000000000000000 ##
1a
b00000000000000000000000000000110 b
1"D
b00100 "E
b00011 d
b00000000 e
b00000000010000101110001100110011 g
b00101 "I
b00000000010100110100001110110011 h
b00100 "J
b00000000000000000000000000000101 k
b00011 "O
b00000000000000000000000000000101 o
b00011 p
b0000000111 "R
b00000000000000000000000000100100 #4
b00000000000000000000000000100000 r
b0000000111 "T
b00000000000000000000000000100000 #5
1s
b00000000000000000000000000000000 #6
b00000000010000101110001100110011 t
b00000000000000000000000000011100 #7
b110 "V
b11111111111111111111111111111010 "W
b0000000001 "X
b11111111111111111111111111111010 w
b00100 "Y
b00000000000000000000000000001000 x
b00100 "[
b00101 z
b00000000000000000000000000011000 #=
b0001011100 "\
b00000000000000000000000000000000 {
b00000000000000000000000000000000 "]
b00000000000000000000000000000000 |
b00101 "^
b11111111111111111111111111111010 #@
b00110 #A
b00000000000000000000000000000101 #B
b00011 #C
b00 #F
b00000000100 #J
b00011 #K
b00000000000000000000000000100000 "l
b00011 #N
b00000000000000000000000100000000 "m
b00000000010100110100001110110011 #O
b00101 "o
b00000000000000000000000000011100 #Q
1#R
1#S
b11111111111111111111111111111010 "{
#86
0a
0"D
0I
0,
0-
0N
0"0
0#R
0#S
0s
09
0[
