pa2/pa2/test_run_dir/Core_should_match_golden_memory/Core.vcd
$date
2025-12-06T09:36+0000
$end
$version
0.2
$end
$comment

$end
$timescale 1ns  $end
$scope module Core $end
 $var wire 1 * load_use_hazard $end
 $var wire 1 A inst_mem $end
 $var wire 1 I rs1_conflict $end
 $var wire 1 J alu $end
 $var wire 1 K clock $end
 $var wire 32 M forwarded_src1 $end
 $var wire 32 N forwarded_src2 $end
 $var wire 1 R io_peek_write $end
 $var wire 32 e io_peek_data $end
 $var wire 1 p reset $end
 $var wire 1 t ex_mem $end
 $var wire 1 "* reg_file $end
 $var wire 32 "- if_id_io_in_pc_REG_1 $end
 $var wire 32 "0 io_wb_result $end
 $var wire 32 "> io_inst $end
 $var wire 1 "H flush_branch_latency $end
 $var wire 1 "N data_mem $end
 $var wire 1 "V forwarding_unit $end
 $var wire 32 "t io_pc $end
 $var wire 1 ## if_id $end
 $var wire 32 #% io_peek_addr $end
 $var wire 1 #5 mem_wb $end
 $var wire 1 #N rs2_conflict $end
 $var wire 1 #U pc_handle $end
 $var wire 1 #Y id_ex $end
 $var wire 1 #\ decoder $end
  $scope module id_ex $end
   $var wire 5 " io_out_rs2_addr $end
   $var wire 1 0 io_in_ctrl_ctrlMemToReg $end
   $var wire 5 9 rs1_addr_id $end
   $var wire 32 ? rs2_data_id $end
   $var wire 5 @ io_out_rs1_addr $end
   $var wire 5 B io_in_rd_addr $end
   $var wire 32 F io_out_imm $end
   $var wire 32 U io_in_rs2_data $end
   $var wire 1 X io_stall $end
   $var wire 1 Y io_out_ctrl_ctrlMemWrite $end
   $var wire 1 Z io_flush $end
   $var wire 1 ^ clock $end
   $var wire 1 a io_in_ctrl_ctrlRegWrite $end
   $var wire 1 f io_out_ctrl_ctrlRegWrite $end
   $var wire 1 i ctrl_id_ctrlMemWrite $end
   $var wire 32 l io_in_rs1_data $end
   $var wire 5 } io_out_rd_addr $end
   $var wire 32 "! io_out_rs2_data $end
   $var wire 5 "& io_in_ctrl_ctrlALUOp $end
   $var wire 32 "8 rs1_data_id $end
   $var wire 32 ": pc_id $end
   $var wire 1 "B io_in_ctrl_ctrlMemWrite $end
   $var wire 32 "M io_out_rs1_data $end
   $var wire 1 "R ctrl_id_ctrlRegWrite $end
   $var wire 5 "U io_out_ctrl_ctrlALUOp $end
   $var wire 5 "W rs2_addr_id $end
   $var wire 5 "\ io_in_rs2_addr $end
   $var wire 1 "j io_out_ctrl_ctrlMemToReg $end
   $var wire 1 "l io_out_ctrl_ctrlALUSrc $end
   $var wire 1 "p io_in_ctrl_ctrlMemRead $end
   $var wire 1 "v reset $end
   $var wire 5 "w rd_addr_id $end
   $var wire 1 #9 ctrl_id_ctrlMemRead $end
   $var wire 1 #< io_out_ctrl_ctrlMemRead $end
   $var wire 32 #@ io_in_pc $end
   $var wire 32 #G io_out_pc $end
   $var wire 1 #O ctrl_id_ctrlALUSrc $end
   $var wire 32 #P io_in_imm $end
   $var wire 1 #R io_in_ctrl_ctrlALUSrc $end
   $var wire 5 #S io_in_rs1_addr $end
   $var wire 32 #T imm_id $end
   $var wire 5 #Z ctrl_id_ctrlALUOp $end
   $var wire 1 #` ctrl_id_ctrlMemToReg $end
  $upscope $end
  $scope module pc_handle $end
   $var wire 1 = io_to_branch $end
   $var wire 1 P clock $end
   $var wire 32 Q io_pc $end
   $var wire 1 W io_stall $end
   $var wire 32 y io_jump_addr $end
   $var wire 32 "A pc $end
   $var wire 32 #= next_pc $end
   $var wire 1 #X reset $end
  $upscope $end
  $scope module mem_wb $end
   $var wire 1 3 ctrl_mem_ctrlMemToReg $end
   $var wire 1 8 io_out_ctrl_ctrlRegWrite $end
   $var wire 1 G io_stall $end
   $var wire 1 \ io_flush $end
   $var wire 1 c io_out_ctrl_ctrlMemToReg $end
   $var wire 5 g rd_addr_mem $end
   $var wire 32 n alu_result_mem $end
   $var wire 32 r io_out_alu_result $end
   $var wire 32 z io_in_alu_result $end
   $var wire 1 "$ reset $end
   $var wire 1 "/ io_in_ctrl_ctrlMemToReg $end
   $var wire 1 "J clock $end
   $var wire 1 "S ctrl_mem_ctrlRegWrite $end
   $var wire 5 "a io_in_rd_addr $end
   $var wire 1 #D io_in_ctrl_ctrlRegWrite $end
   $var wire 5 #W io_out_rd_addr $end
  $upscope $end
  $scope module data_mem $end
   $var wire 1 & io_ctrlMemRead $end
   $var wire 1 T io_peek_write $end
   $var wire 32 | io_data_out $end
   $var wire 32 "+ io_data_in $end
   $var wire 32 "2 io_addr $end
   $var wire 32 "@ index $end
   $var wire 10 "` mem_io_data_out_MPORT_addr_pipe_0 $end
   $var wire 1 "b io_ctrlMemWrite $end
   $var wire 1 #" peek_write $end
   $var wire 32 #B mem $end
   $var wire 1 #^ clock $end
   $var wire 1 #b mem_io_data_out_MPORT_en_pipe_0 $end
    $scope module mem $end
     $var wire 32 ( MPORT $end
      $scope module MPORT $end
       $var wire 1 - clk $end
       $var wire 10 < addr $end
       $var wire 10 _ pipeline_addr_0 $end
       $var wire 32 m pipeline_data_0 $end
       $var wire 1 ") mask $end
       $var wire 1 "4 en $end
       $var wire 32 "6 data $end
       $var wire 1 "Q valid $end
       $var wire 1 #a pipeline_valid_0 $end
      $upscope $end
      $scope module io_data_out_MPORT $end
       $var wire 1 . clk $end
       $var wire 10 > addr $end
       $var wire 32 "L data $end
       $var wire 1 #C en $end
      $upscope $end
    $upscope $end
  $upscope $end
  $scope module ex_mem $end
   $var wire 5 % io_out_rd_addr $end
   $var wire 32 2 rs2_data_ex $end
   $var wire 1 7 ctrl_ex_ctrlMemWrite $end
   $var wire 1 C io_in_ctrl_ctrlMemToReg $end
   $var wire 32 D io_in_rs2_data $end
   $var wire 1 L ctrl_ex_ctrlMemRead $end
   $var wire 5 O io_in_rd_addr $end
   $var wire 1 ` io_in_ctrl_ctrlRegWrite $end
   $var wire 1 o ctrl_ex_ctrlRegWrite $end
   $var wire 1 "# io_out_ctrl_ctrlMemWrite $end
   $var wire 32 ". io_out_rs2_data $end
   $var wire 1 "5 clock $end
   $var wire 1 "7 ctrl_ex_ctrlMemToReg $end
   $var wire 1 "9 reset $end
   $var wire 1 "C io_in_ctrl_ctrlMemWrite $end
   $var wire 1 "D io_stall $end
   $var wire 5 "K rd_addr_ex $end
   $var wire 1 "T io_in_ctrl_ctrlMemRead $end
   $var wire 1 "] io_out_ctrl_ctrlRegWrite $end
   $var wire 32 "_ io_out_alu_result $end
   $var wire 32 "e io_in_alu_result $end
   $var wire 1 #4 io_out_ctrl_ctrlMemRead $end
   $var wire 1 #E io_flush $end
   $var wire 32 #J alu_result_ex $end
   $var wire 1 #c io_out_ctrl_ctrlMemToReg $end
  $upscope $end
  $scope module inst_mem $end
   $var wire 1 : clock $end
   $var wire 32 [ mem $end
   $var wire 32 k io_inst $end
   $var wire 32 { index $end
   $var wire 10 "[ mem_io_inst_MPORT_addr_pipe_0 $end
   $var wire 1 #; mem_io_inst_MPORT_en_pipe_0 $end
   $var wire 32 #> io_addr $end
    $scope module mem $end
      $scope module io_inst_MPORT $end
       $var wire 32 E data $end
       $var wire 1 v clk $end
       $var wire 10 "X addr $end
       $var wire 1 #1 en $end
      $upscope $end
    $upscope $end
  $upscope $end
  $scope module if_id $end
   $var wire 32 V io_out_pc $end
   $var wire 32 j io_out_inst $end
   $var wire 32 u io_in_pc $end
   $var wire 1 "? io_flush $end
   $var wire 32 "G inst_if $end
   $var wire 1 "I reset $end
   $var wire 1 #H io_stall $end
   $var wire 32 #[ io_in_inst $end
   $var wire 32 #] pc_if $end
   $var wire 1 #_ clock $end
  $upscope $end
  $scope module alu $end
   $var wire 32 + io_imm $end
   $var wire 32 6 io_pc $end
   $var wire 32 b src2_s $end
   $var wire 32 ~ io_alu_result $end
   $var wire 5 "' io_aluOp $end
   $var wire 1 ", io_to_branch $end
   $var wire 5 "F shamt $end
   $var wire 1 "Y to_branch $end
   $var wire 32 #& io_jump_addr $end
   $var wire 32 #, io_src2 $end
   $var wire 32 #. io_src1 $end
   $var wire 32 #? alu_result $end
   $var wire 32 #A src1_s $end
   $var wire 32 #F jump_addr $end
  $upscope $end
  $scope module decoder $end
   $var wire 9 ! immJ_hi_hi $end
   $var wire 5 # rd $end
   $var wire 7 ' opcode $end
   $var wire 5 , immB_lo $end
   $var wire 1 / io_ctrl_ctrlMemRead $end
   $var wire 12 1 immS $end
   $var wire 21 4 immJ $end
   $var wire 13 5 immB $end
   $var wire 1 H io_ctrl_ctrlRegWrite $end
   $var wire 8 h immB_hi $end
   $var wire 32 w io_inst $end
   $var wire 1 x io_ctrl_ctrlMemToReg $end
   $var wire 1 "" io_ctrl_ctrlALUSrc $end
   $var wire 32 "% io_imm $end
   $var wire 5 "( io_regs_rs2_addr $end
   $var wire 5 "O rs1 $end
   $var wire 5 "P rs2 $end
   $var wire 7 "Z funct7 $end
   $var wire 3 "^ funct3 $end
   $var wire 5 "c io_ctrl_ctrlALUOp $end
   $var wire 10 "d immJ_hi $end
   $var wire 5 "f io_regs_rs1_addr $end
   $var wire 1 #I io_ctrl_ctrlMemWrite $end
   $var wire 5 #K io_regs_rd_addr $end
   $var wire 2 #Q immB_hi_hi $end
   $var wire 11 #V immJ_lo $end
  $upscope $end
  $scope module forwarding_unit $end
   $var wire 5 $ io_rs1_ex $end
   $var wire 1 S io_reg_write_mem $end
   $var wire 5 ] io_rd_mem $end
   $var wire 5 "1 io_rs2_ex $end
   $var wire 1 "= io_reg_write_wb $end
   $var wire 2 #8 io_forward_b $end
   $var wire 2 #: io_forward_a $end
   $var wire 5 #M io_rd_wb $end
  $upscope $end
  $scope module reg_file $end
   $var wire 5 ) io_rs1_addr $end
   $var wire 5 ; io_rs2_addr $end
   $var wire 1 d clock $end
   $var wire 1 q io_reg_write $end
   $var wire 5 s io_rd_addr $end
   $var wire 32 "3 io_rs1_data $end
   $var wire 1 "; bypass_rs2 $end
   $var wire 1 "< bypass_rs1 $end
   $var wire 32 "E io_rs2_data $end
   $var wire 32 "g regs_19 $end
   $var wire 32 "h regs_18 $end
   $var wire 32 "i regs_22 $end
   $var wire 32 "k regs_21 $end
   $var wire 32 "m regs_24 $end
   $var wire 32 "n regs_23 $end
   $var wire 32 "o regs_26 $end
   $var wire 32 "q regs_25 $end
   $var wire 32 "r regs_28 $end
   $var wire 32 "s regs_27 $end
   $var wire 32 "u regs_20 $end
   $var wire 32 "x regs_11 $end
   $var wire 32 "y regs_10 $end
   $var wire 32 "z regs_13 $end
   $var wire 32 "{ regs_12 $end
   $var wire 32 "| regs_15 $end
   $var wire 32 "} regs_14 $end
   $var wire 32 "~ regs_17 $end
   $var wire 32 #! regs_16 $end
   $var wire 32 #$ regs_9 $end
   $var wire 32 #' regs_0 $end
   $var wire 32 #( regs_5 $end
   $var wire 32 #) regs_29 $end
   $var wire 32 #* regs_6 $end
   $var wire 32 #+ regs_7 $end
   $var wire 32 #- regs_8 $end
   $var wire 32 #/ regs_1 $end
   $var wire 32 #0 regs_2 $end
   $var wire 32 #2 regs_3 $end
   $var wire 32 #3 regs_4 $end
   $var wire 32 #6 regs_31 $end
   $var wire 32 #7 regs_30 $end
   $var wire 32 #L io_rd_data $end
  $upscope $end
$upscope $end
$enddefinitions $end
$dumpvars
00
b00000000000000000000000000000000 +
03
b000000000000 1
07
b00000000 h
b00000000000000000000000000000000 (
08
0:
0=
0A
b00000110010000000000000010010011 [
0C
b00000000000000000000000000000000 6
0G
0H
0I
b00000000000000000000000000000000 2
0J
0K
0L
0P
0R
0S
0T
0W
0X
0Y
0Z
0\
0^
0`
0a
0c
0d
0f
1")
0i
0o
0p
0q
0t
0v
0x
b0000000000000 5
b0000000 "Z
0""
0"#
0"$
0"*
b00 #Q
0",
0"/
b00 #:
0"4
b00000 "K
0"5
0"7
b00 #8
b00000 "O
0"9
0";
0"<
0"=
0"?
0#"
b00000 "F
0"B
0##
0"C
0"D
0"H
0"I
0"J
b00000 "1
0"N
0#1
0"Q
0"R
0"S
0#4
b00000 "(
0"T
0#5
0"V
0#9
0"Y
0#;
0#<
0"]
b00000 "'
b00000 "&
0"b
0#C
0#D
0#E
0#H
0#I
0"j
0"l
0#N
0#O
0"p
0#R
b00000000000000000000000000000000 "o
b00000000000000000000000000000000 #P
b00000000000000000000000000000000 "n
b00000000000000000000000000000000 "m
0#U
b00000000000000000000000000000000 "s
b00000000000000000000000000000000 #T
0"v
b00000000000000000000000000000000 "r
0#X
b00000000000000000000000000000000 "q
0#Y
b00000000000000000000000000000000 "g
b00000000000000000000000000000000 #G
0#\
b00000000000000000000000000000000 "e
b00000000000000000000000000000000 #F
0#^
b00000000000000000000000000000000 "k
b00000000000000000000000000000000 #L
0#_
0#`
b00000000000000000000000000000000 "i
b00000000000000000000000000000000 #J
0#a
b00000000000000000000000000000000 "h
0#b
0#c
b00000 #Z
b00000000000000000000000000000000 "~
b00000000000000000000000000000000 "}
b00000000000000000000000000000000 "|
b00000000000000000000000000000000 #]
b00000000000000000000000000000000 "u
b00000000000000000000000000000000 "t
b00000 #S
b00000000000000000000000000000000 "{
b00000000000000000000000000000000 "z
b00000000000000000000000000000000 #[
b00000000000000000000000000000000 "y
b00000 "w
b00000000000000000000000000000000 "x
b00000 #W
b00000 #K
b00000 #M
b00000 "a
b00000 "c
b0000000 '
b00000 "f
b00000 "\
b00000 "P
b00000 "U
b00000 "W
b00000000000000000000000000000000 ".
b00000000000000000000000000000000 "-
b00000000000000000000000000000000 "3
b00000000000000000000000000000000 "2
b00000000000000000000000000000000 "0
b00000000000000000000000000000000 "%
b00000000000000000000000000000000 "+
b000000000 !
b00000000000000000000000000000000 ">
b00000000000000000000000000000000 #$
b00000000000000000000000000000000 "A
b00000000000000000000000000000000 "@
b00000000000000000000000000000000 #!
b00000000000000000000000000000000 "6
b00000000000000000000000000000000 ":
b00000000000000000000000000000000 "8
b00000000000000000000000000000000 #0
b00000000000000000000000000000000 #/
b00000000000000000000000000000000 "M
b00000000000000000000000000000000 #.
b00000000000000000000000000000000 "L
b00000000000000000000000000000000 #-
b00000000000000000000000000000000 #3
b00000000000000000000000000000000 #2
b00000000000000000000000000000000 "G
b00000000000000000000000000000000 #(
b00000000000000000000000000000000 #'
b00000000000000000000000000000000 "E
b00000000000000000000000000000000 #&
b00000000000000000000000000000000 #%
b00000000000000000000000000000000 #,
b00000000000000000000000000000000 #+
b00000000000000000000000000000000 #*
b00000000000000000000000000000000 #)
b00000000000000000000000000000000 "_
b00000000000000000000000000000000 #@
b00000000000000000000000000000000 #?
b00000000000000000000000000000000 #>
b00000000000000000000000000000000 #=
b0000000000 "`
b00000000000000000000000000000000 #B
b00000000000000000000000000000000 #A
b00000000000000000000000000000000 #7
b000000000000000000000 4
b00000000000000000000000000000000 #6
b0000000000 "X
b0000000000 "[
b0000000000 _
b00000000000000000000000000000000 "!
b0000000000 >
b0000000000 <
b000 "^
b00000 #
b00000 "
b00000 %
b00000000000 #V
b00000 $
b00000 )
b00000 ,
b00000 9
b00000 ;
b00000000000000000000000000000000 ~
b00000 @
b00000 B
b00000 O
b00000000000000000000000000000000 k
b00000000000000000000000000000000 j
b00000000000000000000000000000000 m
b00000000000000000000000000000000 l
b0000000000 "d
b00000000000000000000000000000000 b
b00000 ]
b00000000000000000000000000000000 e
b00000000000000000000000000000000 {
b00000000000000000000000000000000 z
b00000000000000000000000000000000 |
b00000 g
b00000000000000000000000000000000 w
b00000000000000000000000000000000 y
b00000000000000000000000000000000 r
b00000000000000000000000000000000 u
b00000000000000000000000000000000 n
b00000 s
b00000000000000000000000000000000 M
b00000000000000000000000000000000 F
b00000 }
b00000000000000000000000000000000 E
b00000000000000000000000000000000 D
b00000000000000000000000000000000 ?
b00000000000000000000000000000000 V
0&
0*
b00000000000000000000000000000000 U
0-
b00000000000000000000000000000000 N
0.
b00000000000000000000000000000000 Q
0/
$end
#0
1p
1"$
1"v
b00000110010000000000000010010011 E
1#X
1"9
1"I
b00000110010000000000000010010011 #[
b00000000000000000000000000000100 #=
b00000110010000000000000010010011 k
b00000110010000000000000010010011 ">
#1
1#C
1d
1"J
1K
1-
1.
1#1
1P
1"5
1v
1#;
1:
1#^
1#_
1^
1#b
#6
0"$
0d
0"I
0"J
0K
0-
0.
0P
0p
0"5
0"v
0#X
0v
0"9
0:
0#^
0#_
0^
#11
1""
b00001 "c
b00001 B
b00000000000000000000000001100100 "%
b00001 "&
b00100 "(
1H
b00001 #K
1K
b00000000000000000000000001100100 #P
b01 #Q
1#R
1P
b00000000000000000000000000000100 Q
b00000000000000000000000000000100 "t
1"5
b00001100100 #V
1#^
1#_
1^
b00000000000000000000000000000100 "A
1a
b00001 #
1d
b00000110010000000000000010010011 "G
b0010011 '
b01000011 h
1"J
b00000110010000000000000010010011 j
1-
1.
b00100 "P
b000001100001 1
b000000000000001100100 4
b0100001100000 5
1v
b00000110010000000000000010010011 w
b0000011 "Z
1:
b00100 "\
b00000000000000000000000000001000 #=
b00100 ;
b00000000000000000000000000000001 {
b00000000000000000000000000000100 #>
#16
0d
0"J
0K
0-
0.
0P
0"5
0v
0:
0#^
0#_
0^
#21
b00000000000000000000000001100100 "e
1"l
1#O
b00000000000000000000000001100100 #T
b00000000000000000000000000001000 "t
b00001 "w
b00001 #Z
b00001100100000000000000100010011 #[
1#^
1#_
b00100 "
b00000000000000000000000001100100 +
1-
1.
1:
b00001100100000000000000100010011 E
b00001 "'
b00000000000000000000000001100100 F
1K
b00000000000000000000000000000100 "-
b00001 O
b00100 "1
1P
b00000000000000000000000000001000 Q
1"5
b00001100100000000000000100010011 ">
1^
b00000000000000000000000000001000 "A
1`
b00000000000000000000000001100100 b
1d
b00100 "F
1f
1"J
b00000000000000000000000001100100 #,
b00001100100000000000000100010011 k
1"R
b00001 "U
b00000000000000000000000000000100 u
b00100 "W
1v
b0000000001 "X
b0000000001 "[
b00000000000000000000000000001100 #=
b00000000000000000000000000000010 {
b00000000000000000000000000001000 #>
b00000000000000000000000001100100 #?
b00001 }
b00000000000000000000000001100100 ~
#26
0d
0"J
0K
0-
0.
0P
0"5
0v
0:
0#^
0#_
0^
#31
1#D
b00000000000000000000000001100100 #J
b00010 #K
b00000000000000000000000011001000 #P
b00 #Q
b00000000000000000000000000001100 "t
b00011001000 #V
b00000000010000000000000110010011 #[
b00000000000000000000000000000100 #]
1#^
1#_
b00010 #
b00001 %
b00010 ,
1-
1.
b000011000010 1
b000000000000011001000 4
b0000011000010 5
1:
b01000 ;
b0000011001 <
b00010 B
b00000000000000000000000011001000 "%
b00000000010000000000000110010011 E
b01000 "(
1K
b00000000000000000000000000001000 "-
1P
b00000000000000000000000001100100 "2
b00000000000000000000000000001100 Q
1S
1"5
b00000000000000000000000000000100 V
b00000000010000000000000110010011 ">
b00001 ]
1^
b00000000000000000000000000011001 "@
b00000000000000000000000000001100 "A
b00000000000000000000000001100100 #%
1d
b00001100100000000000000100010011 "G
b00000110 h
1"J
b00001 "K
b00001100100000000000000100010011 j
b00000000010000000000000110010011 k
b01000 "P
1o
b00000000000000000000000000001000 u
1v
b0000000010 "X
b00001100100000000000000100010011 w
b0000110 "Z
b0000000010 "[
b00000000000000000000000001100100 z
b01000 "\
b00000000000000000000000000010000 #=
b00000000000000000000000000000011 {
1"]
b00000000000000000000000000001100 #>
b00000000000000000000000001100100 "_
b00000000000000000000000000000100 #@
b00001 "a
#36
0d
0"J
0K
0-
0.
0P
0"5
0v
0:
0#^
0#_
0^
#41
b00000000000000000000000011001000 "e
b00000000000000000000000000000100 #G
b00011 #K
b00000000000000000000000001100100 #L
b00001 #M
b00000000000000000000000000000100 #P
b01 #Q
b00000000000000000000000011001000 #T
b00000000000000000000000000010000 "t
b00000000100 #V
b00001 #W
b00010 "w
b00000000100000000000001000010011 #[
b00000000000000000000000000001000 #]
1#^
1#_
b01000 "
b00011 #
b00000000000000000000000011001000 +
1-
1.
b000000000011 1
b000000000000000000100 4
b0100000000010 5
b00000000000000000000000000000100 6
18
1:
b00100 ;
b0000011001 >
b00011 B
b00000000000000000000000000000100 "%
b00000000100000000000001000010011 E
b00000000000000000000000011001000 F
b00100 "(
1K
b00000000000000000000000000001100 "-
b00000000000000000000000001100100 "0
b00010 O
b01000 "1
1P
b00000000000000000000000000010000 Q
1"5
b00000000000000000000000000001000 V
b00000000000000000000000000000100 ":
1"=
b00000000100000000000001000010011 ">
1^
b0000011001 _
b00000000000000000000000000010000 "A
b00000000000000000000000011001000 b
1d
b01000 "F
b00000000010000000000000110010011 "G
b00001 g
b01000000 h
1"J
b00000000000000000000000011001000 #,
b00000000010000000000000110010011 j
b00000000100000000000001000010011 k
b00000000000000000000000001100100 n
b00100 "P
1q
1"S
b00000000000000000000000001100100 r
b00001 s
b00000000000000000000000000001100 u
b01000 "W
1v
b0000000011 "X
b00000000010000000000000110010011 w
b0000000 "Z
b0000000011 "[
b00100 "\
b00000000000000000000000000010100 #=
b00000000000000000000000000000100 {
b00000000000000000000000000010000 #>
b00000000000000000000000011001000 #?
b00010 }
b00000000000000000000000000001000 #@
b00000000000000000000000011001000 ~
b0000011001 "`
#46
0d
0"J
0K
0-
0.
0P
0"5
0v
0:
0#^
0#_
0^
#51
b00000000000000000000000000000100 "e
b00000000000000000000000000001000 #G
b00000000000000000000000011001000 #J
b00100 #K
b00000000000000000000000000001000 #P
b00 #Q
b00000000000000000000000000000100 #T
b00000000000000000000000000010100 "t
b00000001000 #V
b00011 "w
b00000000110000000000001010010011 #[
b00000000000000000000000000001100 #]
1#^
1#_
b00100 "
b00100 #
b00010 %
b00000000000000000000000000000100 +
b00100 ,
1-
1.
b000000000100 1
b000000000000000001000 4
b0000000000100 5
b00000000000000000000000000001000 6
1:
b01000 ;
b0000110010 <
b00100 B
b00000000000000000000000000001000 "%
b00000000110000000000001010010011 E
b00000000000000000000000000000100 F
b01000 "(
1K
b00000000000000000000000000010000 "-
b00011 O
b00100 "1
1P
b00000000000000000000000011001000 "2
b00000000000000000000000000010100 Q
1"5
b00000000000000000000000000001100 V
b00000000000000000000000000001000 ":
b00000000110000000000001010010011 ">
b00010 ]
1^
b00000000000000000000000000110010 "@
b00000000000000000000000000010100 "A
b00000000000000000000000000000100 b
b00000000000000000000000011001000 #%
1d
b00100 "F
b00000000100000000000001000010011 "G
b00000000 h
1"J
b00010 "K
b00000000000000000000000000000100 #,
b00000000100000000000001000010011 j
b00000000110000000000001010010011 k
b00000000000000000000000001100100 #/
b01000 "P
b00000000000000000000000000010000 u
b00100 "W
1v
b0000000100 "X
b00000000100000000000001000010011 w
b0000000100 "[
b00000000000000000000000011001000 z
b01000 "\
b00000000000000000000000000011000 #=
b00000000000000000000000000000101 {
b00000000000000000000000000010100 #>
b00000000000000000000000000000100 #?
b00011 }
b00000000000000000000000011001000 "_
b00000000000000000000000000001100 #@
b00000000000000000000000000000100 ~
b00010 "a
#56
0d
0"J
0K
0-
0.
0P
0"5
0v
0:
0#^
0#_
0^
#61
b00000000000000000000000000001000 "e
b00000000000000000000000000001100 #G
b00000000000000000000000000000100 #J
b00101 #K
b00000000000000000000000011001000 #L
b00010 #M
b00000000000000000000000000001100 #P
b01 #Q
b00000000000000000000000000001000 #T
b00000000000000000000000000011000 "t
b00000001100 #V
b00010 #W
b00100 "w
b00000000001000001010000000100011 #[
b00000000000000000000000000010000 #]
1#^
1#_
b01000 "
b00101 #
b00011 %
b00000000000000000000000000001000 +
1-
1.
b000000000101 1
b000000000000000001100 4
b0100000000100 5
b00000000000000000000000000001100 6
1:
b01100 ;
b0000000001 <
b0000110010 >
b00101 B
b00000000000000000000000000001100 "%
b00000000001000001010000000100011 E
b00000000000000000000000000001000 F
b01100 "(
1K
b00000000000000000000000000010100 "-
b00000000000000000000000011001000 "0
b00100 O
b01000 "1
1P
b00000000000000000000000000000100 "2
b00000000000000000000000000011000 Q
1"5
b00000000000000000000000000010000 V
b00000000000000000000000000001100 ":
b00000000001000001010000000100011 ">
b00011 ]
1^
b00000000000000000000000000000001 "@
b0000110010 _
b00000000000000000000000000011000 "A
b00000000000000000000000000001000 b
b00000000000000000000000000000100 #%
1d
b01000 "F
b00000000110000000000001010010011 "G
b00010 g
b01000000 h
1"J
b00011 "K
b00000000000000000000000000001000 #,
b00000000110000000000001010010011 j
b00000000001000001010000000100011 k
b00000000000000000000000011001000 n
b01100 "P
b00000000000000000000000011001000 r
b00010 s
b00000000000000000000000000010100 u
b01000 "W
1v
b0000000101 "X
b00000000110000000000001010010011 w
b0000000101 "[
b00000000000000000000000000000100 z
b01100 "\
b00000000000000000000000000011100 #=
b00000000000000000000000000000110 {
b00000000000000000000000000011000 #>
b00000000000000000000000000001000 #?
b00100 }
b00000000000000000000000000000100 "_
b00000000000000000000000000010000 #@
b00000000000000000000000000001000 ~
b0000110010 "`
b00011 "a
#66
0d
0"J
0K
0-
0.
0P
0"5
0v
0:
0#^
0#_
0^
#71
b000001010 !
b01100 "
b00000 #
b00100 %
b0100011 '
b00001 )
b00000000000000000000000000001100 +
b00000 ,
1-
1.
b000000000000 1
b000001010000000000010 4
b0000000000000 5
b00000000000000000000000000010000 6
1:
b00010 ;
b0000000010 <
b0000000001 >
b00000 B
b00000000000000000000000000000000 "%
b00000000010000101000001010110011 E
b00000000000000000000000000001100 F
b00010 "(
0H
1K
b00000000000000000000000000011000 "-
b00000000000000000000000000000100 "0
b00101 O
b01100 "1
1P
b00000000000000000000000000001000 "2
b00000000000000000000000000011100 Q
b00000000000000000000000001100100 "3
1"5
b00000000000000000000000011001000 U
b00000000000000000000000000010100 V
b00000000000000000000000000010000 ":
b00000000010000101000001010110011 ">
b00100 ]
1^
b00000000000000000000000000000010 "@
b0000000001 _
b00000000000000000000000000011100 "A
1"B
0a
b00000000000000000000000000001100 b
b00000000000000000000000000001000 #%
b00000000000000000000000011001000 "E
1d
b01100 "F
b00000000001000001010000000100011 "G
b00011 g
b00000000 h
1"J
b00100 "K
b00000000000000000000000000001100 #,
b00000000001000001010000000100011 j
b00000000010000101000001010110011 k
b00000000000000000000000001100100 l
b00000000000000000000000011001000 #0
b00001 "O
b00000000000000000000000000000100 n
b00010 "P
b00000000000000000000000000000100 r
b00011 s
b00000000000000000000000000011000 u
b01100 "W
1v
b0000000110 "X
b00000000001000001010000000100011 w
b0000000110 "[
b00000000000000000000000000001000 z
b00010 "\
b00000000000000000000000000100000 #=
b00000000000000000000000000000111 {
b00000000000000000000000000011100 #>
b00000000000000000000000000001100 #?
b010 "^
b00101 }
b00000000000000000000000000001000 "_
b00000000000000000000000000010100 #@
b00000000000000000000000000001100 ~
b0000000001 "`
b00100 "a
b0000010100 "d
b00000000000000000000000000001100 "e
b00000000000000000000000000010000 #G
b00001 "f
1#I
b00000000000000000000000000001000 #J
b00000 #K
b00000000000000000000000000000100 #L
b00011 #M
b00000000000000000000000000000000 #P
b00 #Q
b00001 #S
b00000000000000000000000000001100 #T
b00000000000000000000000000011100 "t
b00000000010 #V
b00011 #W
b00101 "w
b00000000010000101000001010110011 #[
b00000000000000000000000000010100 #]
1#^
1#_
#76
0d
0"J
0K
0-
0.
0P
0"5
0v
0:
0#^
0#_
0^
#81
b000101000 !
b00010 "
b00101 #
b00001 $
b00101 %
b0110011 '
b00101 )
b00000000000000000000000000000000 +
b00100 ,
1-
1.
b000000000101 1
b000101000000000000100 4
b0100000000100 5
b00000000000000000000000000010100 6
b00001 9
1:
b00100 ;
b0000000011 <
b0000000010 >
b00000000000000000000000011001000 ?
b00000000000000000000000011001000 "!
b00001 @
0""
b00101 B
b00000000000000000000000011001000 D
b00000000010100001010001000100011 E
b00000000000000000000000000000000 F
b00100 "(
1H
1K
b00000000000000000000000000011100 "-
b00000000000000000000000001100100 M
b00000000000000000000000011001000 N
b00000000000000000000000000001000 "0
b00000 O
b00010 "1
1P
b00000000000000000000000000001100 "2
b00000000000000000000000000100000 Q
b00000000000000000000000000000000 "3
1"5
b00000000000000000000000000001000 U
b00000000000000000000000000011000 V
b00000000000000000000000001100100 "8
b00000000000000000000000000010100 ":
1Y
1";
b00000000010100001010001000100011 ">
b00101 ]
1^
b00000000000000000000000000000011 "@
b0000000010 _
b00000000000000000000000000100000 "A
0`
0"B
1a
1"C
b00000000000000000000000000000000 b
b00000000000000000000000000001100 #%
b00000000000000000000000000001000 "E
1d
b00000 "F
b00000000010000101000001010110011 "G
0f
b00100 g
b01000000 h
1"J
1i
b00101 "K
b00000000000000000000000000000000 #,
b00000000010000101000001010110011 j
b00000000010100001010001000100011 k
b00000000000000000000000001100100 "M
b00000000000000000000000001100100 #.
b00000000000000000000000000000000 l
b00101 "O
b00000000000000000000000000001000 n
b00100 "P
b00000000000000000000000000000100 #2
0"R
b00000000000000000000000000001000 r
b00100 s
b00000000000000000000000000011100 u
b00010 "W
1v
b0000000111 "X
b00000000010000101000001010110011 w
b0000000111 "[
b00000000000000000000000000001100 z
b00100 "\
b00000000000000000000000000100100 #=
b00000000000000000000000000001000 {
b00000000000000000000000000100000 #>
b00000000000000000000000001100100 #?
b000 "^
b00000 }
b00000000000000000000000000001100 "_
b00000000000000000000000000011000 #@
b00000000000000000000000001100100 ~
b0000000010 "`
b00000000000000000000000001100100 #A
b00101 "a
b0001010000 "d
b00000000000000000000000001100100 "e
b00000000000000000000000000010100 #G
b00101 "f
0#I
b00000000000000000000000000001100 #J
b00101 #K
b00000000000000000000000000001000 #L
b00100 #M
b01 #Q
0#R
b00101 #S
b00000000000000000000000000000000 #T
b00000000000000000000000000100000 "t
b00000000100 #V
b00100 #W
b00000 "w
b00000000010100001010001000100011 #[
b00000000000000000000000000011000 #]
1#^
1#_
#86
0d
0"J
0K
0-
0.
0P
0"5
0v
0:
0#^
0#_
0^
