pa2/pa2/test_run_dir/Core_should_match_golden_memory/Core.vcd
$date
2025-12-06T07:44+0000
$end
$version
0.2
$end
$comment

$end
$timescale 1ns  $end
$scope module Core $end
 $var wire 1 * load_use_hazard $end
 $var wire 1 A inst_mem $end
 $var wire 1 I rs1_conflict $end
 $var wire 1 J alu $end
 $var wire 1 K clock $end
 $var wire 32 M forwarded_src1 $end
 $var wire 32 N forwarded_src2 $end
 $var wire 1 R io_peek_write $end
 $var wire 32 e io_peek_data $end
 $var wire 1 p reset $end
 $var wire 1 t ex_mem $end
 $var wire 1 "* reg_file $end
 $var wire 32 ". io_wb_result $end
 $var wire 32 "< io_inst $end
 $var wire 1 "K data_mem $end
 $var wire 1 "S forwarding_unit $end
 $var wire 32 "p io_pc $end
 $var wire 1 "} if_id $end
 $var wire 32 #! io_peek_addr $end
 $var wire 1 #0 mem_wb $end
 $var wire 1 #H rs2_conflict $end
 $var wire 1 #O pc_handle $end
 $var wire 1 #S id_ex $end
 $var wire 1 #V decoder $end
  $scope module id_ex $end
   $var wire 5 " io_out_rs2_addr $end
   $var wire 1 0 io_in_ctrl_ctrlMemToReg $end
   $var wire 5 9 rs1_addr_id $end
   $var wire 32 ? rs2_data_id $end
   $var wire 5 @ io_out_rs1_addr $end
   $var wire 5 B io_in_rd_addr $end
   $var wire 32 F io_out_imm $end
   $var wire 32 U io_in_rs2_data $end
   $var wire 1 X io_stall $end
   $var wire 1 Y io_out_ctrl_ctrlMemWrite $end
   $var wire 1 Z io_flush $end
   $var wire 1 ^ clock $end
   $var wire 1 a io_in_ctrl_ctrlRegWrite $end
   $var wire 1 f io_out_ctrl_ctrlRegWrite $end
   $var wire 1 i ctrl_id_ctrlMemWrite $end
   $var wire 32 l io_in_rs1_data $end
   $var wire 5 } io_out_rd_addr $end
   $var wire 32 "! io_out_rs2_data $end
   $var wire 5 "& io_in_ctrl_ctrlALUOp $end
   $var wire 32 "6 rs1_data_id $end
   $var wire 32 "8 pc_id $end
   $var wire 1 "@ io_in_ctrl_ctrlMemWrite $end
   $var wire 32 "J io_out_rs1_data $end
   $var wire 1 "O ctrl_id_ctrlRegWrite $end
   $var wire 5 "R io_out_ctrl_ctrlALUOp $end
   $var wire 5 "T rs2_addr_id $end
   $var wire 5 "X io_in_rs2_addr $end
   $var wire 1 "f io_out_ctrl_ctrlMemToReg $end
   $var wire 1 "h io_out_ctrl_ctrlALUSrc $end
   $var wire 1 "l io_in_ctrl_ctrlMemRead $end
   $var wire 1 "r reset $end
   $var wire 5 "s rd_addr_id $end
   $var wire 1 #4 ctrl_id_ctrlMemRead $end
   $var wire 1 #7 io_out_ctrl_ctrlMemRead $end
   $var wire 32 #; io_in_pc $end
   $var wire 32 #A io_out_pc $end
   $var wire 1 #I ctrl_id_ctrlALUSrc $end
   $var wire 32 #J io_in_imm $end
   $var wire 1 #L io_in_ctrl_ctrlALUSrc $end
   $var wire 5 #M io_in_rs1_addr $end
   $var wire 32 #N imm_id $end
   $var wire 5 #T ctrl_id_ctrlALUOp $end
   $var wire 1 #Z ctrl_id_ctrlMemToReg $end
  $upscope $end
  $scope module pc_handle $end
   $var wire 1 = io_to_branch $end
   $var wire 1 P clock $end
   $var wire 32 Q io_pc $end
   $var wire 1 W io_stall $end
   $var wire 32 y io_jump_addr $end
   $var wire 32 "? pc $end
   $var wire 32 #8 next_pc $end
   $var wire 1 #R reset $end
  $upscope $end
  $scope module mem_wb $end
   $var wire 1 3 ctrl_mem_ctrlMemToReg $end
   $var wire 1 8 io_out_ctrl_ctrlRegWrite $end
   $var wire 1 G io_stall $end
   $var wire 1 \ io_flush $end
   $var wire 1 c io_out_ctrl_ctrlMemToReg $end
   $var wire 5 g rd_addr_mem $end
   $var wire 32 n alu_result_mem $end
   $var wire 32 r io_out_alu_result $end
   $var wire 32 z io_in_alu_result $end
   $var wire 1 "$ reset $end
   $var wire 1 "- io_in_ctrl_ctrlMemToReg $end
   $var wire 1 "G clock $end
   $var wire 1 "P ctrl_mem_ctrlRegWrite $end
   $var wire 5 "] io_in_rd_addr $end
   $var wire 1 #? io_in_ctrl_ctrlRegWrite $end
   $var wire 5 #Q io_out_rd_addr $end
  $upscope $end
  $scope module data_mem $end
   $var wire 1 & io_ctrlMemRead $end
   $var wire 1 T io_peek_write $end
   $var wire 32 | io_data_out $end
   $var wire 32 "+ io_data_in $end
   $var wire 32 "0 io_addr $end
   $var wire 32 "> index $end
   $var wire 10 "\ mem_io_data_out_MPORT_addr_pipe_0 $end
   $var wire 1 "^ io_ctrlMemWrite $end
   $var wire 1 "| peek_write $end
   $var wire 32 #= mem $end
   $var wire 1 #X clock $end
   $var wire 1 #\ mem_io_data_out_MPORT_en_pipe_0 $end
    $scope module mem $end
     $var wire 32 ( MPORT $end
      $scope module MPORT $end
       $var wire 1 - clk $end
       $var wire 10 < addr $end
       $var wire 10 _ pipeline_addr_0 $end
       $var wire 32 m pipeline_data_0 $end
       $var wire 1 ") mask $end
       $var wire 1 "2 en $end
       $var wire 32 "4 data $end
       $var wire 1 "N valid $end
       $var wire 1 #[ pipeline_valid_0 $end
      $upscope $end
      $scope module io_data_out_MPORT $end
       $var wire 1 . clk $end
       $var wire 10 > addr $end
       $var wire 32 "I data $end
       $var wire 1 #> en $end
      $upscope $end
    $upscope $end
  $upscope $end
  $scope module ex_mem $end
   $var wire 5 % io_out_rd_addr $end
   $var wire 32 2 rs2_data_ex $end
   $var wire 1 7 ctrl_ex_ctrlMemWrite $end
   $var wire 1 C io_in_ctrl_ctrlMemToReg $end
   $var wire 32 D io_in_rs2_data $end
   $var wire 1 L ctrl_ex_ctrlMemRead $end
   $var wire 5 O io_in_rd_addr $end
   $var wire 1 ` io_in_ctrl_ctrlRegWrite $end
   $var wire 1 o ctrl_ex_ctrlRegWrite $end
   $var wire 1 "# io_out_ctrl_ctrlMemWrite $end
   $var wire 32 ", io_out_rs2_data $end
   $var wire 1 "3 clock $end
   $var wire 1 "5 ctrl_ex_ctrlMemToReg $end
   $var wire 1 "7 reset $end
   $var wire 1 "A io_in_ctrl_ctrlMemWrite $end
   $var wire 1 "B io_stall $end
   $var wire 5 "H rd_addr_ex $end
   $var wire 1 "Q io_in_ctrl_ctrlMemRead $end
   $var wire 1 "Y io_out_ctrl_ctrlRegWrite $end
   $var wire 32 "[ io_out_alu_result $end
   $var wire 32 "a io_in_alu_result $end
   $var wire 1 #/ io_out_ctrl_ctrlMemRead $end
   $var wire 1 #@ io_flush $end
   $var wire 32 #D alu_result_ex $end
   $var wire 1 #] io_out_ctrl_ctrlMemToReg $end
  $upscope $end
  $scope module inst_mem $end
   $var wire 1 : clock $end
   $var wire 32 [ mem $end
   $var wire 32 k io_inst $end
   $var wire 32 { index $end
   $var wire 10 "W mem_io_inst_MPORT_addr_pipe_0 $end
   $var wire 1 #6 mem_io_inst_MPORT_en_pipe_0 $end
   $var wire 32 #9 io_addr $end
    $scope module mem $end
      $scope module io_inst_MPORT $end
       $var wire 32 E data $end
       $var wire 1 v clk $end
       $var wire 10 "U addr $end
       $var wire 1 #, en $end
      $upscope $end
    $upscope $end
  $upscope $end
  $scope module if_id $end
   $var wire 32 V io_out_pc $end
   $var wire 32 j io_out_inst $end
   $var wire 32 u io_in_pc $end
   $var wire 1 "= io_flush $end
   $var wire 32 "E inst_if $end
   $var wire 1 "F reset $end
   $var wire 1 #B io_stall $end
   $var wire 32 #U io_in_inst $end
   $var wire 32 #W pc_if $end
   $var wire 1 #Y clock $end
  $upscope $end
  $scope module alu $end
   $var wire 32 + io_imm $end
   $var wire 32 6 io_pc $end
   $var wire 32 b src2_s $end
   $var wire 32 ~ io_alu_result $end
   $var wire 5 "' io_aluOp $end
   $var wire 5 "D shamt $end
   $var wire 32 #' io_src2 $end
   $var wire 32 #) io_src1 $end
   $var wire 32 #: alu_result $end
   $var wire 32 #< src1_s $end
  $upscope $end
  $scope module decoder $end
   $var wire 9 ! immJ_hi_hi $end
   $var wire 5 # rd $end
   $var wire 7 ' opcode $end
   $var wire 5 , immB_lo $end
   $var wire 1 / io_ctrl_ctrlMemRead $end
   $var wire 12 1 immS $end
   $var wire 21 4 immJ $end
   $var wire 13 5 immB $end
   $var wire 1 H io_ctrl_ctrlRegWrite $end
   $var wire 8 h immB_hi $end
   $var wire 32 w io_inst $end
   $var wire 1 x io_ctrl_ctrlMemToReg $end
   $var wire 1 "" io_ctrl_ctrlALUSrc $end
   $var wire 32 "% io_imm $end
   $var wire 5 "( io_regs_rs2_addr $end
   $var wire 5 "L rs1 $end
   $var wire 5 "M rs2 $end
   $var wire 7 "V funct7 $end
   $var wire 3 "Z funct3 $end
   $var wire 5 "_ io_ctrl_ctrlALUOp $end
   $var wire 10 "` immJ_hi $end
   $var wire 5 "b io_regs_rs1_addr $end
   $var wire 1 #C io_ctrl_ctrlMemWrite $end
   $var wire 5 #E io_regs_rd_addr $end
   $var wire 2 #K immB_hi_hi $end
   $var wire 11 #P immJ_lo $end
  $upscope $end
  $scope module forwarding_unit $end
   $var wire 5 $ io_rs1_ex $end
   $var wire 1 S io_reg_write_mem $end
   $var wire 5 ] io_rd_mem $end
   $var wire 5 "/ io_rs2_ex $end
   $var wire 1 "; io_reg_write_wb $end
   $var wire 2 #3 io_forward_b $end
   $var wire 2 #5 io_forward_a $end
   $var wire 5 #G io_rd_wb $end
  $upscope $end
  $scope module reg_file $end
   $var wire 5 ) io_rs1_addr $end
   $var wire 5 ; io_rs2_addr $end
   $var wire 1 d clock $end
   $var wire 1 q io_reg_write $end
   $var wire 5 s io_rd_addr $end
   $var wire 32 "1 io_rs1_data $end
   $var wire 1 "9 bypass_rs2 $end
   $var wire 1 ": bypass_rs1 $end
   $var wire 32 "C io_rs2_data $end
   $var wire 32 "c regs_19 $end
   $var wire 32 "d regs_18 $end
   $var wire 32 "e regs_22 $end
   $var wire 32 "g regs_21 $end
   $var wire 32 "i regs_24 $end
   $var wire 32 "j regs_23 $end
   $var wire 32 "k regs_26 $end
   $var wire 32 "m regs_25 $end
   $var wire 32 "n regs_28 $end
   $var wire 32 "o regs_27 $end
   $var wire 32 "q regs_20 $end
   $var wire 32 "t regs_11 $end
   $var wire 32 "u regs_10 $end
   $var wire 32 "v regs_13 $end
   $var wire 32 "w regs_12 $end
   $var wire 32 "x regs_15 $end
   $var wire 32 "y regs_14 $end
   $var wire 32 "z regs_17 $end
   $var wire 32 "{ regs_16 $end
   $var wire 32 "~ regs_9 $end
   $var wire 32 #" regs_0 $end
   $var wire 32 ## regs_5 $end
   $var wire 32 #$ regs_29 $end
   $var wire 32 #% regs_6 $end
   $var wire 32 #& regs_7 $end
   $var wire 32 #( regs_8 $end
   $var wire 32 #* regs_1 $end
   $var wire 32 #+ regs_2 $end
   $var wire 32 #- regs_3 $end
   $var wire 32 #. regs_4 $end
   $var wire 32 #1 regs_31 $end
   $var wire 32 #2 regs_30 $end
   $var wire 32 #F io_rd_data $end
  $upscope $end
$upscope $end
$enddefinitions $end
$dumpvars
00
b00000000000000000000000000000000 +
03
b000000000000 1
07
b00000000 h
b00000000000000000000000000000000 (
08
0:
0=
0A
0C
b00000000000000000000000000000000 6
0G
0H
0I
b00000000000000000000000000000000 2
0J
0K
0L
0P
0R
0S
0T
0W
0X
0Y
0Z
0\
0^
0`
0a
0c
0d
0f
1")
0i
0o
0p
0q
0t
0v
0x
b0000000000000 5
b0000000 "V
0""
0"#
0"$
b00 #K
0"*
0"-
0"2
0"3
b00000 "H
0"5
b00000 "M
b00 #5
0"7
b00000 "L
0"9
0":
0";
0"=
b00000 "D
0"@
0"A
0"B
0"F
0"G
0"K
0#,
b00 #3
0"N
0#/
0"O
0#0
0"P
0"Q
0"S
0#4
b00000 "(
0#6
0#7
b00000 "/
0"Y
0#>
0"^
0#?
0#@
b00000 "'
0#B
b00000 "&
0#C
0"f
0#H
0"h
0#I
0#L
0"l
0#O
0#R
b00000000000000000000000000000000 "o
0"r
0#S
b00000000000000000000000000000000 "n
b00000000000000000000000000000000 "m
b00000000000000000000000000000000 #N
0#V
0#X
b00000000000000000000000000000000 "q
0#Y
b00000000000000000000000000000000 "p
0#Z
b00000000000000000000000000000000 "g
0#[
0#\
b00000000000000000000000000000000 "e
b00000000000000000000000000000000 #F
0"|
0#]
b00000000000000000000000000000000 "d
0"}
b00000000000000000000000000000000 "k
b00000000000000000000000000000000 "j
b00000000000000000000000000000000 "i
b00000000000000000000000000000000 #J
b00000000000000000000000000000000 "~
b00000000000000000000000000000000 "w
b00000000000000000000000000000000 "v
b00000000000000000000000000000000 #W
b00000 #Q
b00000000000000000000000000000000 "u
b00000 "s
b00000 #T
b00000000000000000000000000000000 "t
b00000000000000000000000000000000 #U
b00000000000000000000000000000000 "{
b00000000000000000000000000000000 "z
b00000000000000000000000000000000 "y
b00000000000000000000000000000000 "x
b00000 #M
b00000 "b
b0000000 '
b00000 #E
b00000 #G
b00000 "X
b00000 "]
b00000 "_
b00000 "R
b00000 "T
b00000000000000000000000000000000 ".
b00000000000000000000000000000000 ",
b00000000000000000000000000000000 "1
b00000000000000000000000000000000 "0
b00000000000000000000000000000000 "%
b00000000000000000000000000000000 "+
b000000000 !
b00000000000000000000000000000000 "?
b00000000000000000000000000000000 ">
b00000000000000000000000000000000 "<
b00000000000000000000000000000000 "C
b00000000000000000000000000000000 #$
b00000000000000000000000000000000 ##
b00000000000000000000000000000000 #"
b00000000000000000000000000000000 #!
b00000000000000000000000000000000 "6
b00000000000000000000000000000000 "4
b00000000000000000000000000000000 "8
b00000000000000000000000000000000 #.
b00000000000000000000000000000000 #-
b00000000000000000000000000000000 #2
b00000000000000000000000000000000 #1
b00000000000000000000000000000000 #(
b00000000000000000000000000000000 #'
b00000000000000000000000000000000 "E
b00000000000000000000000000000000 #&
b00000000000000000000000000000000 #%
b00000000000000000000000000000000 "J
b00000000000000000000000000000000 #+
b00000000000000000000000000000000 "I
b00000000000000000000000000000000 #*
b00000000000000000000000000000000 #)
b0000000000 "\
b00000000000000000000000000000000 #=
b00000000000000000000000000000000 "c
b00000000000000000000000000000000 #D
b0000000000 "`
b00000000000000000000000000000000 "a
b00000000000000000000000000000000 #A
b00000000000000000000000000000000 #8
b0000000000 "U
b000000000000000000000 4
b0000000000 "W
b00000000000000000000000000000000 "[
b00000000000000000000000000000000 #<
b00000000000000000000000000000000 #;
b00000000000000000000000000000000 #:
b00000000000000000000000000000000 #9
b0000000000 _
b00000000000000000000000000000000 "!
b0000000000 >
b0000000000 <
b000 "Z
b00000 #
b00000 "
b00000 %
b00000 $
b00000 )
b00000 ,
b00000 9
b00000 ;
b00000000000 #P
b00000000000000000000000000000000 ~
b00000 @
b00000 B
b00000 O
b00000000000000000000000000000000 k
b00000000000000000000000000000000 j
b00000000000000000000000000000000 m
b00000000000000000000000000000000 l
b00000000000000000000000000000000 b
b00000 ]
b00000000000000000000000000000000 e
b00000000000000000000000000000000 {
b00000000000000000000000000000000 z
b00000000000000000000000000000000 |
b00000 g
b00000000000000000000000000000000 w
b00000000000000000000000000000000 y
b00000000000000000000000000000000 r
b00000000000000000000000000000000 u
b00000000000000000000000000000000 n
b00000 s
b00000000000000000000000000000000 M
b00000000000000000000000000000000 F
b00000 }
b00000000000000000000000000000000 E
b00000000000000000000000000000000 D
b00000000000000000000000000000000 ?
b00010000000000000000101000010011 [
b00000000000000000000000000000000 V
0&
0*
b00000000000000000000000000000000 U
0-
b00000000000000000000000000000000 N
0.
b00000000000000000000000000000000 Q
0/
$end
#0
1p
1"r
1"$
b00010000000000000000101000010011 #U
1"F
b00010000000000000000101000010011 E
1"7
b00000000000000000000000000000100 #8
b00010000000000000000101000010011 "<
b00010000000000000000101000010011 k
1#R
#1
1d
1"G
1#,
1K
1-
1.
1P
1"3
1#6
1#X
1v
1#Y
1#\
1:
1#>
1^
#6
0"$
0d
0"F
0"G
0K
0-
0.
0#R
0P
0p
0"r
0"3
0"7
0#X
0v
0#Y
0:
0^
#11
1""
b10100 B
b10100 #E
b00000000000000000000000100000000 "%
b00001 "&
b00000000000000000000000100000000 #J
1H
1#L
1K
b00100000000 #P
b00000000000000000000000000000100 "p
1P
b00000000000000000000000000000100 Q
1"3
1#X
1#Y
b00000000000000000000000000000100 "?
1^
1a
b10100 #
b00010000000000000000101000010011 "E
1d
1"G
b0010011 '
b00001000 h
b00010000000000000000101000010011 j
b10100 ,
1-
1.
b000100010100 1
b000000000000100000000 4
b0001000 "V
b0000100010100 5
b00000000000000000000000000000100 u
b00000000000000000000000000001000 #8
1v
b00000000000000000000000000000100 #9
b00010000000000000000101000010011 w
1:
b00000000000000000000000000000001 {
b00001 "_
#16
0d
0"G
0K
0-
0.
0P
0"3
0#X
0v
0#Y
0:
0^
#21
b00010010110000000000101010010011 E
b00001 "'
b00000000000000000000000100000000 F
1#I
1"h
1K
b00000000000000000000000100000000 #N
b00000000000000000000000000001000 "p
b10100 O
1P
b00000000000000000000000000001000 Q
1"3
b10100 "s
b00001 #T
b00010010110000000000101010010011 #U
b00000000000000000000000000000100 #W
1#X
b00000000000000000000000000000100 V
1#Y
b00010010110000000000101010010011 "<
b00000000000000000000000000001000 "?
1^
1`
b00000000000000000000000100000000 b
1d
b00000000000000000000000100000000 #'
1"G
1f
b00000000000000000000000100000000 +
b00010010110000000000101010010011 k
1-
1"O
1.
b00001 "R
b0000000001 "U
b00000000000000000000000000001000 u
b0000000001 "W
b00000000000000000000000000001100 #8
1v
b00000000000000000000000000001000 #9
b00000000000000000000000100000000 #:
b00000000000000000000000000000100 #;
1:
b00000000000000000000000000000010 {
b10100 }
b00000000000000000000000100000000 ~
b00000000000000000000000100000000 "a
#26
0d
0"G
0K
0-
0.
0P
0"3
0#X
0v
0#Y
0:
0^
#31
b00000000000000000000000100000000 #D
b10101 #E
b00000000000000000000000100101100 #J
b01 #K
b00100101100 #P
b00000000000000000000000000001100 "p
b00000000101000000000000010010011 #U
b00000000000000000000000000001000 #W
1#X
1#Y
b10101 #
b10100 %
1-
1.
b000100110101 1
b000000000000100101100 4
b0100100110100 5
b00000000000000000000000000000100 6
1:
b01100 ;
b0001000000 <
b10101 B
b00000000000000000000000100101100 "%
b00000000101000000000000010010011 E
b01100 "(
1K
b00000000000000000000000100000000 "0
1P
b00000000000000000000000000001100 Q
1"3
1S
b00000000000000000000000000001000 V
b00000000000000000000000000000100 "8
b00000000101000000000000010010011 "<
b00000000000000000000000001000000 ">
b10100 ]
b00000000000000000000000000001100 "?
1^
b00000000000000000000000100000000 #!
b00010010110000000000101010010011 "E
1d
1"G
b10100 "H
b01001001 h
b00010010110000000000101010010011 j
b00000000101000000000000010010011 k
b01100 "M
1o
b0000000010 "U
b0001001 "V
b00000000000000000000000000001100 u
b0000000010 "W
b00000000000000000000000000010000 #8
1v
b01100 "X
b00000000000000000000000000001100 #9
b00010010110000000000101010010011 w
1"Y
b00000000000000000000000000001000 #;
b00000000000000000000000100000000 "[
b00000000000000000000000100000000 z
b00000000000000000000000000000011 {
b10100 "]
1#?
b00000000000000000000000000000100 #A
#36
0d
0"G
0K
0-
0.
0P
0"3
0#X
0v
0#Y
0:
0^
#41
b00001 #E
b00000000000000000000000100000000 #F
b10100 #G
b00000000000000000000000000001010 #J
b00000000000000000000000100101100 #N
b00000001010 #P
b10100 #Q
b00000000000000000000000000010000 "p
b10101 "s
b00000001010000000000000100010011 #U
b00000000000000000000000000001100 #W
1#X
1#Y
b01100 "
b00001 #
b00000000000000000000000100101100 +
b00000 ,
1-
1.
b000000000001 1
b000000000000000001010 4
b0100000000000 5
b00000000000000000000000000001000 6
18
1:
b01010 ;
b0001000000 >
b00001 B
b00000000000000000000000000001010 "%
b00000001010000000000000100010011 E
b00000000000000000000000100101100 F
b01010 "(
1K
b00000000000000000000000100000000 ".
b01100 "/
b10101 O
1P
b00000000000000000000000000010000 Q
1"3
b00000000000000000000000000001100 V
b00000000000000000000000000001000 "8
1";
b00000001010000000000000100010011 "<
b00000000000000000000000000010000 "?
1^
b0001000000 _
b00000000000000000000000100101100 b
b01100 "D
b00000000101000000000000010010011 "E
1d
b00000000000000000000000100101100 #'
1"G
b10100 g
b01000000 h
b00000000101000000000000010010011 j
b00000001010000000000000100010011 k
b01010 "M
b00000000000000000000000100000000 n
1"P
1q
b00000000000000000000000100000000 r
b01100 "T
b10100 s
b0000000011 "U
b0000000 "V
b00000000000000000000000000010000 u
b0000000011 "W
b00000000000000000000000000010100 #8
1v
b01010 "X
b00000000000000000000000000010000 #9
b00000000101000000000000010010011 w
b00000000000000000000000100101100 #:
b00000000000000000000000000001100 #;
b0001000000 "\
b00000000000000000000000000000100 {
b10101 }
b00000000000000000000000100101100 ~
b00000000000000000000000000001000 #A
b00000000000000000000000100101100 "a
#46
0d
0"G
0K
0-
0.
0P
0"3
0#X
0v
0#Y
0:
0^
#51
b00000000000000000000000100101100 #D
b00010 #E
b00000000000000000000000000010100 #J
b00 #K
b00000000000000000000000000001010 #N
b00000010100 #P
b00000000000000000000000000010100 "p
b00000000000000000000000100000000 "q
b00001 "s
b00000001111000000000000110010011 #U
b00000000000000000000000000010000 #W
1#X
1#Y
b01010 "
b00010 #
b10101 %
b00000000000000000000000000001010 +
b00010 ,
1-
1.
b000000000010 1
b000000000000000010100 4
b0000000000010 5
b00000000000000000000000000001100 6
1:
b10100 ;
b0001001011 <
b00010 B
b00000000000000000000000000010100 "%
b00000001111000000000000110010011 E
b00000000000000000000000000001010 F
b10100 "(
1K
b01010 "/
b00000000000000000000000100101100 "0
b00001 O
1P
b00000000000000000000000000010100 Q
1"3
b00000000000000000000000100000000 U
b00000000000000000000000000010000 V
b00000000000000000000000000001100 "8
1"9
b00000001111000000000000110010011 "<
b00000000000000000000000001001011 ">
b10101 ]
b00000000000000000000000000010100 "?
1^
b00000000000000000000000100101100 #!
b00000000000000000000000100000000 "C
b00000000000000000000000000001010 b
b01010 "D
b00000001010000000000000100010011 "E
1d
b00000000000000000000000000001010 #'
1"G
b10101 "H
b00000000 h
b00000001010000000000000100010011 j
b00000001111000000000000110010011 k
b10100 "M
b01010 "T
b0000000100 "U
b00000000000000000000000000010100 u
b0000000100 "W
b00000000000000000000000000011000 #8
1v
b10100 "X
b00000000000000000000000000010100 #9
b00000001010000000000000100010011 w
b00000000000000000000000000001010 #:
b00000000000000000000000000010000 #;
b00000000000000000000000100101100 "[
b00000000000000000000000100101100 z
b00000000000000000000000000000101 {
b10101 "]
b00001 }
b00000000000000000000000000001010 ~
b00000000000000000000000000001100 #A
b00000000000000000000000000001010 "a
#56
0d
0"G
0K
0-
0.
0P
0"3
0#X
0v
0#Y
0:
0^
#61
b00000000000000000000000000001010 #D
b00011 #E
b00000000000000000000000100101100 #F
b10101 #G
b00000000000000000000000000011110 #J
b01 #K
b00000000000000000000000000010100 #N
b00000011110 #P
b10101 #Q
b00000000000000000000000000011000 "p
b00010 "s
b00000010100000000000001000010011 #U
b00000000000000000000000000010100 #W
1#X
1#Y
b10100 "
b00011 #
b00001 %
b00000000000000000000000000010100 +
1-
1.
b000000000011 1
b000000000000000011110 4
b0100000000010 5
b00000000000000000000000000010000 6
1:
b11110 ;
b0000000010 <
b0001001011 >
b00000000000000000000000100000000 ?
b00000000000000000000000100000000 "!
b00011 B
b00000000000000000000000000011110 "%
b00000000000000000000000100000000 D
b00000010100000000000001000010011 E
b00000000000000000000000000010100 F
b11110 "(
1K
b00000000000000000000000100101100 ".
b10100 "/
b00000000000000000000000100000000 N
b00000000000000000000000000001010 "0
b00010 O
1P
b00000000000000000000000000011000 Q
1"3
b00000000000000000000000000000000 U
b00000000000000000000000000010100 V
b00000000000000000000000000010000 "8
0"9
b00000010100000000000001000010011 "<
b00000000000000000000000000000010 ">
b00001 ]
b00000000000000000000000000011000 "?
1^
b00000000000000000000000000001010 #!
b0001001011 _
b00000000000000000000000000000000 "C
b00000000000000000000000000010100 b
b10100 "D
b00000001111000000000000110010011 "E
1d
b00000000000000000000000000010100 #'
1"G
b00001 "H
b10101 g
b01000000 h
b00000001111000000000000110010011 j
b00000010100000000000001000010011 k
b11110 "M
b00000000000000000000000100101100 n
b00000000000000000000000100101100 r
b10100 "T
b10101 s
b0000000101 "U
b00000000000000000000000000011000 u
b0000000101 "W
b00000000000000000000000000011100 #8
1v
b11110 "X
b00000000000000000000000000011000 #9
b00000001111000000000000110010011 w
b00000000000000000000000000010100 #:
b00000000000000000000000000010100 #;
b00000000000000000000000000001010 "[
b00000000000000000000000000001010 z
b0001001011 "\
b00000000000000000000000000000110 {
b00001 "]
b00010 }
b00000000000000000000000000010100 ~
b00000000000000000000000000010000 #A
b00000000000000000000000000010100 "a
#66
0d
0"G
0K
0-
0.
0P
0"3
0#X
0v
0#Y
0:
0^
#71
b11110 "
b00100 #
b00010 %
b00000000000000000000000000011110 +
b00100 ,
1-
1.
b000000100100 1
b00000000000000000000000100000000 2
b000000000000000101000 4
b0000000100100 5
b00000000000000000000000000010100 6
1:
b01000 ;
b0000000101 <
b0000000010 >
b00000000000000000000000000000000 ?
b00000000000000000000000000000000 "!
b00100 B
b00000000000000000000000000101000 "%
b00000000000000000000000000000000 D
b00000011001000000000001010010011 E
b00000000000000000000000000011110 F
b01000 "(
b00000000000000000000000100000000 "+
b00000000000000000000000100000000 ",
1K
b00000000000000000000000000001010 ".
b11110 "/
b00000000000000000000000000000000 N
b00000000000000000000000000010100 "0
b00011 O
1P
b00000000000000000000000000011100 Q
1"3
b00000000000000000000000100000000 "4
b00000000000000000000000000011000 V
b00000000000000000000000000010100 "8
b00000011001000000000001010010011 "<
b00000000000000000000000000000101 ">
b00010 ]
b00000000000000000000000000011100 "?
1^
b00000000000000000000000000010100 #!
b0000000010 _
b00000000000000000000000000011110 b
b11110 "D
b00000010100000000000001000010011 "E
1d
b00000000000000000000000000011110 #'
b00000000000000000000000100000000 e
1"G
b00010 "H
b00001 g
b00000001 h
b00000010100000000000001000010011 j
b00000011001000000000001010010011 k
b01000 "M
b00000000000000000000000000001010 n
b00000000000000000000000000001010 r
b11110 "T
b00001 s
b0000000110 "U
b0000001 "V
b00000000000000000000000000011100 u
b0000000110 "W
b00000000000000000000000000100000 #8
1v
b01000 "X
b00000000000000000000000000011100 #9
b00000010100000000000001000010011 w
b00000000000000000000000000011110 #:
b00000000000000000000000000011000 #;
b00000000000000000000000000010100 "[
b00000000000000000000000000010100 z
b0000000010 "\
b00000000000000000000000000000111 {
b00010 "]
b00011 }
b00000000000000000000000000011110 ~
b00000000000000000000000000010100 #A
b00000000000000000000000000011110 "a
b00000000000000000000000000010100 #D
b00100 #E
b00000000000000000000000000001010 #F
b00001 #G
b00000000000000000000000100101100 "g
b00000000000000000000000000101000 #J
b00 #K
b00000000000000000000000000011110 #N
b00000101000 #P
b00001 #Q
b00000000000000000000000000011100 "p
b00011 "s
b00000011001000000000001010010011 #U
b00000000000000000000000000011000 #W
1#X
1#Y
#76
0d
0"G
0K
0-
0.
0P
0"3
0#X
0v
0#Y
0:
0^
#81
b00000000000000000000000000011110 #D
b00101 #E
b00000000000000000000000000010100 #F
b00010 #G
b00000000000000000000000000110010 #J
b01 #K
b00000000000000000000000000101000 #N
b00000110010 #P
b00010 #Q
b00000000000000000000000000100000 "p
b00100 "s
b00000011110000000000001100010011 #U
b00000000000000000000000000011100 #W
1#X
1#Y
b01000 "
b00101 #
b00011 %
b00000000000000000000000000101000 +
1-
1.
b000000100101 1
b00000000000000000000000000000000 2
b000000000000000110010 4
b0100000100100 5
b00000000000000000000000000011000 6
1:
b10010 ;
b0000000111 <
b0000000101 >
b00101 B
b00000000000000000000000000110010 "%
b00000011110000000000001100010011 E
b00000000000000000000000000101000 F
b10010 "(
b00000000000000000000000000000000 "+
b00000000000000000000000000000000 ",
1K
b00000000000000000000000000010100 ".
b01000 "/
b00000000000000000000000000011110 "0
b00100 O
1P
b00000000000000000000000000100000 Q
1"3
b00000000000000000000000000000000 "4
b00000000000000000000000000011100 V
b00000000000000000000000000011000 "8
b00000011110000000000001100010011 "<
b00000000000000000000000000000111 ">
b00011 ]
b00000000000000000000000000100000 "?
1^
b00000000000000000000000000011110 #!
b0000000101 _
b00000000000000000000000000101000 b
b01000 "D
b00000011001000000000001010010011 "E
1d
b00000000000000000000000000101000 #'
b00000000000000000000000000000000 e
1"G
b00011 "H
b00010 g
b00000000000000000000000000001010 #*
b01000001 h
b00000011001000000000001010010011 j
b00000011110000000000001100010011 k
b10010 "M
b00000000000000000000000100000000 m
b00000000000000000000000000010100 n
b00000000000000000000000000010100 r
b01000 "T
b00010 s
b0000000111 "U
b00000000000000000000000000100000 u
b0000000111 "W
b00000000000000000000000000100100 #8
1v
b10010 "X
b00000000000000000000000000100000 #9
b00000011001000000000001010010011 w
b00000000000000000000000000101000 #:
b00000000000000000000000000011100 #;
b00000000000000000000000000011110 "[
b00000000000000000000000000011110 z
b0000000101 "\
b00000000000000000000000000001000 {
b00011 "]
b00100 }
b00000000000000000000000000101000 ~
b00000000000000000000000000011000 #A
b00000000000000000000000000101000 "a
#86
0d
0"G
0K
0-
0.
0P
0"3
0#X
0v
0#Y
0:
0^
