pa2/pa2/test_run_dir/Core_should_match_golden_memory/Core.vcd
$date
2025-12-06T09:50+0000
$end
$version
0.2
$end
$comment

$end
$timescale 1ns  $end
$scope module Core $end
 $var wire 1 * load_use_hazard $end
 $var wire 1 A inst_mem $end
 $var wire 1 I rs1_conflict $end
 $var wire 1 J alu $end
 $var wire 1 K clock $end
 $var wire 32 M forwarded_src1 $end
 $var wire 32 N forwarded_src2 $end
 $var wire 1 R io_peek_write $end
 $var wire 32 e io_peek_data $end
 $var wire 1 p reset $end
 $var wire 1 t ex_mem $end
 $var wire 1 "* reg_file $end
 $var wire 32 "/ io_wb_result $end
 $var wire 32 "= io_inst $end
 $var wire 1 "L data_mem $end
 $var wire 1 "T forwarding_unit $end
 $var wire 32 "a if_id_io_in_pc_REG $end
 $var wire 32 "s io_pc $end
 $var wire 1 #" if_id $end
 $var wire 32 #$ io_peek_addr $end
 $var wire 1 #4 mem_wb $end
 $var wire 1 #M rs2_conflict $end
 $var wire 1 #T pc_handle $end
 $var wire 1 #X id_ex $end
 $var wire 1 #[ decoder $end
  $scope module id_ex $end
   $var wire 5 " io_out_rs2_addr $end
   $var wire 1 0 io_in_ctrl_ctrlMemToReg $end
   $var wire 5 9 rs1_addr_id $end
   $var wire 32 ? rs2_data_id $end
   $var wire 5 @ io_out_rs1_addr $end
   $var wire 5 B io_in_rd_addr $end
   $var wire 32 F io_out_imm $end
   $var wire 32 U io_in_rs2_data $end
   $var wire 1 X io_stall $end
   $var wire 1 Y io_out_ctrl_ctrlMemWrite $end
   $var wire 1 Z io_flush $end
   $var wire 1 ^ clock $end
   $var wire 1 a io_in_ctrl_ctrlRegWrite $end
   $var wire 1 f io_out_ctrl_ctrlRegWrite $end
   $var wire 1 i ctrl_id_ctrlMemWrite $end
   $var wire 32 l io_in_rs1_data $end
   $var wire 5 } io_out_rd_addr $end
   $var wire 32 "! io_out_rs2_data $end
   $var wire 5 "& io_in_ctrl_ctrlALUOp $end
   $var wire 32 "7 rs1_data_id $end
   $var wire 32 "9 pc_id $end
   $var wire 1 "A io_in_ctrl_ctrlMemWrite $end
   $var wire 32 "K io_out_rs1_data $end
   $var wire 1 "P ctrl_id_ctrlRegWrite $end
   $var wire 5 "S io_out_ctrl_ctrlALUOp $end
   $var wire 5 "U rs2_addr_id $end
   $var wire 5 "Z io_in_rs2_addr $end
   $var wire 1 "i io_out_ctrl_ctrlMemToReg $end
   $var wire 1 "k io_out_ctrl_ctrlALUSrc $end
   $var wire 1 "o io_in_ctrl_ctrlMemRead $end
   $var wire 1 "u reset $end
   $var wire 5 "v rd_addr_id $end
   $var wire 1 #8 ctrl_id_ctrlMemRead $end
   $var wire 1 #; io_out_ctrl_ctrlMemRead $end
   $var wire 32 #? io_in_pc $end
   $var wire 32 #F io_out_pc $end
   $var wire 1 #N ctrl_id_ctrlALUSrc $end
   $var wire 32 #O io_in_imm $end
   $var wire 1 #Q io_in_ctrl_ctrlALUSrc $end
   $var wire 5 #R io_in_rs1_addr $end
   $var wire 32 #S imm_id $end
   $var wire 5 #Y ctrl_id_ctrlALUOp $end
   $var wire 1 #_ ctrl_id_ctrlMemToReg $end
  $upscope $end
  $scope module pc_handle $end
   $var wire 1 = io_to_branch $end
   $var wire 1 P clock $end
   $var wire 32 Q io_pc $end
   $var wire 1 W io_stall $end
   $var wire 32 y io_jump_addr $end
   $var wire 32 "@ pc $end
   $var wire 32 #< next_pc $end
   $var wire 1 #W reset $end
  $upscope $end
  $scope module mem_wb $end
   $var wire 1 3 ctrl_mem_ctrlMemToReg $end
   $var wire 1 8 io_out_ctrl_ctrlRegWrite $end
   $var wire 1 G io_stall $end
   $var wire 1 \ io_flush $end
   $var wire 1 c io_out_ctrl_ctrlMemToReg $end
   $var wire 5 g rd_addr_mem $end
   $var wire 32 n alu_result_mem $end
   $var wire 32 r io_out_alu_result $end
   $var wire 32 z io_in_alu_result $end
   $var wire 1 "$ reset $end
   $var wire 1 ". io_in_ctrl_ctrlMemToReg $end
   $var wire 1 "H clock $end
   $var wire 1 "Q ctrl_mem_ctrlRegWrite $end
   $var wire 5 "_ io_in_rd_addr $end
   $var wire 1 #C io_in_ctrl_ctrlRegWrite $end
   $var wire 5 #V io_out_rd_addr $end
  $upscope $end
  $scope module data_mem $end
   $var wire 1 & io_ctrlMemRead $end
   $var wire 1 T io_peek_write $end
   $var wire 32 | io_data_out $end
   $var wire 32 "+ io_data_in $end
   $var wire 32 "1 io_addr $end
   $var wire 32 "? index $end
   $var wire 10 "^ mem_io_data_out_MPORT_addr_pipe_0 $end
   $var wire 1 "` io_ctrlMemWrite $end
   $var wire 1 #! peek_write $end
   $var wire 32 #A mem $end
   $var wire 1 #] clock $end
   $var wire 1 #a mem_io_data_out_MPORT_en_pipe_0 $end
    $scope module mem $end
     $var wire 32 ( MPORT $end
      $scope module MPORT $end
       $var wire 1 - clk $end
       $var wire 10 < addr $end
       $var wire 10 _ pipeline_addr_0 $end
       $var wire 32 m pipeline_data_0 $end
       $var wire 1 ") mask $end
       $var wire 1 "3 en $end
       $var wire 32 "5 data $end
       $var wire 1 "O valid $end
       $var wire 1 #` pipeline_valid_0 $end
      $upscope $end
      $scope module io_data_out_MPORT $end
       $var wire 1 . clk $end
       $var wire 10 > addr $end
       $var wire 32 "J data $end
       $var wire 1 #B en $end
      $upscope $end
    $upscope $end
  $upscope $end
  $scope module ex_mem $end
   $var wire 5 % io_out_rd_addr $end
   $var wire 32 2 rs2_data_ex $end
   $var wire 1 7 ctrl_ex_ctrlMemWrite $end
   $var wire 1 C io_in_ctrl_ctrlMemToReg $end
   $var wire 32 D io_in_rs2_data $end
   $var wire 1 L ctrl_ex_ctrlMemRead $end
   $var wire 5 O io_in_rd_addr $end
   $var wire 1 ` io_in_ctrl_ctrlRegWrite $end
   $var wire 1 o ctrl_ex_ctrlRegWrite $end
   $var wire 1 "# io_out_ctrl_ctrlMemWrite $end
   $var wire 32 "- io_out_rs2_data $end
   $var wire 1 "4 clock $end
   $var wire 1 "6 ctrl_ex_ctrlMemToReg $end
   $var wire 1 "8 reset $end
   $var wire 1 "B io_in_ctrl_ctrlMemWrite $end
   $var wire 1 "C io_stall $end
   $var wire 5 "I rd_addr_ex $end
   $var wire 1 "R io_in_ctrl_ctrlMemRead $end
   $var wire 1 "[ io_out_ctrl_ctrlRegWrite $end
   $var wire 32 "] io_out_alu_result $end
   $var wire 32 "d io_in_alu_result $end
   $var wire 1 #3 io_out_ctrl_ctrlMemRead $end
   $var wire 1 #D io_flush $end
   $var wire 32 #I alu_result_ex $end
   $var wire 1 #b io_out_ctrl_ctrlMemToReg $end
  $upscope $end
  $scope module inst_mem $end
   $var wire 1 : clock $end
   $var wire 32 [ mem $end
   $var wire 32 k io_inst $end
   $var wire 32 { index $end
   $var wire 10 "Y mem_io_inst_MPORT_addr_pipe_0 $end
   $var wire 1 #: mem_io_inst_MPORT_en_pipe_0 $end
   $var wire 32 #= io_addr $end
    $scope module mem $end
      $scope module io_inst_MPORT $end
       $var wire 32 E data $end
       $var wire 1 v clk $end
       $var wire 10 "V addr $end
       $var wire 1 #0 en $end
      $upscope $end
    $upscope $end
  $upscope $end
  $scope module if_id $end
   $var wire 32 V io_out_pc $end
   $var wire 32 j io_out_inst $end
   $var wire 32 u io_in_pc $end
   $var wire 1 "> io_flush $end
   $var wire 32 "F inst_if $end
   $var wire 1 "G reset $end
   $var wire 1 #G io_stall $end
   $var wire 32 #Z io_in_inst $end
   $var wire 32 #\ pc_if $end
   $var wire 1 #^ clock $end
  $upscope $end
  $scope module alu $end
   $var wire 32 + io_imm $end
   $var wire 32 6 io_pc $end
   $var wire 32 b src2_s $end
   $var wire 32 ~ io_alu_result $end
   $var wire 5 "' io_aluOp $end
   $var wire 1 ", io_to_branch $end
   $var wire 5 "E shamt $end
   $var wire 1 "W to_branch $end
   $var wire 32 #% io_jump_addr $end
   $var wire 32 #+ io_src2 $end
   $var wire 32 #- io_src1 $end
   $var wire 32 #> alu_result $end
   $var wire 32 #@ src1_s $end
   $var wire 32 #E jump_addr $end
  $upscope $end
  $scope module decoder $end
   $var wire 9 ! immJ_hi_hi $end
   $var wire 5 # rd $end
   $var wire 7 ' opcode $end
   $var wire 5 , immB_lo $end
   $var wire 1 / io_ctrl_ctrlMemRead $end
   $var wire 12 1 immS $end
   $var wire 21 4 immJ $end
   $var wire 13 5 immB $end
   $var wire 1 H io_ctrl_ctrlRegWrite $end
   $var wire 8 h immB_hi $end
   $var wire 32 w io_inst $end
   $var wire 1 x io_ctrl_ctrlMemToReg $end
   $var wire 1 "" io_ctrl_ctrlALUSrc $end
   $var wire 32 "% io_imm $end
   $var wire 5 "( io_regs_rs2_addr $end
   $var wire 5 "M rs1 $end
   $var wire 5 "N rs2 $end
   $var wire 7 "X funct7 $end
   $var wire 3 "\ funct3 $end
   $var wire 5 "b io_ctrl_ctrlALUOp $end
   $var wire 10 "c immJ_hi $end
   $var wire 5 "e io_regs_rs1_addr $end
   $var wire 1 #H io_ctrl_ctrlMemWrite $end
   $var wire 5 #J io_regs_rd_addr $end
   $var wire 2 #P immB_hi_hi $end
   $var wire 11 #U immJ_lo $end
  $upscope $end
  $scope module forwarding_unit $end
   $var wire 5 $ io_rs1_ex $end
   $var wire 1 S io_reg_write_mem $end
   $var wire 5 ] io_rd_mem $end
   $var wire 5 "0 io_rs2_ex $end
   $var wire 1 "< io_reg_write_wb $end
   $var wire 2 #7 io_forward_b $end
   $var wire 2 #9 io_forward_a $end
   $var wire 5 #L io_rd_wb $end
  $upscope $end
  $scope module reg_file $end
   $var wire 5 ) io_rs1_addr $end
   $var wire 5 ; io_rs2_addr $end
   $var wire 1 d clock $end
   $var wire 1 q io_reg_write $end
   $var wire 5 s io_rd_addr $end
   $var wire 32 "2 io_rs1_data $end
   $var wire 1 ": bypass_rs2 $end
   $var wire 1 "; bypass_rs1 $end
   $var wire 32 "D io_rs2_data $end
   $var wire 32 "f regs_19 $end
   $var wire 32 "g regs_18 $end
   $var wire 32 "h regs_22 $end
   $var wire 32 "j regs_21 $end
   $var wire 32 "l regs_24 $end
   $var wire 32 "m regs_23 $end
   $var wire 32 "n regs_26 $end
   $var wire 32 "p regs_25 $end
   $var wire 32 "q regs_28 $end
   $var wire 32 "r regs_27 $end
   $var wire 32 "t regs_20 $end
   $var wire 32 "w regs_11 $end
   $var wire 32 "x regs_10 $end
   $var wire 32 "y regs_13 $end
   $var wire 32 "z regs_12 $end
   $var wire 32 "{ regs_15 $end
   $var wire 32 "| regs_14 $end
   $var wire 32 "} regs_17 $end
   $var wire 32 "~ regs_16 $end
   $var wire 32 ## regs_9 $end
   $var wire 32 #& regs_0 $end
   $var wire 32 #' regs_5 $end
   $var wire 32 #( regs_29 $end
   $var wire 32 #) regs_6 $end
   $var wire 32 #* regs_7 $end
   $var wire 32 #, regs_8 $end
   $var wire 32 #. regs_1 $end
   $var wire 32 #/ regs_2 $end
   $var wire 32 #1 regs_3 $end
   $var wire 32 #2 regs_4 $end
   $var wire 32 #5 regs_31 $end
   $var wire 32 #6 regs_30 $end
   $var wire 32 #K io_rd_data $end
  $upscope $end
$upscope $end
$enddefinitions $end
$dumpvars
00
b00000000000000000000000000000000 +
03
b000000000000 1
07
b00000000 h
b00000000000000000000000000000000 (
08
0:
0=
0A
0C
b00000000000000000000000000000000 6
0G
0H
0I
b00000000000000000000000000000000 2
0J
0K
0L
0P
0R
0S
0T
0W
0X
0Y
0Z
0\
0^
0`
0a
0c
0d
0f
1")
0i
0o
0p
0q
0t
0v
0x
b0000000000000 5
b0000000 "X
0""
0"#
0"$
0"*
0",
0".
b00 #P
b00000 "I
b00 #9
0"3
0"4
0"6
b00000 "M
0"8
b00 #7
b00000 "N
0":
0";
0"<
0">
b00000 "E
0#!
0"A
0#"
0"B
0"C
0"G
0"H
b00000 "0
0"L
0"O
0#0
0"P
0"Q
0"R
0#3
0#4
b00000 "(
0"T
0"W
0#8
0#:
0#;
0"[
0"`
b00000 "'
0#B
b00000 "&
0#C
0#D
0#G
0#H
0"i
0"k
0#M
0#N
0"o
0#Q
b00000000000000000000000000000000 "n
b00000000000000000000000000000000 #O
0#T
b00000000000000000000000000000000 "m
b00000000000000000000000000000000 "l
0"u
b00000000000000000000000000000000 "s
0#W
b00000000000000000000000000000000 "r
b00000000000000000000000000000000 #S
0#X
b00000000000000000000000000000000 "q
b00000000000000000000000000000000 "p
b00000000000000000000000000000000 "g
0#[
b00000000000000000000000000000000 "f
b00000000000000000000000000000000 #F
0#]
b00000000000000000000000000000000 "d
b00000000000000000000000000000000 #E
0#^
0#_
b00000000000000000000000000000000 "j
b00000000000000000000000000000000 #K
0#`
0#a
b00000000000000000000000000000000 "h
b00000000000000000000000000000000 #I
0#b
b00000000000000000000000000000000 "~
b00000 #Y
b00000000000000000000000000000000 "}
b00000000000000000000000000000000 "|
b00000000000000000000000000000000 "w
b00000 #R
b00000000000000000000000000000000 "t
b00000000000000000000000000000000 "{
b00000000000000000000000000000000 #\
b00000 #V
b00000000000000000000000000000000 "z
b00000000000000000000000000000000 "y
b00000000000000000000000000000000 #Z
b00000000000000000000000000000000 "x
b00000 "v
b00000 #J
b00000 #L
b00000 "b
b0000000 '
b00000 "e
b00000 "Z
b00000 "_
b00000 "S
b00000 "U
b00000000000000000000000000000000 "/
b00000000000000000000000000000000 "-
b00000000000000000000000000000000 "2
b00000000000000000000000000000000 "1
b00000000000000000000000000000000 "%
b00000000000000000000000000000000 "+
b000000000 !
b00000000000000000000000000000000 "?
b00000000000000000000000000000000 "=
b00000000000000000000000000000000 #$
b00000000000000000000000000000000 ##
b00000000000000000000000000000000 "@
b00000000000000000000000000000000 "7
b00000000000000000000000000000000 "5
b00000000000000000000000000000000 "9
b00000000000000000000000000000000 #/
b00000000000000000000000000000000 #.
b00000000000000000000000000000000 #-
b00000000000000000000000000000000 #2
b00000000000000000000000000000000 #1
b00000000000000000000000000000000 #(
b00000000000000000000000000000000 "F
b00000000000000000000000000000000 #'
b00000000000000000000000000000000 #&
b00000000000000000000000000000000 "D
b00000000000000000000000000000000 #%
b00000000000000000000000000000000 "K
b00000000000000000000000000000000 #,
b00000000000000000000000000000000 "J
b00000000000000000000000000000000 #+
b00000000000000000000000000000000 #*
b00000000000000000000000000000000 #)
b00000000000000000000000000000000 #@
b00000000000000000000000000000000 #?
b00000000000000000000000000000000 "]
b00000000000000000000000000000000 #>
b00000000000000000000000000000000 #=
b0000000000 "^
b00000000000000000000000000000000 "a
b0000000000 "c
b00000000000000000000000000000000 #A
b000000000000000000000 4
b00000000000000000000000000000000 #6
b00000000000000000000000000000000 #5
b0000000000 "V
b00000000000000000000000000000000 #<
b0000000000 "Y
b0000000000 _
b00000000000000000000000000000000 "!
b0000000000 >
b0000000000 <
b000 "\
b00000 #
b00000 "
b00000 %
b00000 $
b00000000000 #U
b00000 )
b00000 ,
b00000 9
b00000 ;
b00000000000000000000000000000000 ~
b00000 @
b00000 B
b00000 O
b00000000000000000000000000000000 k
b00000000000000000000000000000000 j
b00000000000000000000000000000000 m
b00000000000000000000000000000000 l
b00000000000000000000000000000000 b
b00000 ]
b00000000000000000000000000000000 e
b00000000000000000000000000000000 {
b00000000000000000000000000000000 z
b00000000000000000000000000000000 |
b00000 g
b00000000000000000000000000000000 w
b00000000000000000000000000000000 y
b00000000000000000000000000000000 r
b00000000000000000000000000000000 u
b00000000000000000000000000000000 n
b00000 s
b00000000000000000000000000000000 M
b00000000000000000000000000000000 F
b00000 }
b00000000000000000000000000000000 E
b00000000000000000000000000000000 D
b00000000000000000000000000000000 ?
b00010000000000000000101000010011 [
b00000000000000000000000000000000 V
0&
0*
b00000000000000000000000000000000 U
0-
b00000000000000000000000000000000 N
0.
b00000000000000000000000000000000 Q
0/
$end
#0
1p
1"$
1"u
1#W
b00010000000000000000101000010011 E
1"G
1"8
b00010000000000000000101000010011 #Z
b00000000000000000000000000000100 #<
b00010000000000000000101000010011 k
b00010000000000000000101000010011 "=
#1
1d
1"H
1K
1-
1#0
1.
1P
1"4
1v
1#:
1:
1#]
1#^
1^
1#a
1#B
#6
0"$
0d
0"G
0"H
0K
0-
0.
0P
0p
0"4
0"u
0#W
0v
0"8
0:
0#]
0#^
0^
#11
1""
b00001 "b
b10100 B
b00000000000000000000000100000000 "%
b00001 "&
b10100 #J
1H
1K
b00000000000000000000000100000000 #O
1#Q
1P
b00000000000000000000000000000100 Q
b00000000000000000000000000000100 "s
1"4
b00100000000 #U
1#]
1#^
1^
b00000000000000000000000000000100 "@
1a
b10100 #
1d
b00010000000000000000101000010011 "F
1"H
b0010011 '
b00001000 h
b00010000000000000000101000010011 j
b10100 ,
1-
1.
b000100010100 1
b000000000000100000000 4
b0000100010100 5
1v
b0001000 "X
b00010000000000000000101000010011 w
b00000000000000000000000000001000 #<
1:
b00000000000000000000000000000100 #=
b00000000000000000000000000000001 {
#16
0d
0"H
0K
0-
0.
0P
0"4
0v
0:
0#]
0#^
0^
#21
b00000000000000000000000100000000 "d
b00010010110000000000101010010011 E
b00001 "'
b00000000000000000000000100000000 F
1"k
1K
1#N
b10100 O
1P
b00000000000000000000000100000000 #S
b00000000000000000000000000001000 Q
b00000000000000000000000000001000 "s
1"4
b10100 "v
b00001 #Y
b00010010110000000000101010010011 #Z
1#]
b00010010110000000000101010010011 "=
1#^
1^
b00000000000000000000000000001000 "@
1`
b00000000000000000000000100000000 b
1d
1f
1"H
b00000000000000000000000100000000 #+
b00000000000000000000000100000000 +
b00010010110000000000101010010011 k
1-
1.
1"P
b00001 "S
b0000000001 "V
b00000000000000000000000000000100 u
1v
b0000000001 "Y
b00000000000000000000000000001100 #<
1:
b00000000000000000000000000001000 #=
b00000000000000000000000000000010 {
b00000000000000000000000100000000 #>
b10100 }
b00000000000000000000000100000000 ~
b00000000000000000000000000000100 "a
#26
0d
0"H
0K
0-
0.
0P
0"4
0v
0:
0#]
0#^
0^
#31
1#C
b00000000000000000000000100000000 #I
b10101 #J
b00000000000000000000000100101100 #O
b01 #P
b00000000000000000000000000001100 "s
b00100101100 #U
b00000000101000000000000010010011 #Z
b00000000000000000000000000000100 #\
1#]
1#^
b10101 #
b10100 %
1-
1.
b000100110101 1
b000000000000100101100 4
b0100100110100 5
1:
b01100 ;
b0001000000 <
b10101 B
b00000000000000000000000100101100 "%
b00000000101000000000000010010011 E
b01100 "(
1K
b00000000000000000000000100000000 "1
1P
b00000000000000000000000000001100 Q
1"4
1S
b00000000000000000000000000000100 V
b00000000101000000000000010010011 "=
b10100 ]
b00000000000000000000000001000000 "?
1^
b00000000000000000000000000001100 "@
b00000000000000000000000100000000 #$
1d
b00010010110000000000101010010011 "F
1"H
b10100 "I
b01001001 h
b00010010110000000000101010010011 j
b00000000101000000000000010010011 k
b01100 "N
1o
b0000000010 "V
b00000000000000000000000000001000 u
1v
b0001001 "X
b00010010110000000000101010010011 w
b0000000010 "Y
b01100 "Z
1"[
b00000000000000000000000000010000 #<
b00000000000000000000000100000000 z
b00000000000000000000000000001100 #=
b00000000000000000000000000000011 {
b00000000000000000000000100000000 "]
b00000000000000000000000000000100 #?
b10100 "_
b00000000000000000000000000001000 "a
#36
0d
0"H
0K
0-
0.
0P
0"4
0v
0:
0#]
0#^
0^
#41
b00000000000000000000000100101100 "d
b00000000000000000000000000000100 #F
b00001 #J
b00000000000000000000000100000000 #K
b10100 #L
b00000000000000000000000000001010 #O
b00000000000000000000000100101100 #S
b00000000000000000000000000010000 "s
b00000001010 #U
b10100 #V
b10101 "v
b00000001010000000000000100010011 #Z
b00000000000000000000000000001000 #\
1#]
1#^
b01100 "
b00001 #
b00000000000000000000000100101100 +
b00000 ,
1-
1.
b000000000001 1
b000000000000000001010 4
b0100000000000 5
b00000000000000000000000000000100 6
18
1:
b01010 ;
b0001000000 >
b00001 B
b00000000000000000000000000001010 "%
b00000001010000000000000100010011 E
b00000000000000000000000100101100 F
b01010 "(
1K
b00000000000000000000000100000000 "/
b01100 "0
b10101 O
1P
b00000000000000000000000000010000 Q
1"4
b00000000000000000000000000001000 V
b00000000000000000000000000000100 "9
1"<
b00000001010000000000000100010011 "=
1^
b00000000000000000000000000010000 "@
b0001000000 _
b00000000000000000000000100101100 b
b01100 "E
1d
b00000000101000000000000010010011 "F
1"H
b10100 g
b01000000 h
b00000000000000000000000100101100 #+
b00000000101000000000000010010011 j
b00000001010000000000000100010011 k
b01010 "N
b00000000000000000000000100000000 n
1"Q
1q
b00000000000000000000000100000000 r
b10100 s
b01100 "U
b0000000011 "V
b00000000000000000000000000001100 u
1v
b0000000 "X
b00000000101000000000000010010011 w
b0000000011 "Y
b01010 "Z
b00000000000000000000000000010100 #<
b00000000000000000000000000010000 #=
b00000000000000000000000000000100 {
b00000000000000000000000100101100 #>
b00000000000000000000000000001000 #?
b0001000000 "^
b10101 }
b00000000000000000000000100101100 ~
b00000000000000000000000000001100 "a
#46
0d
0"H
0K
0-
0.
0P
0"4
0v
0:
0#]
0#^
0^
#51
b00000000000000000000000000001010 "d
b00000000000000000000000000001000 #F
b00000000000000000000000100101100 #I
b00010 #J
b00000000000000000000000000010100 #O
b00 #P
b00000000000000000000000000001010 #S
b00000000000000000000000000010100 "s
b00000000000000000000000100000000 "t
b00000010100 #U
b00001 "v
b00000001111000000000000110010011 #Z
b00000000000000000000000000001100 #\
1#]
1#^
b01010 "
b00010 #
b10101 %
b00000000000000000000000000001010 +
b00010 ,
1-
1.
b000000000010 1
b000000000000000010100 4
b0000000000010 5
b00000000000000000000000000001000 6
1:
b10100 ;
b0001001011 <
b00010 B
b00000000000000000000000000010100 "%
b00000001111000000000000110010011 E
b00000000000000000000000000001010 F
b10100 "(
1K
b01010 "0
b00001 O
b00000000000000000000000100101100 "1
1P
b00000000000000000000000000010100 Q
1"4
b00000000000000000000000100000000 U
b00000000000000000000000000001100 V
b00000000000000000000000000001000 "9
1":
b00000001111000000000000110010011 "=
b10101 ]
b00000000000000000000000001001011 "?
1^
b00000000000000000000000000010100 "@
b00000000000000000000000100101100 #$
b00000000000000000000000000001010 b
b00000000000000000000000100000000 "D
b01010 "E
1d
b00000001010000000000000100010011 "F
1"H
b10101 "I
b00000000 h
b00000000000000000000000000001010 #+
b00000001010000000000000100010011 j
b00000001111000000000000110010011 k
b10100 "N
b01010 "U
b0000000100 "V
b00000000000000000000000000010000 u
1v
b00000001010000000000000100010011 w
b0000000100 "Y
b10100 "Z
b00000000000000000000000000011000 #<
b00000000000000000000000100101100 z
b00000000000000000000000000010100 #=
b00000000000000000000000000000101 {
b00000000000000000000000100101100 "]
b00000000000000000000000000001010 #>
b00000000000000000000000000001100 #?
b00001 }
b10101 "_
b00000000000000000000000000001010 ~
b00000000000000000000000000010000 "a
#56
0d
0"H
0K
0-
0.
0P
0"4
0v
0:
0#]
0#^
0^
#61
b00000000000000000000000000010100 "d
b00000000000000000000000000001100 #F
b00000000000000000000000000001010 #I
b00011 #J
b00000000000000000000000100101100 #K
b10101 #L
b00000000000000000000000000011110 #O
b01 #P
b00000000000000000000000000010100 #S
b00000000000000000000000000011000 "s
b00000011110 #U
b10101 #V
b00010 "v
b00000010100000000000001000010011 #Z
b00000000000000000000000000010000 #\
1#]
1#^
b10100 "
b00011 #
b00001 %
b00000000000000000000000000010100 +
1-
1.
b000000000011 1
b000000000000000011110 4
b0100000000010 5
b00000000000000000000000000001100 6
1:
b11110 ;
b0000000010 <
b0001001011 >
b00000000000000000000000100000000 ?
b00000000000000000000000100000000 "!
b00011 B
b00000000000000000000000000011110 "%
b00000000000000000000000100000000 D
b00000010100000000000001000010011 E
b00000000000000000000000000010100 F
b11110 "(
1K
b00000000000000000000000100101100 "/
b00000000000000000000000100000000 N
b10100 "0
b00010 O
b00000000000000000000000000001010 "1
1P
b00000000000000000000000000011000 Q
1"4
b00000000000000000000000000000000 U
b00000000000000000000000000010000 V
b00000000000000000000000000001100 "9
0":
b00000010100000000000001000010011 "=
b00001 ]
b00000000000000000000000000000010 "?
1^
b00000000000000000000000000011000 "@
b0001001011 _
b00000000000000000000000000001010 #$
b00000000000000000000000000010100 b
b00000000000000000000000000000000 "D
b10100 "E
1d
b00000001111000000000000110010011 "F
1"H
b10101 g
b00001 "I
b01000000 h
b00000000000000000000000000010100 #+
b00000001111000000000000110010011 j
b00000010100000000000001000010011 k
b11110 "N
b00000000000000000000000100101100 n
b00000000000000000000000100101100 r
b10101 s
b10100 "U
b0000000101 "V
b00000000000000000000000000010100 u
1v
b00000001111000000000000110010011 w
b0000000101 "Y
b11110 "Z
b00000000000000000000000000011100 #<
b00000000000000000000000000001010 z
b00000000000000000000000000011000 #=
b00000000000000000000000000000110 {
b00000000000000000000000000001010 "]
b00000000000000000000000000010100 #>
b00000000000000000000000000010000 #?
b0001001011 "^
b00010 }
b00001 "_
b00000000000000000000000000010100 ~
b00000000000000000000000000010100 "a
#66
0d
0"H
0K
0-
0.
0P
0"4
0v
0:
0#]
0#^
0^
#71
b11110 "
b00100 #
b00010 %
b00000000000000000000000000011110 +
b00100 ,
1-
1.
b000000100100 1
b00000000000000000000000100000000 2
b000000000000000101000 4
b0000000100100 5
b00000000000000000000000000010000 6
1:
b01000 ;
b0000000101 <
b0000000010 >
b00000000000000000000000000000000 ?
b00000000000000000000000000000000 "!
b00100 B
b00000000000000000000000000101000 "%
b00000000000000000000000000000000 D
b00000011001000000000001010010011 E
b00000000000000000000000000011110 F
b01000 "(
b00000000000000000000000100000000 "+
1K
b00000000000000000000000100000000 "-
b00000000000000000000000000001010 "/
b00000000000000000000000000000000 N
b11110 "0
b00011 O
b00000000000000000000000000010100 "1
1P
b00000000000000000000000000011100 Q
1"4
b00000000000000000000000100000000 "5
b00000000000000000000000000010100 V
b00000000000000000000000000010000 "9
b00000011001000000000001010010011 "=
b00010 ]
b00000000000000000000000000000101 "?
1^
b00000000000000000000000000011100 "@
b0000000010 _
b00000000000000000000000000010100 #$
b00000000000000000000000000011110 b
b11110 "E
1d
b00000010100000000000001000010011 "F
b00000000000000000000000100000000 e
1"H
b00001 g
b00010 "I
b00000001 h
b00000000000000000000000000011110 #+
b00000010100000000000001000010011 j
b00000011001000000000001010010011 k
b01000 "N
b00000000000000000000000000001010 n
b00000000000000000000000000001010 r
b00001 s
b11110 "U
b0000000110 "V
b00000000000000000000000000011000 u
1v
b0000001 "X
b00000010100000000000001000010011 w
b0000000110 "Y
b01000 "Z
b00000000000000000000000000100000 #<
b00000000000000000000000000010100 z
b00000000000000000000000000011100 #=
b00000000000000000000000000000111 {
b00000000000000000000000000010100 "]
b00000000000000000000000000011110 #>
b00000000000000000000000000010100 #?
b0000000010 "^
b00011 }
b00010 "_
b00000000000000000000000000011110 ~
b00000000000000000000000000011000 "a
b00000000000000000000000000011110 "d
b00000000000000000000000000010000 #F
b00000000000000000000000000010100 #I
b00100 #J
b00000000000000000000000000001010 #K
b00000000000000000000000100101100 "j
b00001 #L
b00000000000000000000000000101000 #O
b00 #P
b00000000000000000000000000011110 #S
b00000000000000000000000000011100 "s
b00000101000 #U
b00001 #V
b00011 "v
b00000011001000000000001010010011 #Z
b00000000000000000000000000010100 #\
1#]
1#^
#76
0d
0"H
0K
0-
0.
0P
0"4
0v
0:
0#]
0#^
0^
#81
b00000000000000000000000000101000 "d
b00000000000000000000000000010100 #F
b00000000000000000000000000011110 #I
b00101 #J
b00000000000000000000000000010100 #K
b00010 #L
b00000000000000000000000000110010 #O
b01 #P
b00000000000000000000000000101000 #S
b00000000000000000000000000100000 "s
b00000110010 #U
b00010 #V
b00100 "v
b00000011110000000000001100010011 #Z
b00000000000000000000000000011000 #\
1#]
1#^
b01000 "
b00101 #
b00011 %
b00000000000000000000000000101000 +
1-
1.
b000000100101 1
b00000000000000000000000000000000 2
b000000000000000110010 4
b0100000100100 5
b00000000000000000000000000010100 6
1:
b10010 ;
b0000000111 <
b0000000101 >
b00101 B
b00000000000000000000000000110010 "%
b00000011110000000000001100010011 E
b00000000000000000000000000101000 F
b10010 "(
b00000000000000000000000000000000 "+
1K
b00000000000000000000000000000000 "-
b00000000000000000000000000010100 "/
b01000 "0
b00100 O
b00000000000000000000000000011110 "1
1P
b00000000000000000000000000100000 Q
1"4
b00000000000000000000000000000000 "5
b00000000000000000000000000011000 V
b00000000000000000000000000010100 "9
b00000011110000000000001100010011 "=
b00011 ]
b00000000000000000000000000000111 "?
1^
b00000000000000000000000000100000 "@
b0000000101 _
b00000000000000000000000000011110 #$
b00000000000000000000000000101000 b
b01000 "E
1d
b00000011001000000000001010010011 "F
b00000000000000000000000000000000 e
1"H
b00010 g
b00011 "I
b01000001 h
b00000000000000000000000000101000 #+
b00000011001000000000001010010011 j
b00000011110000000000001100010011 k
b00000000000000000000000000001010 #.
b10010 "N
b00000000000000000000000100000000 m
b00000000000000000000000000010100 n
b00000000000000000000000000010100 r
b00010 s
b01000 "U
b0000000111 "V
b00000000000000000000000000011100 u
1v
b00000011001000000000001010010011 w
b0000000111 "Y
b10010 "Z
b00000000000000000000000000100100 #<
b00000000000000000000000000011110 z
b00000000000000000000000000100000 #=
b00000000000000000000000000001000 {
b00000000000000000000000000011110 "]
b00000000000000000000000000101000 #>
b00000000000000000000000000011000 #?
b0000000101 "^
b00100 }
b00011 "_
b00000000000000000000000000101000 ~
b00000000000000000000000000011100 "a
#86
0d
0"H
0K
0-
0.
0P
0"4
0v
0:
0#]
0#^
0^
