pa2/pa2/test_run_dir/Core_should_match_golden_memory/Core.vcd
$date
2025-12-06T07:37+0000
$end
$version
0.2
$end
$comment

$end
$timescale 1ns  $end
$scope module Core $end
 $var wire 1 , load_use_hazard $end
 $var wire 1 D inst_mem $end
 $var wire 1 N rs1_conflict $end
 $var wire 1 O alu $end
 $var wire 1 P clock $end
 $var wire 32 R forwarded_src1 $end
 $var wire 32 S forwarded_src2 $end
 $var wire 1 W io_peek_write $end
 $var wire 32 j io_peek_data $end
 $var wire 1 u reset $end
 $var wire 1 y ex_mem $end
 $var wire 1 "/ reg_file $end
 $var wire 32 "3 io_wb_result $end
 $var wire 32 "C io_inst $end
 $var wire 1 "S data_mem $end
 $var wire 1 "[ forwarding_unit $end
 $var wire 32 "z io_pc $end
 $var wire 1 #) if_id $end
 $var wire 32 #+ io_peek_addr $end
 $var wire 1 #: mem_wb $end
 $var wire 1 #R rs2_conflict $end
 $var wire 1 #Y pc_handle $end
 $var wire 1 #] id_ex $end
 $var wire 1 #` decoder $end
  $scope module id_ex $end
   $var wire 5 " io_out_rs2_addr $end
   $var wire 1 % io_out_ctrl_ctrlBranch $end
   $var wire 1 0 io_in_ctrl_ctrlJump $end
   $var wire 1 3 io_in_ctrl_ctrlMemToReg $end
   $var wire 5 < rs1_addr_id $end
   $var wire 32 B rs2_data_id $end
   $var wire 5 C io_out_rs1_addr $end
   $var wire 5 F io_in_rd_addr $end
   $var wire 32 J io_out_imm $end
   $var wire 1 K io_out_ctrl_ctrlJump $end
   $var wire 32 Z io_in_rs2_data $end
   $var wire 1 ] io_stall $end
   $var wire 1 ^ io_out_ctrl_ctrlMemWrite $end
   $var wire 1 _ io_flush $end
   $var wire 1 c clock $end
   $var wire 1 f io_in_ctrl_ctrlRegWrite $end
   $var wire 1 k io_out_ctrl_ctrlRegWrite $end
   $var wire 1 n ctrl_id_ctrlMemWrite $end
   $var wire 32 q io_in_rs1_data $end
   $var wire 5 "$ io_out_rd_addr $end
   $var wire 32 "& io_out_rs2_data $end
   $var wire 5 "+ io_in_ctrl_ctrlALUOp $end
   $var wire 32 "= rs1_data_id $end
   $var wire 32 "? pc_id $end
   $var wire 1 "G io_in_ctrl_ctrlMemWrite $end
   $var wire 1 "L ctrl_id_ctrlBranch $end
   $var wire 32 "R io_out_rs1_data $end
   $var wire 1 "W ctrl_id_ctrlRegWrite $end
   $var wire 5 "Z io_out_ctrl_ctrlALUOp $end
   $var wire 5 "\ rs2_addr_id $end
   $var wire 1 "^ ctrl_id_ctrlJump $end
   $var wire 5 "a io_in_rs2_addr $end
   $var wire 1 "f io_in_ctrl_ctrlBranch $end
   $var wire 1 "p io_out_ctrl_ctrlMemToReg $end
   $var wire 1 "r io_out_ctrl_ctrlALUSrc $end
   $var wire 1 "v io_in_ctrl_ctrlMemRead $end
   $var wire 1 "| reset $end
   $var wire 5 "} rd_addr_id $end
   $var wire 1 #> ctrl_id_ctrlMemRead $end
   $var wire 1 #A io_out_ctrl_ctrlMemRead $end
   $var wire 32 #E io_in_pc $end
   $var wire 32 #K io_out_pc $end
   $var wire 1 #S ctrl_id_ctrlALUSrc $end
   $var wire 32 #T io_in_imm $end
   $var wire 1 #V io_in_ctrl_ctrlALUSrc $end
   $var wire 5 #W io_in_rs1_addr $end
   $var wire 32 #X imm_id $end
   $var wire 5 #^ ctrl_id_ctrlALUOp $end
   $var wire 1 #d ctrl_id_ctrlMemToReg $end
  $upscope $end
  $scope module pc_handle $end
   $var wire 1 @ io_to_branch $end
   $var wire 1 U clock $end
   $var wire 32 V io_pc $end
   $var wire 1 \ io_stall $end
   $var wire 32 ~ io_jump_addr $end
   $var wire 32 "F pc $end
   $var wire 32 #B next_pc $end
   $var wire 1 #\ reset $end
  $upscope $end
  $scope module mem_wb $end
   $var wire 1 6 ctrl_mem_ctrlMemToReg $end
   $var wire 1 ; io_out_ctrl_ctrlRegWrite $end
   $var wire 1 L io_stall $end
   $var wire 1 a io_flush $end
   $var wire 1 h io_out_ctrl_ctrlMemToReg $end
   $var wire 5 l rd_addr_mem $end
   $var wire 32 s alu_result_mem $end
   $var wire 32 w io_out_alu_result $end
   $var wire 32 "! io_in_alu_result $end
   $var wire 1 ") reset $end
   $var wire 1 "2 io_in_ctrl_ctrlMemToReg $end
   $var wire 1 "O clock $end
   $var wire 1 "X ctrl_mem_ctrlRegWrite $end
   $var wire 5 "g io_in_rd_addr $end
   $var wire 1 #I io_in_ctrl_ctrlRegWrite $end
   $var wire 5 #[ io_out_rd_addr $end
  $upscope $end
  $scope module data_mem $end
   $var wire 1 ( io_ctrlMemRead $end
   $var wire 1 Y io_peek_write $end
   $var wire 32 "# io_data_out $end
   $var wire 32 "0 io_data_in $end
   $var wire 32 "6 io_addr $end
   $var wire 32 "E index $end
   $var wire 10 "e mem_io_data_out_MPORT_addr_pipe_0 $end
   $var wire 1 "h io_ctrlMemWrite $end
   $var wire 1 #( peek_write $end
   $var wire 32 #G mem $end
   $var wire 1 #b clock $end
   $var wire 1 #g mem_io_data_out_MPORT_en_pipe_0 $end
    $scope module mem $end
     $var wire 32 * MPORT $end
      $scope module MPORT $end
       $var wire 1 / clk $end
       $var wire 10 ? addr $end
       $var wire 10 d pipeline_addr_0 $end
       $var wire 32 r pipeline_data_0 $end
       $var wire 1 ". mask $end
       $var wire 1 "8 en $end
       $var wire 32 "; data $end
       $var wire 1 "V valid $end
       $var wire 1 #f pipeline_valid_0 $end
      $upscope $end
      $scope module io_data_out_MPORT $end
       $var wire 1 1 clk $end
       $var wire 10 A addr $end
       $var wire 32 "Q data $end
       $var wire 1 #H en $end
      $upscope $end
    $upscope $end
  $upscope $end
  $scope module ex_mem $end
   $var wire 1 # io_in_ctrl_ctrlBranch $end
   $var wire 5 ' io_out_rd_addr $end
   $var wire 32 5 rs2_data_ex $end
   $var wire 1 : ctrl_ex_ctrlMemWrite $end
   $var wire 1 G io_in_ctrl_ctrlMemToReg $end
   $var wire 32 H io_in_rs2_data $end
   $var wire 1 Q ctrl_ex_ctrlMemRead $end
   $var wire 5 T io_in_rd_addr $end
   $var wire 1 e io_in_ctrl_ctrlRegWrite $end
   $var wire 1 t ctrl_ex_ctrlRegWrite $end
   $var wire 1 "( io_out_ctrl_ctrlMemWrite $end
   $var wire 32 "1 io_out_rs2_data $end
   $var wire 1 "9 is_bubble $end
   $var wire 1 ": clock $end
   $var wire 1 "< ctrl_ex_ctrlMemToReg $end
   $var wire 1 "> reset $end
   $var wire 1 "H io_in_ctrl_ctrlMemWrite $end
   $var wire 1 "I io_stall $end
   $var wire 5 "P rd_addr_ex $end
   $var wire 1 "Y io_in_ctrl_ctrlMemRead $end
   $var wire 1 "b io_out_ctrl_ctrlRegWrite $end
   $var wire 32 "d io_out_alu_result $end
   $var wire 32 "k io_in_alu_result $end
   $var wire 1 #9 io_out_ctrl_ctrlMemRead $end
   $var wire 1 #J io_flush $end
   $var wire 32 #N alu_result_ex $end
   $var wire 1 #e io_in_ctrl_ctrlJump $end
   $var wire 1 #h io_out_ctrl_ctrlMemToReg $end
  $upscope $end
  $scope module inst_mem $end
   $var wire 1 = clock $end
   $var wire 32 ` mem $end
   $var wire 32 p io_inst $end
   $var wire 32 "" index $end
   $var wire 10 "` mem_io_inst_MPORT_addr_pipe_0 $end
   $var wire 1 #@ mem_io_inst_MPORT_en_pipe_0 $end
   $var wire 32 #C io_addr $end
    $scope module mem $end
      $scope module io_inst_MPORT $end
       $var wire 32 I data $end
       $var wire 1 { clk $end
       $var wire 10 "] addr $end
       $var wire 1 #6 en $end
      $upscope $end
    $upscope $end
  $upscope $end
  $scope module if_id $end
   $var wire 32 [ io_out_pc $end
   $var wire 32 o io_out_inst $end
   $var wire 32 z io_in_pc $end
   $var wire 1 "D io_flush $end
   $var wire 32 "M inst_if $end
   $var wire 1 "N reset $end
   $var wire 1 #L io_stall $end
   $var wire 32 #_ io_in_inst $end
   $var wire 32 #a pc_if $end
   $var wire 1 #c clock $end
  $upscope $end
  $scope module alu $end
   $var wire 32 - io_imm $end
   $var wire 32 9 io_pc $end
   $var wire 32 g src2_s $end
   $var wire 32 "% io_alu_result $end
   $var wire 5 ", io_aluOp $end
   $var wire 5 "K shamt $end
   $var wire 32 #1 io_src2 $end
   $var wire 32 #3 io_src1 $end
   $var wire 32 #D alu_result $end
   $var wire 32 #F src1_s $end
  $upscope $end
  $scope module decoder $end
   $var wire 9 ! immJ_hi_hi $end
   $var wire 5 $ rd $end
   $var wire 7 ) opcode $end
   $var wire 5 . immB_lo $end
   $var wire 1 2 io_ctrl_ctrlMemRead $end
   $var wire 12 4 immS $end
   $var wire 21 7 immJ $end
   $var wire 13 8 immB $end
   $var wire 1 E io_ctrl_ctrlBranch $end
   $var wire 1 M io_ctrl_ctrlRegWrite $end
   $var wire 8 m immB_hi $end
   $var wire 32 | io_inst $end
   $var wire 1 } io_ctrl_ctrlMemToReg $end
   $var wire 1 "' io_ctrl_ctrlALUSrc $end
   $var wire 32 "* io_imm $end
   $var wire 5 "- io_regs_rs2_addr $end
   $var wire 1 "4 io_ctrl_ctrlJump $end
   $var wire 5 "T rs1 $end
   $var wire 5 "U rs2 $end
   $var wire 7 "_ funct7 $end
   $var wire 3 "c funct3 $end
   $var wire 5 "i io_ctrl_ctrlALUOp $end
   $var wire 10 "j immJ_hi $end
   $var wire 5 "l io_regs_rs1_addr $end
   $var wire 1 #M io_ctrl_ctrlMemWrite $end
   $var wire 5 #O io_regs_rd_addr $end
   $var wire 2 #U immB_hi_hi $end
   $var wire 11 #Z immJ_lo $end
  $upscope $end
  $scope module forwarding_unit $end
   $var wire 5 & io_rs1_ex $end
   $var wire 1 X io_reg_write_mem $end
   $var wire 5 b io_rd_mem $end
   $var wire 5 "5 io_rs2_ex $end
   $var wire 1 "B io_reg_write_wb $end
   $var wire 2 #= io_forward_b $end
   $var wire 2 #? io_forward_a $end
   $var wire 5 #Q io_rd_wb $end
  $upscope $end
  $scope module reg_file $end
   $var wire 5 + io_rs1_addr $end
   $var wire 5 > io_rs2_addr $end
   $var wire 1 i clock $end
   $var wire 1 v io_reg_write $end
   $var wire 5 x io_rd_addr $end
   $var wire 32 "7 io_rs1_data $end
   $var wire 1 "@ bypass_rs2 $end
   $var wire 1 "A bypass_rs1 $end
   $var wire 32 "J io_rs2_data $end
   $var wire 32 "m regs_19 $end
   $var wire 32 "n regs_18 $end
   $var wire 32 "o regs_22 $end
   $var wire 32 "q regs_21 $end
   $var wire 32 "s regs_24 $end
   $var wire 32 "t regs_23 $end
   $var wire 32 "u regs_26 $end
   $var wire 32 "w regs_25 $end
   $var wire 32 "x regs_28 $end
   $var wire 32 "y regs_27 $end
   $var wire 32 "{ regs_20 $end
   $var wire 32 "~ regs_11 $end
   $var wire 32 #! regs_10 $end
   $var wire 32 #" regs_13 $end
   $var wire 32 ## regs_12 $end
   $var wire 32 #$ regs_15 $end
   $var wire 32 #% regs_14 $end
   $var wire 32 #& regs_17 $end
   $var wire 32 #' regs_16 $end
   $var wire 32 #* regs_9 $end
   $var wire 32 #, regs_0 $end
   $var wire 32 #- regs_5 $end
   $var wire 32 #. regs_29 $end
   $var wire 32 #/ regs_6 $end
   $var wire 32 #0 regs_7 $end
   $var wire 32 #2 regs_8 $end
   $var wire 32 #4 regs_1 $end
   $var wire 32 #5 regs_2 $end
   $var wire 32 #7 regs_3 $end
   $var wire 32 #8 regs_4 $end
   $var wire 32 #; regs_31 $end
   $var wire 32 #< regs_30 $end
   $var wire 32 #P io_rd_data $end
  $upscope $end
$upscope $end
$enddefinitions $end
$dumpvars
00
01
b000000000000 4
b00000000000000000000000000000000 *
02
b00000000 m
b00000000000000000000000000000000 -
03
06
0:
0;
0=
0@
0D
0E
b00000000000000000000000000000000 9
0G
b00000000000000000000000000000000 5
0K
0L
0M
0N
0O
0P
0Q
0U
0W
0X
0Y
0\
0]
0^
0_
0a
0c
0e
0f
0h
0i
0k
1".
0n
0t
0u
0v
0y
0{
0}
b0000000000000 8
b0000000 "_
b00 #U
0"'
0"(
0")
0"/
0"2
0"4
b00000 "K
0"8
0"9
0":
0"<
0">
b00 #=
0"@
b00 #?
0"A
0"B
0"D
0"G
0#(
0"H
0#)
0"I
0"L
0"N
b00000 "5
0"O
0"S
b00000 "+
0#6
0"V
b00000 "-
0"W
b00000 ",
0"X
0#9
0"Y
0#:
0"[
0#>
0"^
0#@
b00000 "$
0#A
0"b
0"f
0#H
0"h
0#I
0#J
0#L
0#M
0"p
0#R
b00000000000000000000000000000000 "o
b00000000000000000000000000000000 #P
0"r
0#S
b00000000000000000000000000000000 "n
b00000000000000000000000000000000 "m
b00000000000000000000000000000000 #N
0#V
b00000000000000000000000000000000 "s
b00000000000000000000000000000000 #T
0"v
b00000000000000000000000000000000 "q
0#Y
b00000000000000000000000000000000 #G
0#\
b00000000000000000000000000000000 #F
0"|
0#]
b00000000000000000000000000000000 "d
b00000000000000000000000000000000 #E
b00000000000000000000000000000000 "k
b00000000000000000000000000000000 #K
0#`
0#b
0#c
b00000000000000000000000000000000 "~
b00000000000000000000000000000000 #_
0#d
0#e
0#f
b00000 #[
0#g
b00000 "}
b00000 #^
0#h
b00000000000000000000000000000000 #a
b00000000000000000000000000000000 "w
b00000000000000000000000000000000 #X
b00000 #Q
b00000000000000000000000000000000 "u
b00000000000000000000000000000000 "t
b00000000000000000000000000000000 "{
b00000000000000000000000000000000 "z
b00000000000000000000000000000000 "y
b00000000000000000000000000000000 "x
b00000 #W
b00000 "i
b00000 "l
b00000 #O
b00000 "a
b0000000 )
b00000 "g
b00000 "Z
b00000 "\
b00000 "P
b00000 "U
b00000 "T
b00000000000000000000000000000000 "3
b00000000000000000000000000000000 "1
b00000000000000000000000000000000 "0
b00000000000000000000000000000000 "&
b00000000000000000000000000000000 "%
b000000000 !
b00000000000000000000000000000000 "*
b00000000000000000000000000000000 "?
b00000000000000000000000000000000 "=
b00000000000000000000000000000000 "C
b00000000000000000000000000000000 #$
b00000000000000000000000000000000 ##
b00000000000000000000000000000000 #"
b00000000000000000000000000000000 #!
b00000000000000000000000000000000 "7
b00000000000000000000000000000000 "6
b00000000000000000000000000000000 ";
b00000000000000000000000000000000 #0
b00000000000000000000000000000000 #/
b00000000000000000000000000000000 "M
b00000000000000000000000000000000 #.
b00000000000000000000000000000000 #-
b00000000000000000000000000000000 #4
b00000000000000000000000000000000 "R
b00000000000000000000000000000000 #3
b00000000000000000000000000000000 "Q
b00000000000000000000000000000000 #2
b00000000000000000000000000000000 #1
b00000000000000000000000000000000 "F
b00000000000000000000000000000000 #'
b00000000000000000000000000000000 "E
b00000000000000000000000000000000 #&
b00000000000000000000000000000000 #%
b00000000000000000000000000000000 #,
b00000000000000000000000000000000 "J
b00000000000000000000000000000000 #+
b00000000000000000000000000000000 #*
b0000000000 "]
b00000000000000000000000000000000 #D
b00000000000000000000000000000000 #C
b0000000000 "`
b00000000000000000000000000000000 #B
b00000000000000000000000000000000 #8
b00000000000000000000000000000000 #7
b00000000000000000000000000000000 #5
b00000000000000000000000000000000 #<
b00000000000000000000000000000000 #;
b000000000000000000000 7
b0000000000 d
b00000000000000000000000000000000 "#
b00000000000000000000000000000000 ""
b00000000000000000000000000000000 "!
b0000000000 A
b0000000000 ?
b00010000000000000000101000010011 `
b00000 "
b00000 $
b00000 '
b000 "c
b00000 &
b00000 +
b00000 .
b00000000000 #Z
b00000 <
b00000 >
b00000000000000000000000000000000 ~
b00000 C
b00000 F
b00000000000000000000000000000000 j
b00000 T
b00000000000000000000000000000000 g
b0000000000 "e
b0000000000 "j
b00000 b
b00000000000000000000000000000000 z
b00000000000000000000000000000000 |
b00000000000000000000000000000000 w
b00000000000000000000000000000000 s
b00000000000000000000000000000000 r
b00000 l
b00000000000000000000000000000000 o
b00000000000000000000000000000000 q
b00000000000000000000000000000000 p
b00000000000000000000000000000000 J
b00000000000000000000000000000000 I
b00000 x
b00000000000000000000000000000000 H
b00000000000000000000000000000000 B
b00000000000000000000000000000000 [
b00000000000000000000000000000000 Z
0#
0%
b00000000000000000000000000000000 V
0(
b00000000000000000000000000000000 S
b00000000000000000000000000000000 R
0,
0/
$end
#0
b00010000000000000000101000010011 "C
1")
b00010000000000000000101000010011 I
1"N
b00010000000000000000101000010011 p
1u
1"9
1#\
1"|
1">
b00010000000000000000101000010011 #_
b00000000000000000000000000000100 #B
#1
1#c
1c
1#g
1#H
1i
1"O
1/
1P
11
1#6
1U
1":
1{
1=
1#@
1#b
#6
0#c
0c
0")
0i
0"N
0"O
0/
0P
01
0U
0u
0":
0#\
0"|
0{
0">
0=
0#b
#11
b00000000000000000000000000000001 ""
b00000000000000000000000000000100 #C
1"'
b10100 F
b00001 "i
b00000000000000000000000100000000 "*
b00001 "+
b10100 #O
1M
1P
b00000000000000000000000100000000 #T
1#V
1U
b00000000000000000000000000000100 V
b00100000000 #Z
1":
b00000000000000000000000000000100 "z
1#b
1#c
1c
b10100 $
b00000000000000000000000000000100 "F
1f
b0010011 )
1i
b00010000000000000000101000010011 "M
b00001000 m
1"O
b10100 .
1/
b00010000000000000000101000010011 o
11
b000100010100 4
b000000000000100000000 7
b0000100010100 8
b00000000000000000000000000000100 z
1{
b00010000000000000000101000010011 |
1=
b0001000 "_
b00000000000000000000000000001000 #B
#16
0#c
0c
0i
0"O
0/
0P
01
0U
0":
0{
0=
0#b
#21
b00000000000000000000000000001000 #C
b00000000000000000000000100000000 #D
b00000000000000000000000000000100 #E
b00000000000000000000000100000000 "k
1#S
1"r
b00000000000000000000000100000000 #X
b00000000000000000000000000001000 "z
b10100 "}
b00001 #^
b00010010110000000000101010010011 #_
b00000000000000000000000000000100 #a
1#b
1#c
b00000000000000000000000100000000 -
1/
11
1=
b00000000000000000000000000000010 ""
b10100 "$
b00000000000000000000000100000000 "%
b00010010110000000000101010010011 I
b00000000000000000000000100000000 J
b00001 ",
1P
b10100 T
1U
b00000000000000000000000000001000 V
0"9
1":
b00000000000000000000000000000100 [
b00010010110000000000101010010011 "C
1c
b00000000000000000000000000001000 "F
1e
b00000000000000000000000100000000 g
1i
1k
1"O
b00000000000000000000000100000000 #1
b00010010110000000000101010010011 p
1"W
b00001 "Z
b00000000000000000000000000001000 z
1{
b0000000001 "]
b0000000001 "`
b00000000000000000000000000001100 #B
#26
0#c
0c
0i
0"O
0/
0P
01
0U
0":
0{
0=
0#b
#31
1"b
b00000000000000000000000000001100 #C
b00000000000000000000000100000000 "d
b00000000000000000000000000001000 #E
b10100 "g
1#I
b00000000000000000000000000000100 #K
b00000000000000000000000100000000 #N
b10101 #O
b00000000000000000000000100101100 #T
b01 #U
b00100101100 #Z
b00000000000000000000000000001100 "z
b00000000101000000000000010010011 #_
b00000000000000000000000000001000 #a
1#b
1#c
b10101 $
b10100 '
1/
11
b000100110101 4
b000000000000100101100 7
b0100100110100 8
b00000000000000000000000000000100 9
1=
b01100 >
b0001000000 ?
b00000000000000000000000100000000 "!
b00000000000000000000000000000011 ""
b10101 F
b00000000000000000000000100101100 "*
b00000000101000000000000010010011 I
b01100 "-
1P
b00000000000000000000000100000000 "6
1U
b00000000000000000000000000001100 V
1X
1":
b00000000000000000000000000001000 [
b00000000000000000000000000000100 "?
b00000000101000000000000010010011 "C
b10100 b
1c
b00000000000000000000000001000000 "E
b00000000000000000000000000001100 "F
b00000000000000000000000100000000 #+
1i
b00010010110000000000101010010011 "M
b01001001 m
1"O
b10100 "P
b00010010110000000000101010010011 o
b00000000101000000000000010010011 p
b01100 "U
1t
b00000000000000000000000000001100 z
1{
b0000000010 "]
b00010010110000000000101010010011 |
b0001001 "_
b0000000010 "`
b01100 "a
b00000000000000000000000000010000 #B
#36
0#c
0c
0i
0"O
0/
0P
01
0U
0":
0{
0=
0#b
#41
b00000000000000000000000000010000 #C
b00000000000000000000000100101100 #D
b00000000000000000000000000001100 #E
b0001000000 "e
b00000000000000000000000000001000 #K
b00000000000000000000000100101100 "k
b00001 #O
b00000000000000000000000100000000 #P
b10100 #Q
b00000000000000000000000000001010 #T
b00000000000000000000000100101100 #X
b00000001010 #Z
b10100 #[
b00000000000000000000000000010000 "z
b10101 "}
b00000001010000000000000100010011 #_
b00000000000000000000000000001100 #a
1#b
1#c
b01100 "
b00001 $
b00000000000000000000000100101100 -
b00000 .
1/
11
b000000000001 4
b000000000000000001010 7
b0100000000000 8
b00000000000000000000000000001000 9
1;
1=
b01010 >
b00000000000000000000000000000100 ""
b0001000000 A
b10101 "$
b00000000000000000000000100101100 "%
b00001 F
b00000000000000000000000000001010 "*
b00000001010000000000000100010011 I
b00000000000000000000000100101100 J
b01010 "-
1P
b00000000000000000000000100000000 "3
b01100 "5
b10101 T
1U
b00000000000000000000000000010000 V
1":
b00000000000000000000000000001100 [
b00000000000000000000000000001000 "?
1"B
b00000001010000000000000100010011 "C
1c
b0001000000 d
b00000000000000000000000000010000 "F
b00000000000000000000000100101100 g
1i
b01100 "K
b00000000101000000000000010010011 "M
b10100 l
b01000000 m
1"O
b00000000000000000000000100101100 #1
b00000000101000000000000010010011 o
b00000001010000000000000100010011 p
b00000000000000000000000100000000 s
b01010 "U
1v
1"X
b00000000000000000000000100000000 w
b10100 x
b00000000000000000000000000010000 z
b01100 "\
1{
b0000000011 "]
b00000000101000000000000010010011 |
b0000000 "_
b0000000011 "`
b01010 "a
b00000000000000000000000000010100 #B
#46
0#c
0c
0i
0"O
0/
0P
01
0U
0":
0{
0=
0#b
#51
b00000000000000000000000000010100 #C
b00000000000000000000000000001010 #D
b00000000000000000000000100101100 "d
b00000000000000000000000000010000 #E
b10101 "g
b00000000000000000000000000001100 #K
b00000000000000000000000000001010 "k
b00000000000000000000000100101100 #N
b00010 #O
b00000000000000000000000000010100 #T
b00 #U
b00000000000000000000000000001010 #X
b00000010100 #Z
b00000000000000000000000000010100 "z
b00000000000000000000000100000000 "{
b00001 "}
b00000001111000000000000110010011 #_
b00000000000000000000000000010000 #a
1#b
1#c
b01010 "
b00010 $
b10101 '
b00000000000000000000000000001010 -
b00010 .
1/
11
b000000000010 4
b000000000000000010100 7
b0000000000010 8
b00000000000000000000000000001100 9
1=
b10100 >
b0001001011 ?
b00000000000000000000000100101100 "!
b00000000000000000000000000000101 ""
b00001 "$
b00000000000000000000000000001010 "%
b00010 F
b00000000000000000000000000010100 "*
b00000001111000000000000110010011 I
b00000000000000000000000000001010 J
b10100 "-
1P
b01010 "5
b00001 T
b00000000000000000000000100101100 "6
1U
b00000000000000000000000000010100 V
1":
b00000000000000000000000100000000 Z
b00000000000000000000000000010000 [
b00000000000000000000000000001100 "?
1"@
b00000001111000000000000110010011 "C
b10101 b
1c
b00000000000000000000000001001011 "E
b00000000000000000000000000010100 "F
b00000000000000000000000000001010 g
b00000000000000000000000100101100 #+
b00000000000000000000000100000000 "J
1i
b01010 "K
b00000001010000000000000100010011 "M
b00000000 m
1"O
b10101 "P
b00000000000000000000000000001010 #1
b00000001010000000000000100010011 o
b00000001111000000000000110010011 p
b10100 "U
b00000000000000000000000000010100 z
b01010 "\
1{
b0000000100 "]
b00000001010000000000000100010011 |
b0000000100 "`
b10100 "a
b00000000000000000000000000011000 #B
#56
0#c
0c
0i
0"O
0/
0P
01
0U
0":
0{
0=
0#b
#61
b00000000000000000000000000011000 #C
b00000000000000000000000000010100 #D
b00000000000000000000000000001010 "d
b00000000000000000000000000010100 #E
b0001001011 "e
b00001 "g
b00000000000000000000000000010000 #K
b00000000000000000000000000010100 "k
b00000000000000000000000000001010 #N
b00011 #O
b00000000000000000000000100101100 #P
b10101 #Q
b00000000000000000000000000011110 #T
b01 #U
b00000000000000000000000000010100 #X
b00000011110 #Z
b10101 #[
b00000000000000000000000000011000 "z
b00010 "}
b00000010100000000000001000010011 #_
b00000000000000000000000000010100 #a
1#b
1#c
b10100 "
b00011 $
b00001 '
b00000000000000000000000000010100 -
1/
11
b000000000011 4
b000000000000000011110 7
b0100000000010 8
b00000000000000000000000000010000 9
1=
b11110 >
b0000000010 ?
b00000000000000000000000000001010 "!
b00000000000000000000000000000110 ""
b0001001011 A
b00000000000000000000000100000000 B
b00010 "$
b00000000000000000000000000010100 "%
b00000000000000000000000100000000 "&
b00011 F
b00000000000000000000000100000000 H
b00000000000000000000000000011110 "*
b00000010100000000000001000010011 I
b00000000000000000000000000010100 J
b11110 "-
1P
b00000000000000000000000100101100 "3
b00000000000000000000000100000000 S
b10100 "5
b00010 T
b00000000000000000000000000001010 "6
1U
b00000000000000000000000000011000 V
1":
b00000000000000000000000000000000 Z
b00000000000000000000000000010100 [
b00000000000000000000000000010000 "?
0"@
b00000010100000000000001000010011 "C
b00001 b
1c
b00000000000000000000000000000010 "E
b0001001011 d
b00000000000000000000000000011000 "F
b00000000000000000000000000010100 g
b00000000000000000000000000001010 #+
b00000000000000000000000000000000 "J
1i
b10100 "K
b00000001111000000000000110010011 "M
b10101 l
b01000000 m
1"O
b00001 "P
b00000000000000000000000000010100 #1
b00000001111000000000000110010011 o
b00000010100000000000001000010011 p
b00000000000000000000000100101100 s
b11110 "U
b00000000000000000000000100101100 w
b10101 x
b00000000000000000000000000011000 z
b10100 "\
1{
b0000000101 "]
b00000001111000000000000110010011 |
b0000000101 "`
b11110 "a
b00000000000000000000000000011100 #B
#66
0#c
0c
0i
0"O
0/
0P
01
0U
0":
0{
0=
0#b
#71
b11110 "
b00100 $
b00010 '
b00000000000000000000000000011110 -
b00100 .
1/
11
b000000100100 4
b00000000000000000000000100000000 5
b000000000000000101000 7
b0000000100100 8
b00000000000000000000000000010100 9
1=
b01000 >
b0000000101 ?
b00000000000000000000000000010100 "!
b00000000000000000000000000000111 ""
b0000000010 A
b00000000000000000000000000000000 B
b00011 "$
b00000000000000000000000000011110 "%
b00000000000000000000000000000000 "&
b00100 F
b00000000000000000000000000000000 H
b00000000000000000000000000101000 "*
b00000011001000000000001010010011 I
b00000000000000000000000000011110 J
b01000 "-
b00000000000000000000000100000000 "0
b00000000000000000000000100000000 "1
1P
b00000000000000000000000000001010 "3
b00000000000000000000000000000000 S
b11110 "5
b00011 T
b00000000000000000000000000010100 "6
1U
b00000000000000000000000000011100 V
1":
b00000000000000000000000100000000 ";
b00000000000000000000000000011000 [
b00000000000000000000000000010100 "?
b00000011001000000000001010010011 "C
b00010 b
1c
b00000000000000000000000000000101 "E
b0000000010 d
b00000000000000000000000000011100 "F
b00000000000000000000000000011110 g
b00000000000000000000000000010100 #+
1i
b11110 "K
b00000000000000000000000100000000 j
b00000010100000000000001000010011 "M
b00001 l
b00000001 m
1"O
b00010 "P
b00000000000000000000000000011110 #1
b00000010100000000000001000010011 o
b00000011001000000000001010010011 p
b00000000000000000000000000001010 s
b01000 "U
b00000000000000000000000000001010 w
b00001 x
b00000000000000000000000000011100 z
b11110 "\
1{
b0000000110 "]
b00000010100000000000001000010011 |
b0000001 "_
b0000000110 "`
b01000 "a
b00000000000000000000000000100000 #B
b00000000000000000000000000011100 #C
b00000000000000000000000000011110 #D
b00000000000000000000000000010100 "d
b00000000000000000000000000011000 #E
b0000000010 "e
b00010 "g
b00000000000000000000000000010100 #K
b00000000000000000000000000011110 "k
b00000000000000000000000000010100 #N
b00100 #O
b00000000000000000000000000001010 #P
b00001 #Q
b00000000000000000000000100101100 "q
b00000000000000000000000000101000 #T
b00 #U
b00000000000000000000000000011110 #X
b00000101000 #Z
b00001 #[
b00000000000000000000000000011100 "z
b00011 "}
b00000011001000000000001010010011 #_
b00000000000000000000000000011000 #a
1#b
1#c
#76
0#c
0c
0i
0"O
0/
0P
01
0U
0":
0{
0=
0#b
#81
b00000000000000000000000000100000 #C
b00000000000000000000000000101000 #D
b00000000000000000000000000011110 "d
b00000000000000000000000000011100 #E
b0000000101 "e
b00011 "g
b00000000000000000000000000011000 #K
b00000000000000000000000000101000 "k
b00000000000000000000000000011110 #N
b00101 #O
b00000000000000000000000000010100 #P
b00010 #Q
b00000000000000000000000000110010 #T
b01 #U
b00000000000000000000000000101000 #X
b00000110010 #Z
b00010 #[
b00000000000000000000000000100000 "z
b00100 "}
b00000011110000000000001100010011 #_
b00000000000000000000000000011100 #a
1#b
1#c
b01000 "
b00101 $
b00011 '
b00000000000000000000000000101000 -
1/
11
b000000100101 4
b00000000000000000000000000000000 5
b000000000000000110010 7
b0100000100100 8
b00000000000000000000000000011000 9
1=
b10010 >
b0000000111 ?
b00000000000000000000000000011110 "!
b00000000000000000000000000001000 ""
b0000000101 A
b00100 "$
b00000000000000000000000000101000 "%
b00101 F
b00000000000000000000000000110010 "*
b00000011110000000000001100010011 I
b00000000000000000000000000101000 J
b10010 "-
b00000000000000000000000000000000 "0
b00000000000000000000000000000000 "1
1P
b00000000000000000000000000010100 "3
b01000 "5
b00100 T
b00000000000000000000000000011110 "6
1U
b00000000000000000000000000100000 V
1":
b00000000000000000000000000000000 ";
b00000000000000000000000000011100 [
b00000000000000000000000000011000 "?
b00000011110000000000001100010011 "C
b00011 b
1c
b00000000000000000000000000000111 "E
b0000000101 d
b00000000000000000000000000100000 "F
b00000000000000000000000000101000 g
b00000000000000000000000000011110 #+
1i
b01000 "K
b00000000000000000000000000000000 j
b00000011001000000000001010010011 "M
b00010 l
b01000001 m
1"O
b00011 "P
b00000000000000000000000000101000 #1
b00000011001000000000001010010011 o
b00000011110000000000001100010011 p
b00000000000000000000000000001010 #4
b00000000000000000000000100000000 r
b00000000000000000000000000010100 s
b10010 "U
b00000000000000000000000000010100 w
b00010 x
b00000000000000000000000000100000 z
b01000 "\
1{
b0000000111 "]
b00000011001000000000001010010011 |
b0000000111 "`
b10010 "a
b00000000000000000000000000100100 #B
#86
0#c
0c
0i
0"O
0/
0P
01
0U
0":
0{
0=
0#b
