pa2/pa2/test_run_dir/Core_should_match_golden_memory/Core.vcd
$date
2025-12-05T17:34+0000
$end
$version
0.2
$end
$comment

$end
$timescale 1ns  $end
$scope module Core $end
 $var wire 1 @ inst_mem $end
 $var wire 1 H alu $end
 $var wire 1 I clock $end
 $var wire 32 K forwarded_src1 $end
 $var wire 32 L forwarded_src2 $end
 $var wire 1 P io_peek_write $end
 $var wire 32 d io_peek_data $end
 $var wire 1 o reset $end
 $var wire 1 s ex_mem $end
 $var wire 1 ") reg_file $end
 $var wire 32 "- io_wb_result $end
 $var wire 32 "; io_inst $end
 $var wire 1 "J data_mem $end
 $var wire 1 "R forwarding_unit $end
 $var wire 32 "o io_pc $end
 $var wire 1 "| if_id $end
 $var wire 32 "~ io_peek_addr $end
 $var wire 1 #/ mem_wb $end
 $var wire 1 #S pc_handle $end
 $var wire 1 #W id_ex $end
 $var wire 1 #Z decoder $end
  $scope module id_ex $end
   $var wire 5 " io_out_rs2_addr $end
   $var wire 1 / io_in_ctrl_ctrlMemToReg $end
   $var wire 5 8 rs1_addr_id $end
   $var wire 32 > rs2_data_id $end
   $var wire 5 ? io_out_rs1_addr $end
   $var wire 5 A io_in_rd_addr $end
   $var wire 32 E io_out_imm $end
   $var wire 32 S io_in_rs2_data $end
   $var wire 1 V io_stall $end
   $var wire 1 W io_out_ctrl_ctrlMemWrite $end
   $var wire 1 X io_flush $end
   $var wire 1 \ clock $end
   $var wire 1 ` io_in_ctrl_ctrlRegWrite $end
   $var wire 1 e io_out_ctrl_ctrlRegWrite $end
   $var wire 1 h ctrl_id_ctrlMemWrite $end
   $var wire 32 k io_in_rs1_data $end
   $var wire 5 | io_out_rd_addr $end
   $var wire 32 ~ io_out_rs2_data $end
   $var wire 5 "% io_in_ctrl_ctrlALUOp $end
   $var wire 32 "5 rs1_data_id $end
   $var wire 32 "7 pc_id $end
   $var wire 1 "? io_in_ctrl_ctrlMemWrite $end
   $var wire 32 "I io_out_rs1_data $end
   $var wire 1 "N ctrl_id_ctrlRegWrite $end
   $var wire 5 "Q io_out_ctrl_ctrlALUOp $end
   $var wire 5 "S rs2_addr_id $end
   $var wire 5 "W io_in_rs2_addr $end
   $var wire 1 "e io_out_ctrl_ctrlMemToReg $end
   $var wire 1 "g io_out_ctrl_ctrlALUSrc $end
   $var wire 1 "k io_in_ctrl_ctrlMemRead $end
   $var wire 1 "q reset $end
   $var wire 5 "r rd_addr_id $end
   $var wire 1 #7 ctrl_id_ctrlMemRead $end
   $var wire 1 #; io_out_ctrl_ctrlMemRead $end
   $var wire 32 #? io_in_pc $end
   $var wire 32 #F io_out_pc $end
   $var wire 1 #M ctrl_id_ctrlALUSrc $end
   $var wire 32 #N io_in_imm $end
   $var wire 1 #P io_in_ctrl_ctrlALUSrc $end
   $var wire 5 #Q io_in_rs1_addr $end
   $var wire 32 #R imm_id $end
   $var wire 5 #X ctrl_id_ctrlALUOp $end
   $var wire 1 #^ ctrl_id_ctrlMemToReg $end
  $upscope $end
  $scope module pc_handle $end
   $var wire 1 < io_to_branch $end
   $var wire 1 N clock $end
   $var wire 32 O io_pc $end
   $var wire 32 x io_jump_addr $end
   $var wire 32 "> pc $end
   $var wire 32 #< next_pc $end
   $var wire 1 #V reset $end
  $upscope $end
  $scope module mem_wb $end
   $var wire 1 2 ctrl_mem_ctrlMemToReg $end
   $var wire 1 7 io_out_ctrl_ctrlRegWrite $end
   $var wire 1 F io_stall $end
   $var wire 1 Z io_flush $end
   $var wire 1 b io_out_ctrl_ctrlMemToReg $end
   $var wire 5 f rd_addr_mem $end
   $var wire 32 m alu_result_mem $end
   $var wire 32 q io_out_alu_result $end
   $var wire 32 y io_in_alu_result $end
   $var wire 1 "# reset $end
   $var wire 1 ", io_in_ctrl_ctrlMemToReg $end
   $var wire 1 "F clock $end
   $var wire 1 "O ctrl_mem_ctrlRegWrite $end
   $var wire 5 "\ io_in_rd_addr $end
   $var wire 1 #D io_in_ctrl_ctrlRegWrite $end
   $var wire 5 #U io_out_rd_addr $end
  $upscope $end
  $scope module data_mem $end
   $var wire 1 & io_ctrlMemRead $end
   $var wire 1 R io_peek_write $end
   $var wire 32 { io_data_out $end
   $var wire 32 "* io_data_in $end
   $var wire 32 "/ io_addr $end
   $var wire 32 "= index $end
   $var wire 10 "[ mem_io_data_out_MPORT_addr_pipe_0 $end
   $var wire 1 "] io_ctrlMemWrite $end
   $var wire 1 "{ peek_write $end
   $var wire 32 #B mem $end
   $var wire 1 #\ clock $end
   $var wire 1 #` mem_io_data_out_MPORT_en_pipe_0 $end
    $scope module mem $end
     $var wire 32 ( MPORT $end
      $scope module MPORT $end
       $var wire 1 , clk $end
       $var wire 10 ; addr $end
       $var wire 10 ] pipeline_addr_0 $end
       $var wire 32 l pipeline_data_0 $end
       $var wire 1 "( mask $end
       $var wire 1 "1 en $end
       $var wire 32 "3 data $end
       $var wire 1 "M valid $end
       $var wire 1 #_ pipeline_valid_0 $end
      $upscope $end
      $scope module io_data_out_MPORT $end
       $var wire 1 - clk $end
       $var wire 10 = addr $end
       $var wire 32 "H data $end
       $var wire 1 #C en $end
      $upscope $end
    $upscope $end
  $upscope $end
  $scope module ex_mem $end
   $var wire 5 % io_out_rd_addr $end
   $var wire 32 1 rs2_data_ex $end
   $var wire 1 6 ctrl_ex_ctrlMemWrite $end
   $var wire 1 B io_in_ctrl_ctrlMemToReg $end
   $var wire 32 C io_in_rs2_data $end
   $var wire 1 J ctrl_ex_ctrlMemRead $end
   $var wire 5 M io_in_rd_addr $end
   $var wire 1 _ io_in_ctrl_ctrlRegWrite $end
   $var wire 1 n ctrl_ex_ctrlRegWrite $end
   $var wire 1 "" io_out_ctrl_ctrlMemWrite $end
   $var wire 32 "+ io_out_rs2_data $end
   $var wire 1 "2 clock $end
   $var wire 1 "4 ctrl_ex_ctrlMemToReg $end
   $var wire 1 "6 reset $end
   $var wire 1 "@ io_in_ctrl_ctrlMemWrite $end
   $var wire 1 "A io_stall $end
   $var wire 5 "G rd_addr_ex $end
   $var wire 1 "P io_in_ctrl_ctrlMemRead $end
   $var wire 1 "X io_out_ctrl_ctrlRegWrite $end
   $var wire 32 "Z io_out_alu_result $end
   $var wire 32 "` io_in_alu_result $end
   $var wire 1 #. io_out_ctrl_ctrlMemRead $end
   $var wire 1 #E io_flush $end
   $var wire 32 #I alu_result_ex $end
   $var wire 1 #a io_out_ctrl_ctrlMemToReg $end
  $upscope $end
  $scope module inst_mem $end
   $var wire 1 9 clock $end
   $var wire 32 Y mem $end
   $var wire 32 j io_inst $end
   $var wire 32 z index $end
   $var wire 10 "V mem_io_inst_MPORT_addr_pipe_0 $end
   $var wire 1 #: mem_io_inst_MPORT_en_pipe_0 $end
   $var wire 32 #= io_addr $end
    $scope module mem $end
      $scope module io_inst_MPORT $end
       $var wire 32 D data $end
       $var wire 1 u clk $end
       $var wire 10 "T addr $end
       $var wire 1 #+ en $end
      $upscope $end
    $upscope $end
  $upscope $end
  $scope module if_id $end
   $var wire 32 U io_out_pc $end
   $var wire 32 i io_out_inst $end
   $var wire 32 t io_in_pc $end
   $var wire 1 "< io_flush $end
   $var wire 32 "D inst_if $end
   $var wire 1 "E reset $end
   $var wire 1 #G io_stall $end
   $var wire 32 #Y io_in_inst $end
   $var wire 32 #[ pc_if $end
   $var wire 1 #] clock $end
  $upscope $end
  $scope module alu $end
   $var wire 32 * io_imm $end
   $var wire 32 5 io_pc $end
   $var wire 32 a src2_s $end
   $var wire 32 } io_alu_result $end
   $var wire 5 "& io_aluOp $end
   $var wire 5 "C shamt $end
   $var wire 32 #& io_src2 $end
   $var wire 32 #( io_src1 $end
   $var wire 32 #> alu_result $end
   $var wire 32 #@ src1_s $end
  $upscope $end
  $scope module decoder $end
   $var wire 9 ! immJ_hi_hi $end
   $var wire 5 # rd $end
   $var wire 7 ' opcode $end
   $var wire 5 + immB_lo $end
   $var wire 1 . io_ctrl_ctrlMemRead $end
   $var wire 12 0 immS $end
   $var wire 21 3 immJ $end
   $var wire 13 4 immB $end
   $var wire 1 G io_ctrl_ctrlRegWrite $end
   $var wire 8 g immB_hi $end
   $var wire 32 v io_inst $end
   $var wire 1 w io_ctrl_ctrlMemToReg $end
   $var wire 1 "! io_ctrl_ctrlALUSrc $end
   $var wire 32 "$ io_imm $end
   $var wire 5 "' io_regs_rs2_addr $end
   $var wire 5 "K rs1 $end
   $var wire 5 "L rs2 $end
   $var wire 7 "U funct7 $end
   $var wire 3 "Y funct3 $end
   $var wire 5 "^ io_ctrl_ctrlALUOp $end
   $var wire 10 "_ immJ_hi $end
   $var wire 5 "a io_regs_rs1_addr $end
   $var wire 1 #H io_ctrl_ctrlMemWrite $end
   $var wire 5 #J io_regs_rd_addr $end
   $var wire 2 #O immB_hi_hi $end
   $var wire 11 #T immJ_lo $end
  $upscope $end
  $scope module forwarding_unit $end
   $var wire 5 $ io_rs1_ex $end
   $var wire 1 Q io_reg_write_mem $end
   $var wire 1 T printf $end
   $var wire 5 [ io_rd_mem $end
   $var wire 1 ^ clock $end
   $var wire 5 ". io_rs2_ex $end
   $var wire 1 ": io_reg_write_wb $end
   $var wire 1 #2 printf_5 $end
   $var wire 1 #3 printf_4 $end
   $var wire 1 #4 printf_3 $end
   $var wire 2 #5 io_forward_b $end
   $var wire 1 #6 printf_2 $end
   $var wire 2 #8 io_forward_a $end
   $var wire 1 #9 printf_1 $end
   $var wire 1 #A reset $end
   $var wire 5 #L io_rd_wb $end
  $upscope $end
  $scope module reg_file $end
   $var wire 5 ) io_rs1_addr $end
   $var wire 5 : io_rs2_addr $end
   $var wire 1 c clock $end
   $var wire 1 p io_reg_write $end
   $var wire 5 r io_rd_addr $end
   $var wire 32 "0 io_rs1_data $end
   $var wire 1 "8 bypass_rs2 $end
   $var wire 1 "9 bypass_rs1 $end
   $var wire 32 "B io_rs2_data $end
   $var wire 32 "b regs_19 $end
   $var wire 32 "c regs_18 $end
   $var wire 32 "d regs_22 $end
   $var wire 32 "f regs_21 $end
   $var wire 32 "h regs_24 $end
   $var wire 32 "i regs_23 $end
   $var wire 32 "j regs_26 $end
   $var wire 32 "l regs_25 $end
   $var wire 32 "m regs_28 $end
   $var wire 32 "n regs_27 $end
   $var wire 32 "p regs_20 $end
   $var wire 32 "s regs_11 $end
   $var wire 32 "t regs_10 $end
   $var wire 32 "u regs_13 $end
   $var wire 32 "v regs_12 $end
   $var wire 32 "w regs_15 $end
   $var wire 32 "x regs_14 $end
   $var wire 32 "y regs_17 $end
   $var wire 32 "z regs_16 $end
   $var wire 32 "} regs_9 $end
   $var wire 32 #! regs_0 $end
   $var wire 32 #" regs_5 $end
   $var wire 32 ## regs_29 $end
   $var wire 32 #$ regs_6 $end
   $var wire 32 #% regs_7 $end
   $var wire 32 #' regs_8 $end
   $var wire 32 #) regs_1 $end
   $var wire 32 #* regs_2 $end
   $var wire 32 #, regs_3 $end
   $var wire 32 #- regs_4 $end
   $var wire 32 #0 regs_31 $end
   $var wire 32 #1 regs_30 $end
   $var wire 32 #K io_rd_data $end
  $upscope $end
$upscope $end
$enddefinitions $end
$dumpvars
b00000000000000000000000000000000 *
02
b00000000 g
b000000000000 0
06
07
b00000000000000000000000000000000 (
09
0<
0@
0B
0F
0G
0H
0I
0J
b00000000000000000000000000000000 5
0N
b00000000000000000000000000000000 1
0P
0Q
0R
0T
0V
0W
0X
0Z
0\
0^
0_
0`
0b
0c
0e
1"(
0h
0n
0o
0p
0s
0u
0w
b0000000000000 4
b0000000 "U
0"!
0""
0"#
0")
0",
b00 #O
0"1
0"2
0"4
b00000 "K
0"6
b00 #5
b00000 "L
b00 #8
0"8
0"9
0":
0"<
b00000 "C
0"?
0"@
b00000 "G
0"A
0"E
0"F
0"J
0#+
0"M
0#.
0"N
0#/
0"O
0"P
0#2
0"R
0#3
0#4
0#6
0#7
0"X
0#9
0#:
b00000 ".
0#;
0"]
b00000 "%
0#A
b00000 "'
b00000 "&
0#C
0#D
0#E
0"e
0#G
0"g
0#H
0"k
0#M
0#P
0"q
b00000000000000000000000000000000 "o
0#S
b00000000000000000000000000000000 "n
b00000000000000000000000000000000 "m
b00000000000000000000000000000000 #N
b00000000000000000000000000000000 "l
0#V
b00000000000000000000000000000000 "s
0#W
b00000000000000000000000000000000 #R
b00000000000000000000000000000000 "p
0#Z
b00000000000000000000000000000000 "f
0"{
0#\
b00000000000000000000000000000000 #F
0"|
0#]
b00000000000000000000000000000000 "d
0#^
0#_
b00000000000000000000000000000000 "j
b00000000000000000000000000000000 #K
0#`
b00000000000000000000000000000000 "i
0#a
b00000000000000000000000000000000 "h
b00000000000000000000000000000000 #I
b00000000000000000000000000000000 "~
b00000000000000000000000000000000 "}
b00000000000000000000000000000000 "w
b00000000000000000000000000000000 "v
b00000 #Q
b00000000000000000000000000000000 "u
b00000000000000000000000000000000 "t
b00000 "r
b00000000000000000000000000000000 "z
b00000000000000000000000000000000 #[
b00000 #U
b00000000000000000000000000000000 "y
b00000 #X
b00000000000000000000000000000000 "x
b00000000000000000000000000000000 #Y
b00000 #J
b00000 #L
b00000 "a
b0000000 '
b00000 "\
b00000 "^
b00000 "Q
b00000 "S
b00000 "W
b00000000000000000000000000000000 "/
b00000000000000000000000000000000 "-
b00000000000000000000000000000000 "3
b00000000000000000000000000000000 "0
b00000000000000000000000000000000 "$
b00000000000000000000000000000000 "+
b000000000 !
b00000000000000000000000000000000 "*
b00000000000000000000000000000000 ">
b00000000000000000000000000000000 "=
b00000000000000000000000000000000 #$
b00000000000000000000000000000000 "B
b00000000000000000000000000000000 ##
b00000000000000000000000000000000 #"
b00000000000000000000000000000000 #!
b00000000000000000000000000000000 "7
b00000000000000000000000000000000 "5
b00000000000000000000000000000000 ";
b00000000000000000000000000000000 #0
b00000000000000000000000000000000 #-
b00000000000000000000000000000000 #1
b00000000000000000000000000000000 #(
b00000000000000000000000000000000 #'
b00000000000000000000000000000000 #&
b00000000000000000000000000000000 "D
b00000000000000000000000000000000 #%
b00000000000000000000000000000000 #,
b00000000000000000000000000000000 "I
b00000000000000000000000000000000 #*
b00000000000000000000000000000000 "H
b00000000000000000000000000000000 #)
b00000000000000000000000000000000 #@
b00000000000000000000000000000000 #?
b00000000000000000000000000000000 #>
b0000000000 "_
b00000000000000000000000000000000 #=
b00000000000000000000000000000000 "c
b00000000000000000000000000000000 "b
b00000000000000000000000000000000 #B
b00000000000000000000000000000000 "`
b0000000000 "T
b000000000000000000000 3
b0000000000 "V
b00000000000000000000000000000000 #<
b00000000000000000000000000000000 "Z
b0000000000 "[
b0000000000 ]
b0000000000 =
b0000000000 ;
b000 "Y
b00000 #
b00000 "
b00000 %
b00000 $
b00000000000 #T
b00000 )
b00000 +
b00000000010100000000000010010011 Y
b00000 8
b00000 :
b00000 ?
b00000000000000000000000000000000 ~
b00000 A
b00000 M
b00000000000000000000000000000000 k
b00000000000000000000000000000000 j
b00000000000000000000000000000000 m
b00000000000000000000000000000000 l
b00000000000000000000000000000000 i
b00000 [
b00000000000000000000000000000000 d
b00000000000000000000000000000000 a
b00000000000000000000000000000000 {
b00000000000000000000000000000000 z
b00000000000000000000000000000000 }
b00000 f
b00000000000000000000000000000000 v
b00000000000000000000000000000000 y
b00000000000000000000000000000000 x
b00000000000000000000000000000000 t
b00000000000000000000000000000000 q
b00000000000000000000000000000000 K
b00000 r
b00000000000000000000000000000000 L
b00000000000000000000000000000000 C
b00000000000000000000000000000000 E
b00000 |
b00000000000000000000000000000000 D
b00000000000000000000000000000000 >
0&
b00000000000000000000000000000000 S
b00000000000000000000000000000000 U
0,
b00000000000000000000000000000000 O
0-
0.
0/
$end
#0
1"#
1"E
b00000000010100000000000010010011 D
b00000000010100000000000010010011 j
1o
1"q
1#V
1"6
b00000000010100000000000010010011 #Y
b00000000010100000000000010010011 ";
b00000000000000000000000000000100 #<
1#A
#1
1#C
1c
1"F
1#+
1I
1,
1-
1N
1"2
1u
1#:
19
1#\
1#]
1\
1#`
1^
#6
0"#
0c
0"E
0"F
0I
0,
0-
0N
0o
0"q
0"2
0#V
0"6
0u
09
0#\
0#]
0\
0^
0#A
#11
b00001 A
b00000000000000000000000000000101 "$
b00001 "%
b00101 "'
1G
b00001 #J
1I
b00000000000000000000000000000101 #N
b01 #O
1#P
b00000000000000000000000000000100 "o
1N
b00000000000000000000000000000100 O
1"2
b00000000100 #T
1#\
1#]
1\
b00000000000000000000000000000100 ">
1^
1`
b00000000010100000000000010010011 "D
b00001 #
1c
1"F
b0010011 '
b01000000 g
b00000000010100000000000010010011 i
b00101 "L
1,
1-
b000000000001 0
b000000000100000000100 3
b0100000000000 4
b00000000000000000000000000000100 t
1u
b00101 "W
b00000000010100000000000010010011 v
19
b00000000000000000000000000001000 #<
b00101 :
b00000000000000000000000000000001 z
b00000000000000000000000000000100 #=
b00001 "^
b0000000001 "_
1"!
#16
0c
0"F
0I
0,
0-
0N
0"2
0u
09
0#\
0#]
0\
0^
#21
1"g
1#M
b00000000000000000000000000001000 "o
b00000000000000000000000000000101 #R
b00001 "r
b00001 #X
b00000000011000000000000100010011 #Y
b00000000000000000000000000000100 #[
1#\
1#]
b00101 "
b00000000000000000000000000000101 *
1,
1-
19
b00000000011000000000000100010011 D
b00001 "&
b00000000000000000000000000000101 E
1I
b00101 ".
b00001 M
1N
b00000000000000000000000000001000 O
1"2
b00000000000000000000000000000100 U
b00000000011000000000000100010011 ";
1\
b00000000000000000000000000001000 ">
1^
1_
b00000000000000000000000000000101 a
b00101 "C
1c
b00000000000000000000000000000101 #&
1"F
1e
b00000000011000000000000100010011 j
1"N
b00001 "Q
b00101 "S
b0000000001 "T
b00000000000000000000000000001000 t
b0000000001 "V
1u
b00000000000000000000000000001100 #<
b00000000000000000000000000000010 z
b00000000000000000000000000001000 #=
b00000000000000000000000000000101 #>
b00001 |
b00000000000000000000000000000100 #?
b00000000000000000000000000000101 }
b00000000000000000000000000000101 "`
#26
0c
0"F
0I
0,
0-
0N
0"2
0u
09
0#\
0#]
0\
0^
#31
1#D
b00000000000000000000000000000100 #F
b00000000000000000000000000000101 #I
b00010 #J
b00000000000000000000000000000110 #N
b00 #O
b00000000000000000000000000001100 "o
b00000000110 #T
b00010000000000000000101000010011 #Y
b00000000000000000000000000001000 #[
1#\
1#]
b00000000000000000000000000000101 "~
b00010 #
b00001 %
b00010 +
1,
1-
b000000000010 0
b000000000000000000110 3
b0000000000010 4
b00000000000000000000000000000100 5
19
b00110 :
b0000000001 ;
b00010 A
b00000000000000000000000000000110 "$
b00010000000000000000101000010011 D
b00110 "'
1I
b00000000000000000000000000000101 "/
1N
b00000000000000000000000000001100 O
1"2
1Q
b00000000000000000000000000001000 U
b00000000000000000000000000000100 "7
b00010000000000000000101000010011 ";
b00001 [
b00000000000000000000000000000001 "=
1\
b00000000000000000000000000001100 ">
1^
b00000000011000000000000100010011 "D
1c
1"F
b00001 "G
b00000000 g
b00000000011000000000000100010011 i
b00010000000000000000101000010011 j
b00110 "L
1n
b0000000010 "T
b00000000000000000000000000001100 t
b0000000010 "V
1u
b00110 "W
b00000000011000000000000100010011 v
1"X
b00000000000000000000000000000101 "Z
b00000000000000000000000000000101 y
b00000000000000000000000000010000 #<
b00000000000000000000000000000011 z
b00001 "\
b00000000000000000000000000001100 #=
b00000000000000000000000000001000 #?
b0000000000 "_
#36
0c
0"F
0I
0,
0-
0N
0"2
0u
09
0#\
0#]
0\
0^
#41
b00000000000000000000000000001000 #F
b10100 #J
b00000000000000000000000000000101 #K
b00001 #L
b00000000000000000000000100000000 #N
b00000000000000000000000000010000 "o
b00000000000000000000000000000110 #R
b00010 "r
b00100000000 #T
b00001 #U
b00000000001000001000000110110011 #Y
b00000000000000000000000000001100 #[
1#\
1#]
b00110 "
b10100 #
b00000000000000000000000000000110 *
b10100 +
1,
1-
b000100010100 0
b000000000000100000000 3
b0000100010100 4
b00000000000000000000000000001000 5
17
19
b00000 :
b0000000001 =
b10100 A
b00000000000000000000000100000000 "$
b00000000001000001000000110110011 D
b00000000000000000000000000000110 E
b00000 "'
1I
b00000000000000000000000000000101 "-
b00110 ".
b00010 M
1N
b00000000000000000000000000010000 O
1"2
b00000000000000000000000000001100 U
b00000000000000000000000000001000 "7
1":
b00000000001000001000000110110011 ";
1\
b00000000000000000000000000010000 ">
b0000000001 ]
1^
b00000000000000000000000000000110 a
b00110 "C
b00010000000000000000101000010011 "D
1c
b00000000000000000000000000000110 #&
1"F
b00001 f
b00001000 g
b00010000000000000000101000010011 i
b00000000001000001000000110110011 j
b00000 "L
b00000000000000000000000000000101 m
1"O
1p
b00000000000000000000000000000101 q
b00110 "S
b00001 r
b0000000011 "T
b0001000 "U
b00000000000000000000000000010000 t
b0000000011 "V
1u
b00000 "W
b00010000000000000000101000010011 v
b0000000001 "[
b00000000000000000000000000010100 #<
b00000000000000000000000000000100 z
b00000000000000000000000000010000 #=
b00000000000000000000000000000110 #>
b00010 |
b00000000000000000000000000001100 #?
b00000000000000000000000000000110 }
b00000000000000000000000000000110 "`
#46
0c
0"F
0I
0,
0-
0N
0"2
0u
09
0#\
0#]
0\
0^
#51
b00000000000000000000000000001100 #F
b00000000000000000000000000000110 #I
b00011 #J
b00000000000000000000000000000000 #N
b01 #O
0#P
b00000000000000000000000000010100 "o
b00001 #Q
b00000000000000000000000100000000 #R
b10100 "r
b00000000010 #T
b01000000001000011000001000110011 #Y
b00000000000000000000000000010000 #[
1#\
1#]
b00000000000000000000000000000110 "~
b000001000 !
b00000 "
b00011 #
b00010 %
b0110011 '
b00001 )
b00000000000000000000000100000000 *
b00010 +
1,
1-
b000000000011 0
b000001000000000000010 3
b0100000000010 4
b00000000000000000000000000001100 5
19
b00010 :
0"!
b00011 A
b00000000000000000000000000000000 "$
b01000000001000011000001000110011 D
b00000000000000000000000100000000 E
b00010 "'
1I
b00000 ".
b10100 M
b00000000000000000000000000000110 "/
1N
b00000000000000000000000000000101 "0
b00000000000000000000000000010100 O
1"2
b00000000000000000000000000010000 U
b00000000000000000000000000001100 "7
1"9
b01000000001000011000001000110011 ";
b00010 [
1\
b00000000000000000000000000010100 ">
1^
b00000000000000000000000100000000 a
b00000 "C
b00000000001000001000000110110011 "D
1c
b00000000000000000000000100000000 #&
1"F
b00010 "G
b00000000000000000000000000000101 #)
b01000000 g
b00000000001000001000000110110011 i
b00001 "K
b01000000001000011000001000110011 j
b00010 "L
b00000000000000000000000000000101 k
b00000 "S
b0000000100 "T
b0000000 "U
b00000000000000000000000000010100 t
b0000000100 "V
1u
b00010 "W
b00000000001000001000000110110011 v
b00000000000000000000000000000110 "Z
b00000000000000000000000000000110 y
b00000000000000000000000000011000 #<
b00000000000000000000000000000101 z
b00010 "\
b00000000000000000000000000010100 #=
b00000000000000000000000100000000 #>
b10100 |
b00000000000000000000000000010000 #?
b00000000000000000000000100000000 }
b0000010000 "_
b00000000000000000000000100000000 "`
b00001 "a
#56
0c
0"F
0I
0,
0-
0N
0"2
0u
09
0#\
0#]
0\
0^
#61
b000011000 !
b00010 "
b00100 #
b00001 $
b10100 %
b00011 )
b00000000000000000000000000000000 *
b00100 +
1,
1-
b010000000100 0
b000011000010000000010 3
b0010000000100 4
b00000000000000000000000000010000 5
b00001 8
19
b0001000000 ;
b00001 ?
b00100 A
b00010 "%
b00000000001100100111001010110011 D
b00000000000000000000000000000000 E
1I
b00000000000000000000000000000101 K
b00000000000000000000000000000110 "-
b00000000000000000000000000000110 L
b00010 ".
b00011 M
b00000000000000000000000100000000 "/
1N
b00000000000000000000000000000000 "0
b00000000000000000000000000011000 O
1"2
b00000000000000000000000000000110 S
b00000000000000000000000000000101 "5
b00000000000000000000000000010100 U
b00000000000000000000000000010000 "7
1"8
0"9
b00000000001100100111001010110011 ";
b10100 [
b00000000000000000000000001000000 "=
1\
b00000000000000000000000000011000 ">
1^
b00000000000000000000000000000110 "B
b00000000000000000000000000000110 a
b00110 "C
b01000000001000011000001000110011 "D
1c
b00000000000000000000000000000110 #&
1"F
b10100 "G
b00000000000000000000000000000101 #(
b00010 f
b00100000 g
b00000000000000000000000000000101 "I
b01000000001000011000001000110011 i
b00011 "K
b00000000001100100111001010110011 j
b00000000000000000000000000000000 k
b00000000000000000000000000000110 m
b00000000000000000000000000000110 q
b00010 "S
b00010 r
b01 #5
b0000000101 "T
b0100000 "U
b00000000000000000000000000011000 t
b0000000101 "V
1u
b01000000001000011000001000110011 v
b00000000000000000000000100000000 "Z
b00000000000000000000000100000000 y
b00000000000000000000000000011100 #<
b00000000000000000000000000000110 z
b10100 "\
b00000000000000000000000000011000 #=
b00000000000000000000000000001011 #>
b00011 |
b00000000000000000000000000010100 #?
b00010 "^
b00000000000000000000000000001011 }
b00000000000000000000000000000101 #@
b0000110000 "_
b00000000000000000000000000001011 "`
b00011 "a
b00000000000000000000000000010000 #F
0"g
b00000000000000000000000100000000 #I
b00100 #J
b00000000000000000000000000000110 #K
b00010 #L
0#M
b00 #O
b00000000000000000000000000011000 "o
b00011 #Q
b00000000000000000000000000000000 #R
b00011 "r
b10000000010 #T
b00010 #U
b00000000001100100111001010110011 #Y
b00000000000000000000000000010100 #[
1#\
1#]
b00000000000000000000000100000000 "~
#66
0c
0"F
0I
0,
0-
0N
0"2
0u
09
0#\
0#]
0\
0^
#71
b000100111 !
b00101 #
b00011 $
b00011 %
b00100 )
1,
1-
b000000000101 0
b000100111100000000010 3
b0100000000100 4
b00000000000000000000000000010100 5
b00011 8
19
b00011 :
b0000000010 ;
b0001000000 =
b00000000000000000000000000000110 >
b00011 ?
b00101 A
b00000000000000000000000000000110 C
b00011 "%
b00000000010000101110001100110011 D
b00010 "&
b00011 "'
1I
b00000000000000000000000000001011 K
b00000000000000000000000100000000 "-
b00100 M
b00000000000000000000000000001011 "/
1N
b00000000000000000000000000011100 O
1"2
b00000000000000000000000000000000 S
b00000000000000000000000000000000 "5
b00000000000000000000000000011000 U
b00000000000000000000000000010100 "7
0"8
b00000000010000101110001100110011 ";
b00011 [
b00000000000000000000000000000010 "=
1\
b00000000000000000000000000011100 ">
b0001000000 ]
1^
b00000000000000000000000000000000 "B
b00000000001100100111001010110011 "D
1c
1"F
b00011 "G
b00000000000000000000000000001011 #(
b10100 f
b01000000 g
b00000000000000000000000000000000 "I
b00000000000000000000000000000110 #*
b00000000001100100111001010110011 i
b00100 "K
b00000000010000101110001100110011 j
b00011 "L
b00000000000000000000000100000000 m
b00010 "Q
b00000000000000000000000100000000 q
b10100 r
b00 #5
b0000000110 "T
b0000000 "U
b00000000000000000000000000011100 t
b0000000110 "V
1u
b10 #8
b00011 "W
b00000000001100100111001010110011 v
b111 "Y
b00000000000000000000000000001011 "Z
b00000000000000000000000000001011 y
b0001000000 "[
b00000000000000000000000000100000 #<
b00000000000000000000000000000111 z
b00011 "\
b00000000000000000000000000011100 #=
b00000000000000000000000000000101 #>
b00100 |
b00000000000000000000000000011000 #?
b00011 "^
b00000000000000000000000000000101 }
b00000000000000000000000000001011 #@
b0001001111 "_
b00000000000000000000000000000110 ~
b00000000000000000000000000000101 "`
b00100 "a
b00000000000000000000000000010100 #F
b00000000000000000000000000001011 #I
b00101 #J
b00000000000000000000000100000000 #K
b10100 #L
b01 #O
b00000000000000000000000000011100 "o
b00100 #Q
b00100 "r
b00000000010 #T
b10100 #U
b00010 #X
b00000000010000101110001100110011 #Y
b00000000000000000000000000011000 #[
1#\
1#]
b00000000000000000000000000001011 "~
#76
0c
0"F
0I
0,
0-
0N
0"2
0u
09
0#\
0#]
0\
0^
